TransactionId,Amount,Status,CreateDate,Occupation,Employer,DonationType
40030651392,1.00,Paid,05/09/2019 07:16 AM,Rtyuuuu,Rtyjhh,Other
,500.00,Refunded,05/09/2019 06:26 AM,Politician,Congress,Sponsor
40030648410,2800.00,Paid,05/09/2019 05:58 AM,Politician,Congress,Half-Ironman
,500.00,Refunded,05/09/2019 05:56 AM,Politician,Congress,Sponsor
,600.00,Refunded,05/09/2019 05:54 AM,Politician,Congress,Ironman
,600.00,Refunded,05/09/2019 05:49 AM,Politician,Congress,Ironman
,600.00,Refunded,05/09/2019 05:47 AM,Politician,Congress,Ironman
,500.00,Refunded,05/09/2019 05:46 AM,Politician,Congress,Ironman
,500.00,Refunded,05/09/2019 05:46 AM,Politician,Congress,Ironman
,11200.00,Refunded,05/09/2019 05:43 AM,Politician,Congress,Olympian
40030647961,11200.00,Paid,05/09/2019 05:32 AM,Politician,Congress,Olympian
40030647914,5600.00,Paid,05/09/2019 05:27 AM,Politician,Congress,Ironman
40030647855,11200.00,Paid,05/09/2019 05:22 AM,Politician,Congress,Olympian
40030647851,500.00,Paid,05/09/2019 05:22 AM,Politician,Congress,Sponsor
40030553030,11200.00,Refunded,05/08/2019 07:23 AM,Rtyuuuu,Rtyjhh,Olympian
40030543781,11200.00,Refunded,05/08/2019 04:48 AM,Rtyuuuu,Rtyjhh,Olympian
40030543772,11200.00,Paid,05/08/2019 04:47 AM,Rtyuuuu,Rtyjhh,Olympian
40030486193,500.00,Refunded,05/07/2019 02:58 PM,Self Employed,XYZ Solutions LLC,Sponsor
40030484464,800.00,Refunded,05/07/2019 02:32 PM,Businessman,ABC LLC,Other
40030471888,500.00,Refunded,05/07/2019 10:35 AM,test,test,Sponsor
40030371966,2800.00,Refunded,05/06/2019 01:48 PM,Rtyuuuu,Rtyjhh,Half-Ironman
40030371170,1600.00,Refunded,05/06/2019 01:12 PM,Rtyuuuu,Rtyjhh,Other
40030370537,5600.00,Refunded,05/06/2019 12:36 PM,Rtyuuuu,Rtyjhh,Ironman
40030370532,2800.00,Refunded,05/06/2019 12:35 PM,Rtyuuuu,Rtyjhh,Half-Ironman
40030366568,5600.00,Refunded,05/06/2019 11:59 AM,Politician,Congress,Ironman
60120742111,500.00,Paid,05/06/2019 11:56 AM,ns,Q23$hthgg etrtdgbc,Sponsor
60120735473,2800.00,Refunded,05/06/2019 11:16 AM,Test,Testing gh,Half-Ironman
60120734572,11200.00,Refunded,05/06/2019 11:10 AM,manager,sdss,Olympian
60120730612,11200.00,Paid,05/06/2019 10:46 AM,Iioo,&9980,Olympian
60120708546,5600.00,Refunded,05/06/2019 08:04 AM,Self Employed,XYZ Solutions LLC,Ironman
60120701435,500.00,Paid,05/06/2019 07:48 AM,Service man,Temporary,Other
60120699655,1000.00,Paid,05/06/2019 07:32 AM,guri,dhfg,Champion
60120693660,2800.00,Refunded,05/06/2019 07:13 AM,manager,sq,Half-Ironman
60120692980,2800.00,Refunded,05/06/2019 07:10 AM,pm ,square,Half-Ironman
60120690616,500.00,Refunded,05/06/2019 06:24 AM,Rtyuuuu,Rtyjhh,Sponsor
40030301401,500.00,Refunded,05/04/2019 04:03 PM,Self Employed,ABC Solutions LLC,Sponsor
40030300410,5600.00,Paid,05/04/2019 12:15 PM,Teacher,Knge Corp.,Ironman
40030239904,500.00,Refunded,05/03/2019 05:10 PM,Self Employed,ABC Solutions LLC,Sponsor
40030232202,5600.00,Refunded,05/03/2019 10:55 AM,Bbzbz,Bzbzb,Ironman
40030187916,11200.00,Refunded,05/03/2019 07:28 AM,bhh,gyh,Olympian
40030181314,500.00,Refunded,05/03/2019 05:46 AM,Gsgsg,Ushsh,Sponsor
40030181298,500.00,Refunded,05/03/2019 05:44 AM,Rty,Rty,Sponsor
40030174657,500.00,Refunded,05/02/2019 08:40 PM,Self Employed,ABC Solutions LLC,Sponsor
40030163871,500.00,Refunded,05/02/2019 12:48 PM,Business,PQR Corporation,Sponsor
40030163451,500.00,Refunded,05/02/2019 12:17 PM,Business,MNO Inc,Sponsor
40030154415,500.00,Paid,05/02/2019 09:39 AM,test,baastardeysmksk,Sponsor
40030112071,500.00,Refunded,05/02/2019 05:21 AM,Doctor,Gg,Sponsor
40030098165,5600.00,Refunded,05/01/2019 04:36 PM,Self Employed,ABC Solutions LLC,Ironman
40030098139,500.00,Refunded,05/01/2019 04:35 PM,Self Employed,ABC Solutions LLC,Sponsor
40030096937,500.00,Refunded,05/01/2019 03:50 PM,Self Employed,ABC Solutions LLC,Sponsor
40030096786,500.00,Paid,05/01/2019 03:43 PM,Service man,Temporary,Sponsor
40030096553,500.00,Refunded,05/01/2019 03:34 PM,Self Employed,ABC Solutions LLC,Sponsor
40030095946,500.00,Refunded,05/01/2019 02:55 PM,Self Employed,XYZ Corp,Sponsor
40030081112,850.00,Paid,05/01/2019 01:23 PM,Professor,New York University,Other
40030081082,500.00,Paid,05/01/2019 01:20 PM,Jfjfgjryr,Ergerfgj,Sponsor
40030081056,1000.00,Refunded,05/01/2019 01:17 PM,Business,ABC Inc.,Champion
