TransactionId,CreateDate,Amount,Status,Occupation,Employer,DonationType
40030081082,5/1/2019 1:20:35 PM,500.00,Paid,Jfjfgjryr,Ergerfgj,Sponsor
40030081112,5/1/2019 1:23:35 PM,850.00,Paid,Professor,New York University,Other
40030096786,5/1/2019 3:43:39 PM,500.00,Paid,Service man,Temporary,Sponsor
40030154415,5/2/2019 9:39:50 AM,500.00,Paid,test,baastardeysmksk,Sponsor
40030300410,5/4/2019 12:15:16 PM,5600.00,Paid,Teacher,Knge Corp.,Ironman
60120699655,5/6/2019 7:32:10 AM,1000.00,Paid,guri,dhfg,Champion
60120701435,5/6/2019 7:48:51 AM,500.00,Paid,Service man,Temporary,Other
60120730612,5/6/2019 10:46:35 AM,11200.00,Paid,Iioo,&9980,Olympian
60120742111,5/6/2019 11:56:33 AM,500.00,Paid,ns,Q23$hthgg etrtdgbc,Sponsor
40030543772,5/8/2019 4:47:41 AM,11200.00,Paid,Rtyuuuu,Rtyjhh,Olympian
40030647851,5/9/2019 5:22:07 AM,500.00,Paid,Politician,Congress,Sponsor
40030647855,5/9/2019 5:22:23 AM,11200.00,Paid,Politician,Congress,Olympian
40030647914,5/9/2019 5:27:53 AM,5600.00,Paid,Politician,Congress,Ironman
40030647961,5/9/2019 5:32:26 AM,11200.00,Paid,Politician,Congress,Olympian
40030648410,5/9/2019 5:58:21 AM,2800.00,Paid,Politician,Congress,Half-Ironman
40030651392,5/9/2019 7:16:56 AM,1.00,Paid,Rtyuuuu,Rtyjhh,Other
40030703486,5/9/2019 9:48:19 AM,1451.00,Paid,Politician,Congress,Other
40030707228,5/9/2019 10:28:23 AM,1000.55,Paid,Politician,Congress,Other
40030707443,5/9/2019 10:46:55 AM,5600.00,Paid,Politician,Congress,Ironman
40030707727,5/9/2019 11:04:46 AM,500.00,Paid,Politician,Congress,Sponsor
40030707866,5/9/2019 11:10:55 AM,500.00,Paid,Politician,Congress,Sponsor
40030707938,5/9/2019 11:13:19 AM,5001.00,Paid,Rtyuuuu,Rtyjhh,Other
40030708179,5/9/2019 11:27:47 AM,500.00,Paid,Politician,Congress,Sponsor
40030708776,5/9/2019 12:19:35 PM,500.00,Paid,Politician,Congress,Sponsor
40030708932,5/9/2019 12:27:05 PM,5600.00,Paid,Politician,Congress,Ironman
40030709048,5/9/2019 12:37:07 PM,1000.00,Paid,Businesswoman,Google Inc.,Champion
40030709085,5/9/2019 12:40:11 PM,500.00,Paid,Politician,Congress,Sponsor
40030709152,5/9/2019 12:44:05 PM,500.00,Paid,Politician,Congress,Sponsor
