TransactionId,CreateDate,Amount,Status,Recurring Total Months,Occupation,Employer,DonationType
40030081082,5/1/2019 1:20:35 PM,500.00,Paid,,Jfjfgjryr,Ergerfgj,Sponsor
40030081112,5/1/2019 1:23:35 PM,850.00,Paid,,Professor,New York University,Other
40030096786,5/1/2019 3:43:39 PM,500.00,Paid,0,Service man,Temporary,Sponsor
40030154415,5/2/2019 9:39:50 AM,500.00,Paid,-1,test,baastardeysmksk,Sponsor
40030300410,5/4/2019 12:15:16 PM,5600.00,Paid,0,Teacher,Knge Corp.,Ironman
60120699655,5/6/2019 7:32:10 AM,1000.00,Paid,0,guri,dhfg,Champion
60120701435,5/6/2019 7:48:51 AM,500.00,Paid,-1,Service man,Temporary,Other
60120730612,5/6/2019 10:46:35 AM,11200.00,Paid,,Iioo,&9980,Olympian
60120742111,5/6/2019 11:56:33 AM,500.00,Paid,,ns,Q23$hthgg etrtdgbc,Sponsor
