TransactionId,Amount,Status,CreateDate,Occupation,Employer,DonationType
40030301401,500.00,Refunded,05/04/2019 04:03 PM,Self Employed,ABC Solutions LLC,Sponsor
40030300410,5600.00,Paid,05/04/2019 12:15 PM,Teacher,Knge Corp.,Ironman
40030239904,500.00,Refunded,05/03/2019 05:10 PM,Self Employed,ABC Solutions LLC,Sponsor
40030232202,5600.00,Refunded,05/03/2019 10:55 AM,Bbzbz,Bzbzb,Ironman
40030187916,11200.00,Refunded,05/03/2019 07:28 AM,bhh,gyh,Olympian
40030181314,500.00,Refunded,05/03/2019 05:46 AM,Gsgsg,Ushsh,Sponsor
40030181298,500.00,Refunded,05/03/2019 05:44 AM,Rty,Rty,Sponsor
40030174657,500.00,Refunded,05/02/2019 08:40 PM,Self Employed,ABC Solutions LLC,Sponsor
40030163871,500.00,Refunded,05/02/2019 12:48 PM,Business,PQR Corporation,Sponsor
40030163451,500.00,Refunded,05/02/2019 12:17 PM,Business,MNO Inc,Sponsor
40030154415,500.00,Paid,05/02/2019 09:39 AM,test,baastardeysmksk,Sponsor
40030112071,500.00,Refunded,05/02/2019 05:21 AM,Doctor,Gg,Sponsor
40030098165,5600.00,Refunded,05/01/2019 04:36 PM,Self Employed,ABC Solutions LLC,Ironman
40030098139,500.00,Refunded,05/01/2019 04:35 PM,Self Employed,ABC Solutions LLC,Sponsor
40030096937,500.00,Refunded,05/01/2019 03:50 PM,Self Employed,ABC Solutions LLC,Sponsor
40030096786,500.00,Paid,05/01/2019 03:43 PM,Service man,Temporary,Sponsor
40030096553,500.00,Refunded,05/01/2019 03:34 PM,Self Employed,ABC Solutions LLC,Sponsor
40030095946,500.00,Refunded,05/01/2019 02:55 PM,Self Employed,XYZ Corp,Sponsor
40030081112,850.00,Paid,05/01/2019 01:23 PM,Professor,New York University,Other
40030081082,500.00,Paid,05/01/2019 01:20 PM,Jfjfgjryr,Ergerfgj,Sponsor
40030081056,1000.00,Refunded,05/01/2019 01:17 PM,Business,ABC Inc.,Champion
