Receipt ID,Date,Amount,Recurring Total Months,Recurrence Number,Recipient,Fundraising Page,Fundraising Partner,Reference Code 2,Reference Code,Donor First Name,Donor Last Name,Donor Addr1,Donor Addr2,Donor City,Donor State,Donor ZIP,Donor Country,Donor Occupation,Donor Employer,Donor Email,Donor Phone,New Express Signup,Comments,Check Number,Check Date,Employer Addr1,Employer Addr2,Employer City,Employer State,Employer ZIP,Employer Country,Donor ID,Fundraiser ID,Fundraiser Recipient ID,Fundraiser Contact Email,Fundraiser Contact First Name,Fundraiser Contact Last Name,Partner ID,Partner Contact Email,Partner Contact First Name,Partner Contact Last Name,Reserved,Lineitem ID,AB Test Name,AB Variation,Recipient Committee,Recipient ID,Recipient Gov ID,Recipient Election,Reserved,Payment ID,Payment Date,Disbursement ID,Disbursement Date,Recovery ID,Recovery Date,Refund ID,Refund Date,Fee,Recur Weekly,ActBlue Express Lane,Reserved,Card Type,Reserved,Reserved,Reserved,Reserved,Mobile,Recurring Upsell Shown,Recurring Upsell Succeeded,Double Down,Smart Recurring,Monthly Recurring Amount,Apple Pay,Card Replaced by Account Updater,ActBlue Express Donor
40030081056,2019-05-01 01:17:43,1000.00,1,0,Josh Gottheimer,http://josh.propolitician.com,,,,Mahesh,Verma,,,,,,,Business,ABC Inc.,.,.,,,,,,,,,,,,,,,,,,,,,,,,,Josh Gottheimer for Congress,,,,,,,,,,,,,,,,,Visa,,,,,,,,,,,,,
40030081082,2019-05-01 01:20:35,500.00,0,0,Josh Gottheimer,http://josh.propolitician.com,,,,kiranrty,Dhillonrtyrty,dfg,Hrtuy,Gfdg,California,567567,United States,Jfjfgjryr,Ergerfgj,kirandeep2094@gmail.com,4564564565,,,,,,,,,,,,,,,,,,,,,,,,,Josh Gottheimer for Congress,,,,,,,,,,,,,,,,,Visa,,,,,,,,,,,,,
40030081112,2019-05-01 01:23:35,850.00,0,0,Josh Gottheimer,http://josh.propolitician.com,,,,Shahil,Singh,,,,,,,Professor,New York University,,9878525623,,,,,,,,,,,,,,,,,,,,,,,,,Josh Gottheimer for Congress,,,,,,,,,,,,,,,,,Visa,,,,,,,,,,,,,
40030095946,2019-05-01 02:55:53,500.00,0,0,Josh Gottheimer,http://josh.propolitician.com,,,,MJ,Grover,4249 Colden Street,,Flushing,New York,11355,United States,Self Employed,XYZ Corp,my2asquare@gmail.com,(917) 969-7321,,,,,,,,,,,,,,,,,,,,,,,,,Josh Gottheimer for Congress,,,,,,,,,,,,,,,,,Visa,,,,,,,,,,,,,
40030096553,2019-05-01 03:34:52,500.00,0,0,Josh Gottheimer,http://josh.propolitician.com,,,,MJ,Grover,4249 Colden Street,,Flushing,New York,11355,United States,Self Employed,ABC Solutions LLC,my2asquare@gmail.com,(917) 969-7321,,,,,,,,,,,,,,,,,,,,,,,,,Josh Gottheimer for Congress,,,,,,,,,,,,,,,,,Visa,,,,,,,,,,,,,
40030096786,2019-05-01 03:43:39,500.00,0,0,Josh Gottheimer,http://josh.propolitician.com,,,,Rahul,Verma,303, sector-777,,Flushing,New York,11374,United States,Service man,Temporary,surander.parkeee@gmail.com,(123) 123-1231,,,,,,,,,,,,,,,,,,,,,,,,,Josh Gottheimer for Congress,,,,,,,,,,,,,,,,,Visa,,,,,,,,,,,,,
40030096937,2019-05-01 03:50:19,500.00,0,0,Josh Gottheimer,http://josh.propolitician.com,,,,MJ,Grover,4249 Colden Street,,Flushing,New York,11355,United States,Self Employed,ABC Solutions LLC,my2asquare@gmail.com,(917) 969-7321,,,,,,,,,,,,,,,,,,,,,,,,,Josh Gottheimer for Congress,,,,,,,,,,,,,,,,,Visa,,,,,,,,,,,,,
40030098139,2019-05-01 04:35:07,500.00,0,0,Josh Gottheimer,http://josh.propolitician.com,,,,MJ,Grover,4249 Colden Street,,Flushing,New York,11355,United States,Self Employed,ABC Solutions LLC,my2asquare@gmail.com,(917) 969-7321,,,,,,,,,,,,,,,,,,,,,,,,,Josh Gottheimer for Congress,,,,,,,,,,,,,,,,,Visa,,,,,,,,,,,,,
40030098165,2019-05-01 04:36:32,5600.00,0,0,Josh Gottheimer,http://josh.propolitician.com,,,,MJ,Grover,4249 Colden Street,,Flushing,New York,11355,United States,Self Employed,ABC Solutions LLC,my2asquare@gmail.com,(917) 969-7321,,,,,,,,,,,,,,,,,,,,,,,,,Josh Gottheimer for Congress,,,,,,,,,,,,,,,,,Visa,,,,,,,,,,,,,
40030112071,2019-05-02 05:21:58,500.00,0,0,Josh Gottheimer,http://josh.propolitician.com,,,,Simon,Akwin,Abc valley,,New jersey city,New Jersey,07097,United States,Doctor,Gg,andrewlose001@gmail.com,(575) 546-4664,,,,,,,,,,,,,,,,,,,,,,,,,Josh Gottheimer for Congress,,,,,,,,,,,,,,,,,Visa,,,,,,,,,,,,,
40030154415,2019-05-02 09:39:50,500.00,1,0,Josh Gottheimer,http://josh.propolitician.com,,,,.,.,,,,,,,test,baastardeysmksk,.,.,,,,,,,,,,,,,,,,,,,,,,,,,Josh Gottheimer for Congress,,,,,,,,,,,,,,,,,Visa,,,,,,,,,,,,,
40030163451,2019-05-02 12:17:42,500.00,0,0,Josh Gottheimer,http://josh.propolitician.com,,,,Megha,,1234 Street,,Jersey,California,11355,United States,Business,MNO Inc,megha@2asquare.com,,,,,,,,,,,,,,,,,,,,,,,,,,Josh Gottheimer for Congress,,,,,,,,,,,,,,,,,Visa,,,,,,,,,,,,,
40030163871,2019-05-02 12:48:06,500.00,1,0,Josh Gottheimer,http://josh.propolitician.com,,,,Megha,,1234 Street,,Jersey,California,11355,United States,Business,PQR Corporation,megha@2asquare.com,,,,,,,,,,,,,,,,,,,,,,,,,,Josh Gottheimer for Congress,,,,,,,,,,,,,,,,,Visa,,,,,,,,,,,,,
40030174657,2019-05-02 08:40:09,500.00,0,0,Josh Gottheimer,http://josh.propolitician.com,,,,MJ,Grover,4249 Colden Street,,Flushing,New York,11355,United States,Self Employed,ABC Solutions LLC,my2asquare@gmail.com,(917) 969-7321,,,,,,,,,,,,,,,,,,,,,,,,,Josh Gottheimer for Congress,,,,,,,,,,,,,,,,,Visa,,,,,,,,,,,,,
40030181298,2019-05-03 05:44:07,500.00,1,0,Josh Gottheimer,http://josh.propolitician.com,,,,Manish,Sharma,544, Nevada,,New york,New Jersey,87556,United States,Rty,Rty,sandeep@gmail.com,(784) 648-9989,,,,,,,,,,,,,,,,,,,,,,,,,Josh Gottheimer for Congress,,,,,,,,,,,,,,,,,Visa,,,,,,,,,,,,,
40030181314,2019-05-03 05:46:55,500.00,0,0,Josh Gottheimer,http://josh.propolitician.com,,,,Testing,,Valley stream,,Newyork,Worcestershire,56267,United Kingdom,Gsgsg,Ushsh,gghh@gmail.com,8454546465,,,,,,,,,,,,,,,,,,,,,,,,,Josh Gottheimer for Congress,,,,,,,,,,,,,,,,,Visa,,,,,,,,,,,,,
40030187916,2019-05-03 07:28:38,11200.00,0,0,Josh Gottheimer,http://josh.propolitician.com,,,,.,.,,,,,,,bhh,gyh,.,.,,,,,,,,,,,,,,,,,,,,,,,,,Josh Gottheimer for Congress,,,,,,,,,,,,,,,,,Visa,,,,,,,,,,,,,
40030232202,2019-05-03 10:55:42,5600.00,0,0,Josh Gottheimer,http://josh.propolitician.com,,,,Simon,Akwin,Abc valley,,New jersey city,New Jersey,07097,United States,Bbzbz,Bzbzb,andrewlose001@gmail.com,(575) 546-4664,,,,,,,,,,,,,,,,,,,,,,,,,Josh Gottheimer for Congress,,,,,,,,,,,,,,,,,Visa,,,,,,,,,,,,,
40030239904,2019-05-03 05:10:20,500.00,0,0,Josh Gottheimer,http://josh.propolitician.com,,,,MJ,Grover,4249 Colden Street,,Flushing,New York,11355,United States,Self Employed,ABC Solutions LLC,my2asquare@gmail.com,(917) 969-7321,,,,,,,,,,,,,,,,,,,,,,,,,Josh Gottheimer for Congress,,,,,,,,,,,,,,,,,Visa,,,,,,,,,,,,,
40030300410,2019-05-04 12:15:16,5600.00,0,0,Josh Gottheimer,http://josh.propolitician.com,,,,Ss,,uvv,,vvj hv,Belfast,60060,United Kingdom,Teacher,Knge Corp.,arrs@g.c,(538) 383-8386,,,,,,,,,,,,,,,,,,,,,,,,,Josh Gottheimer for Congress,,,,,,,,,,,,,,,,,Visa,,,,,,,,,,,,,
40030301401,2019-05-04 04:03:12,500.00,1,0,Josh Gottheimer,http://josh.propolitician.com,,,,MJ,Grover,4249 Colden Street,,Flushing,New York,11355,United States,Self Employed,ABC Solutions LLC,my2asquare@gmail.com,(917) 969-7321,,,,,,,,,,,,,,,,,,,,,,,,,Josh Gottheimer for Congress,,,,,,,,,,,,,,,,,Visa,,,,,,,,,,,,,
60120690616,2019-05-06 06:24:17,500.00,1,0,Josh Gottheimer,http://josh.propolitician.com,,,,Manish,Sharma,544, Nevada,,New york,New Jersey,87556,United States,Rtyuuuu,Rtyjhh,sandeep@gmail.com,(784) 648-9989,,,,,,,,,,,,,,,,,,,,,,,,,Josh Gottheimer for Congress,,,,,,,,,,,,,,,,,Visa,,,,,,,,,,,,,
60120692980,2019-05-06 07:10:38,2800.00,0,0,Josh Gottheimer,http://josh.propolitician.com,,,,asm,cool,zbsjsj,,sgshsh,Chandigarh,48466,India,pm ,square,asm@gmail.com,(740) 463-0393,,,,,,,,,,,,,,,,,,,,,,,,,Josh Gottheimer for Congress,,,,,,,,,,,,,,,,,Visa,,,,,,,,,,,,,
60120693660,2019-05-06 07:13:33,2800.00,0,0,Josh Gottheimer,http://josh.propolitician.com,,,,asm,cool,zbsjsj,,sgshsh,Chandigarh,48466,India,manager,sq,asm@gmail.com,(740) 463-0393,,,,,,,,,,,,,,,,,,,,,,,,,Josh Gottheimer for Congress,,,,,,,,,,,,,,,,,Visa,,,,,,,,,,,,,
60120699655,2019-05-06 07:32:10,1000.00,0,0,Josh Gottheimer,http://josh.propolitician.com,,,,asm,cool,zbsjsj,,sgshsh,Chandigarh,48466,India,guri,dhfg,asm@gmail.com,(740) 463-0393,,,,,,,,,,,,,,,,,,,,,,,,,Josh Gottheimer for Congress,,,,,,,,,,,,,,,,,Visa,,,,,,,,,,,,,
60120701435,2019-05-06 07:48:51,500.00,1,0,Josh Gottheimer,http://josh.propolitician.com,,,,Rahul,Verma,303, sector-777,,Flushing,New York,11374,United States,Service man,Temporary,surander.parkeee@gmail.com,(123) 123-1231,,,,,,,,,,,,,,,,,,,,,,,,,Josh Gottheimer for Congress,,,,,,,,,,,,,,,,,Visa,,,,,,,,,,,,,
60120708546,2019-05-06 08:04:57,5600.00,1,0,Josh Gottheimer,http://josh.propolitician.com,,,,MJ,Grover,4249 Colden Street,,Flushing,New York,11355,United States,Self Employed,XYZ Solutions LLC,my2asquare@gmail.com,(917) 969-7321,,,,,,,,,,,,,,,,,,,,,,,,,Josh Gottheimer for Congress,,,,,,,,,,,,,,,,,Visa,,,,,,,,,,,,,
60120730612,2019-05-06 10:46:35,11200.00,0,0,Josh Gottheimer,http://josh.propolitician.com,,,,Kiran,Dhillonukykjg,4249colden street,,Flushing,New York,11355,United States,Iioo,&9980,Kiran@gmail.com,3123123123,,,,,,,,,,,,,,,,,,,,,,,,,Josh Gottheimer for Congress,,,,,,,,,,,,,,,,,MasterCard,,,,,,,,,,,,,
60120734572,2019-05-06 11:10:35,11200.00,0,0,Josh Gottheimer,http://josh.propolitician.com,,,,Manish,Sharma,544, Nevada,,New york,New Jersey,87556,United States,manager,sdss,sandeep@gmail.com,(784) 648-9989,,,,,,,,,,,,,,,,,,,,,,,,,Josh Gottheimer for Congress,,,,,,,,,,,,,,,,,MasterCard,,,,,,,,,,,,,
60120735473,2019-05-06 11:16:09,2800.00,0,0,Josh Gottheimer,http://josh.propolitician.com,,,,Simon,Akwin,Abc valley,,New jersey city,New Jersey,07097,United States,Test,Testing gh,andrewlose001@gmail.com,(575) 546-4664,,,,,,,,,,,,,,,,,,,,,,,,,Josh Gottheimer for Congress,,,,,,,,,,,,,,,,,Visa,,,,,,,,,,,,,
60120742111,2019-05-06 11:56:33,500.00,0,0,Josh Gottheimer,http://josh.propolitician.com,,,,Kiran,Dhillonukykjg,4249colden street,,Flushing,New York,11355,United States,ns,Q23$hthgg etrtdgbc,Kiran@gmail.com,3123123123,,,,,,,,,,,,,,,,,,,,,,,,,Josh Gottheimer for Congress,,,,,,,,,,,,,,,,,MasterCard,,,,,,,,,,,,,
40030366568,2019-05-06 11:59:38,5600.00,0,0,Josh Gottheimer,http://josh.propolitician.com,,,,Simon,Akwin,Abc valley,,New jersey city,New Jersey,07097,United States,Politician,Congress,andrewlose001@gmail.com,(575) 546-4664,,,,,,,,,,,,,,,,,,,,,,,,,Josh Gottheimer for Congress,,,,,,,,,,,,,,,,,Visa,,,,,,,,,,,,,
40030370532,2019-05-06 12:35:34,2800.00,0,0,Josh Gottheimer,http://josh.propolitician.com,,,,Manish,Sharma,544, Nevada,,New york,New Jersey,87556,United States,Rtyuuuu,Rtyjhh,sandeep@gmail.com,(784) 648-9989,,,,,,,,,,,,,,,,,,,,,,,,,Josh Gottheimer for Congress,,,,,,,,,,,,,,,,,MasterCard,,,,,,,,,,,,,
40030370537,2019-05-06 12:36:10,5600.00,0,0,Josh Gottheimer,http://josh.propolitician.com,,,,Manish,Sharma,544, Nevada,,New york,New Jersey,87556,United States,Rtyuuuu,Rtyjhh,sandeep@gmail.com,(784) 648-9989,,,,,,,,,,,,,,,,,,,,,,,,,Josh Gottheimer for Congress,,,,,,,,,,,,,,,,,MasterCard,,,,,,,,,,,,,
40030371170,2019-05-06 01:12:03,1600.00,0,0,Josh Gottheimer,http://josh.propolitician.com,,,,Manish,Sharma,544, Nevada,,New york,New Jersey,87556,United States,Rtyuuuu,Rtyjhh,sandeep@gmail.com,(784) 648-9989,,,,,,,,,,,,,,,,,,,,,,,,,Josh Gottheimer for Congress,,,,,,,,,,,,,,,,,Visa,,,,,,,,,,,,,
40030371966,2019-05-06 01:48:58,2800.00,4,0,Josh Gottheimer,http://josh.propolitician.com,,,,Manish,Sharma,544, Nevada,,New york,New Jersey,87556,United States,Rtyuuuu,Rtyjhh,sandeep@gmail.com,(784) 648-9989,,,,,,,,,,,,,,,,,,,,,,,,,Josh Gottheimer for Congress,,,,,,,,,,,,,,,,,MasterCard,,,,,,,,,,,,,
,2019-05-06 01:48:58,2800.00,4,0,Josh Gottheimer,http://josh.propolitician.com,,,,Manish,Sharma,544, Nevada,,New york,New Jersey,87556,United States,Rtyuuuu,Rtyjhh,sandeep@gmail.com,(784) 648-9989,,,,,,,,,,,,,,,,,,,,,,,,,Josh Gottheimer for Congress,,,,,,,,,,,,,,,,,MasterCard,,,,,,,,,,,,,
,2019-05-06 01:48:58,2800.00,4,0,Josh Gottheimer,http://josh.propolitician.com,,,,Manish,Sharma,544, Nevada,,New york,New Jersey,87556,United States,Rtyuuuu,Rtyjhh,sandeep@gmail.com,(784) 648-9989,,,,,,,,,,,,,,,,,,,,,,,,,Josh Gottheimer for Congress,,,,,,,,,,,,,,,,,MasterCard,,,,,,,,,,,,,
,2019-05-06 01:48:58,2800.00,4,0,Josh Gottheimer,http://josh.propolitician.com,,,,Manish,Sharma,544, Nevada,,New york,New Jersey,87556,United States,Rtyuuuu,Rtyjhh,sandeep@gmail.com,(784) 648-9989,,,,,,,,,,,,,,,,,,,,,,,,,Josh Gottheimer for Congress,,,,,,,,,,,,,,,,,MasterCard,,,,,,,,,,,,,
,2019-05-06 01:48:58,2800.00,4,0,Josh Gottheimer,http://josh.propolitician.com,,,,Manish,Sharma,544, Nevada,,New york,New Jersey,87556,United States,Rtyuuuu,Rtyjhh,sandeep@gmail.com,(784) 648-9989,,,,,,,,,,,,,,,,,,,,,,,,,Josh Gottheimer for Congress,,,,,,,,,,,,,,,,,MasterCard,,,,,,,,,,,,,
40030471888,2019-05-07 10:35:18,500.00,0,0,Josh Gottheimer,http://josh.propolitician.com,,,,.,.,,,,,,,test,test,.,.,,,,,,,,,,,,,,,,,,,,,,,,,Josh Gottheimer for Congress,,,,,,,,,,,,,,,,,Visa,,,,,,,,,,,,,
40030484464,2019-05-07 02:32:12,800.00,4,0,Josh Gottheimer,http://josh.propolitician.com,,,,Megha,,1234 Street,,Jersey,California,11355,United States,Businessman,ABC LLC,megha@2asquare.com,,,,,,,,,,,,,,,,,,,,,,,,,,Josh Gottheimer for Congress,,,,,,,,,,,,,,,,,Visa,,,,,,,,,,,,,
,2019-05-07 02:32:12,800.00,4,0,Josh Gottheimer,http://josh.propolitician.com,,,,Megha,,1234 Street,,Jersey,California,11355,United States,Businessman,ABC LLC,megha@2asquare.com,,,,,,,,,,,,,,,,,,,,,,,,,,Josh Gottheimer for Congress,,,,,,,,,,,,,,,,,Visa,,,,,,,,,,,,,
,2019-05-07 02:32:12,800.00,4,0,Josh Gottheimer,http://josh.propolitician.com,,,,Megha,,1234 Street,,Jersey,California,11355,United States,Businessman,ABC LLC,megha@2asquare.com,,,,,,,,,,,,,,,,,,,,,,,,,,Josh Gottheimer for Congress,,,,,,,,,,,,,,,,,Visa,,,,,,,,,,,,,
,2019-05-07 02:32:12,800.00,4,0,Josh Gottheimer,http://josh.propolitician.com,,,,Megha,,1234 Street,,Jersey,California,11355,United States,Businessman,ABC LLC,megha@2asquare.com,,,,,,,,,,,,,,,,,,,,,,,,,,Josh Gottheimer for Congress,,,,,,,,,,,,,,,,,Visa,,,,,,,,,,,,,
,2019-05-07 02:32:12,800.00,4,0,Josh Gottheimer,http://josh.propolitician.com,,,,Megha,,1234 Street,,Jersey,California,11355,United States,Businessman,ABC LLC,megha@2asquare.com,,,,,,,,,,,,,,,,,,,,,,,,,,Josh Gottheimer for Congress,,,,,,,,,,,,,,,,,Visa,,,,,,,,,,,,,
40030486193,2019-05-07 02:58:58,500.00,0,0,Josh Gottheimer,http://josh.propolitician.com,,,,MJ,Grover,4249 Colden Street,,Flushing,New York,11355,United States,Self Employed,XYZ Solutions LLC,my2asquare@gmail.com,(917) 969-7321,,,,,,,,,,,,,,,,,,,,,,,,,Josh Gottheimer for Congress,,,,,,,,,,,,,,,,,Visa,,,,,,,,,,,,,
40030543772,2019-05-08 04:47:41,11200.00,0,0,Josh Gottheimer,http://josh.propolitician.com,,,,Manish,Sharma,544, Nevada,,New york,New Jersey,87556,United States,Rtyuuuu,Rtyjhh,sandeep@gmail.com,(784) 648-9989,,,,,,,,,,,,,,,,,,,,,,,,,Josh Gottheimer for Congress,,,,,,,,,,,,,,,,,Visa,,,,,,,,,,,,,
40030543781,2019-05-08 04:48:02,11200.00,4,0,Josh Gottheimer,http://josh.propolitician.com,,,,Manish,Sharma,544, Nevada,,New york,New Jersey,87556,United States,Rtyuuuu,Rtyjhh,sandeep@gmail.com,(784) 648-9989,,,,,,,,,,,,,,,,,,,,,,,,,Josh Gottheimer for Congress,,,,,,,,,,,,,,,,,MasterCard,,,,,,,,,,,,,
,2019-05-08 04:48:02,11200.00,4,0,Josh Gottheimer,http://josh.propolitician.com,,,,Manish,Sharma,544, Nevada,,New york,New Jersey,87556,United States,Rtyuuuu,Rtyjhh,sandeep@gmail.com,(784) 648-9989,,,,,,,,,,,,,,,,,,,,,,,,,Josh Gottheimer for Congress,,,,,,,,,,,,,,,,,MasterCard,,,,,,,,,,,,,
,2019-05-08 04:48:02,11200.00,4,0,Josh Gottheimer,http://josh.propolitician.com,,,,Manish,Sharma,544, Nevada,,New york,New Jersey,87556,United States,Rtyuuuu,Rtyjhh,sandeep@gmail.com,(784) 648-9989,,,,,,,,,,,,,,,,,,,,,,,,,Josh Gottheimer for Congress,,,,,,,,,,,,,,,,,MasterCard,,,,,,,,,,,,,
,2019-05-08 04:48:02,11200.00,4,0,Josh Gottheimer,http://josh.propolitician.com,,,,Manish,Sharma,544, Nevada,,New york,New Jersey,87556,United States,Rtyuuuu,Rtyjhh,sandeep@gmail.com,(784) 648-9989,,,,,,,,,,,,,,,,,,,,,,,,,Josh Gottheimer for Congress,,,,,,,,,,,,,,,,,MasterCard,,,,,,,,,,,,,
,2019-05-08 04:48:02,11200.00,4,0,Josh Gottheimer,http://josh.propolitician.com,,,,Manish,Sharma,544, Nevada,,New york,New Jersey,87556,United States,Rtyuuuu,Rtyjhh,sandeep@gmail.com,(784) 648-9989,,,,,,,,,,,,,,,,,,,,,,,,,Josh Gottheimer for Congress,,,,,,,,,,,,,,,,,MasterCard,,,,,,,,,,,,,
40030553030,2019-05-08 07:23:49,11200.00,4,0,Josh Gottheimer,http://josh.propolitician.com,,,,Manish,Sharma,544, Nevada,,New york,New Jersey,87556,United States,Rtyuuuu,Rtyjhh,sandeep@gmail.com,(784) 648-9989,,,,,,,,,,,,,,,,,,,,,,,,,Josh Gottheimer for Congress,,,,,,,,,,,,,,,,,Visa,,,,,,,,,,,,,
,2019-05-08 07:23:49,11200.00,4,0,Josh Gottheimer,http://josh.propolitician.com,,,,Manish,Sharma,544, Nevada,,New york,New Jersey,87556,United States,Rtyuuuu,Rtyjhh,sandeep@gmail.com,(784) 648-9989,,,,,,,,,,,,,,,,,,,,,,,,,Josh Gottheimer for Congress,,,,,,,,,,,,,,,,,Visa,,,,,,,,,,,,,
,2019-05-08 07:23:49,11200.00,4,0,Josh Gottheimer,http://josh.propolitician.com,,,,Manish,Sharma,544, Nevada,,New york,New Jersey,87556,United States,Rtyuuuu,Rtyjhh,sandeep@gmail.com,(784) 648-9989,,,,,,,,,,,,,,,,,,,,,,,,,Josh Gottheimer for Congress,,,,,,,,,,,,,,,,,Visa,,,,,,,,,,,,,
,2019-05-08 07:23:49,11200.00,4,0,Josh Gottheimer,http://josh.propolitician.com,,,,Manish,Sharma,544, Nevada,,New york,New Jersey,87556,United States,Rtyuuuu,Rtyjhh,sandeep@gmail.com,(784) 648-9989,,,,,,,,,,,,,,,,,,,,,,,,,Josh Gottheimer for Congress,,,,,,,,,,,,,,,,,Visa,,,,,,,,,,,,,
,2019-05-08 07:23:49,11200.00,4,0,Josh Gottheimer,http://josh.propolitician.com,,,,Manish,Sharma,544, Nevada,,New york,New Jersey,87556,United States,Rtyuuuu,Rtyjhh,sandeep@gmail.com,(784) 648-9989,,,,,,,,,,,,,,,,,,,,,,,,,Josh Gottheimer for Congress,,,,,,,,,,,,,,,,,Visa,,,,,,,,,,,,,
40030647851,2019-05-09 05:22:07,500.00,0,0,Josh Gottheimer,http://josh.propolitician.com,,,,Simon,Akwin,Abc valley,,New jersey city,New Jersey,07097,United States,Politician,Congress,andrewlose001@gmail.com,(575) 546-4664,,,,,,,,,,,,,,,,,,,,,,,,,Josh Gottheimer for Congress,,,,,,,,,,,,,,,,,Visa,,,,,,,,,,,,,
40030647855,2019-05-09 05:22:23,11200.00,0,0,Josh Gottheimer,http://josh.propolitician.com,,,,Simon,Akwin,Abc valley,,New jersey city,New Jersey,07097,United States,Politician,Congress,andrewlose001@gmail.com,(575) 546-4664,,,,,,,,,,,,,,,,,,,,,,,,,Josh Gottheimer for Congress,,,,,,,,,,,,,,,,,Visa,,,,,,,,,,,,,
40030647914,2019-05-09 05:27:53,5600.00,4,0,Josh Gottheimer,http://josh.propolitician.com,,,,Simon,Akwin,Abc valley,,New jersey city,New Jersey,07097,United States,Politician,Congress,andrewlose001@gmail.com,(575) 546-4664,,,,,,,,,,,,,,,,,,,,,,,,,Josh Gottheimer for Congress,,,,,,,,,,,,,,,,,Visa,,,,,,,,,,,,,
,2019-05-09 05:27:53,5600.00,4,0,Josh Gottheimer,http://josh.propolitician.com,,,,Simon,Akwin,Abc valley,,New jersey city,New Jersey,07097,United States,Politician,Congress,andrewlose001@gmail.com,(575) 546-4664,,,,,,,,,,,,,,,,,,,,,,,,,Josh Gottheimer for Congress,,,,,,,,,,,,,,,,,Visa,,,,,,,,,,,,,
,2019-05-09 05:27:53,5600.00,4,0,Josh Gottheimer,http://josh.propolitician.com,,,,Simon,Akwin,Abc valley,,New jersey city,New Jersey,07097,United States,Politician,Congress,andrewlose001@gmail.com,(575) 546-4664,,,,,,,,,,,,,,,,,,,,,,,,,Josh Gottheimer for Congress,,,,,,,,,,,,,,,,,Visa,,,,,,,,,,,,,
,2019-05-09 05:27:53,5600.00,4,0,Josh Gottheimer,http://josh.propolitician.com,,,,Simon,Akwin,Abc valley,,New jersey city,New Jersey,07097,United States,Politician,Congress,andrewlose001@gmail.com,(575) 546-4664,,,,,,,,,,,,,,,,,,,,,,,,,Josh Gottheimer for Congress,,,,,,,,,,,,,,,,,Visa,,,,,,,,,,,,,
,2019-05-09 05:27:53,5600.00,4,0,Josh Gottheimer,http://josh.propolitician.com,,,,Simon,Akwin,Abc valley,,New jersey city,New Jersey,07097,United States,Politician,Congress,andrewlose001@gmail.com,(575) 546-4664,,,,,,,,,,,,,,,,,,,,,,,,,Josh Gottheimer for Congress,,,,,,,,,,,,,,,,,Visa,,,,,,,,,,,,,
40030647961,2019-05-09 05:32:26,11200.00,4,0,Josh Gottheimer,http://josh.propolitician.com,,,,Simon,Akwin,Abc valley,,New jersey city,New Jersey,07097,United States,Politician,Congress,andrewlose001@gmail.com,(575) 546-4664,,,,,,,,,,,,,,,,,,,,,,,,,Josh Gottheimer for Congress,,,,,,,,,,,,,,,,,Visa,,,,,,,,,,,,,
,2019-05-09 05:32:26,11200.00,4,0,Josh Gottheimer,http://josh.propolitician.com,,,,Simon,Akwin,Abc valley,,New jersey city,New Jersey,07097,United States,Politician,Congress,andrewlose001@gmail.com,(575) 546-4664,,,,,,,,,,,,,,,,,,,,,,,,,Josh Gottheimer for Congress,,,,,,,,,,,,,,,,,Visa,,,,,,,,,,,,,
,2019-05-09 05:32:26,11200.00,4,0,Josh Gottheimer,http://josh.propolitician.com,,,,Simon,Akwin,Abc valley,,New jersey city,New Jersey,07097,United States,Politician,Congress,andrewlose001@gmail.com,(575) 546-4664,,,,,,,,,,,,,,,,,,,,,,,,,Josh Gottheimer for Congress,,,,,,,,,,,,,,,,,Visa,,,,,,,,,,,,,
,2019-05-09 05:32:26,11200.00,4,0,Josh Gottheimer,http://josh.propolitician.com,,,,Simon,Akwin,Abc valley,,New jersey city,New Jersey,07097,United States,Politician,Congress,andrewlose001@gmail.com,(575) 546-4664,,,,,,,,,,,,,,,,,,,,,,,,,Josh Gottheimer for Congress,,,,,,,,,,,,,,,,,Visa,,,,,,,,,,,,,
,2019-05-09 05:32:26,11200.00,4,0,Josh Gottheimer,http://josh.propolitician.com,,,,Simon,Akwin,Abc valley,,New jersey city,New Jersey,07097,United States,Politician,Congress,andrewlose001@gmail.com,(575) 546-4664,,,,,,,,,,,,,,,,,,,,,,,,,Josh Gottheimer for Congress,,,,,,,,,,,,,,,,,Visa,,,,,,,,,,,,,
,2019-05-09 05:43:38,11200.00,0,0,Josh Gottheimer,http://josh.propolitician.com,,,,Simon,Akwin,Abc valley,,New jersey city,New Jersey,07097,United States,Politician,Congress,andrewlose001@gmail.com,(575) 546-4664,,,,,,,,,,,,,,,,,,,,,,,,,Josh Gottheimer for Congress,,,,,,,,,,,,,,,,,Visa,,,,,,,,,,,,,
,2019-05-09 05:46:18,500.00,4,0,Josh Gottheimer,http://josh.propolitician.com,,,,Simon,Akwin,Abc valley,,New jersey city,New Jersey,07097,United States,Politician,Congress,andrewlose001@gmail.com,(575) 546-4664,,,,,,,,,,,,,,,,,,,,,,,,,Josh Gottheimer for Congress,,,,,,,,,,,,,,,,,Visa,,,,,,,,,,,,,
,2019-05-09 05:46:51,500.00,4,0,Josh Gottheimer,http://josh.propolitician.com,,,,Simon,Akwin,Abc valley,,New jersey city,New Jersey,07097,United States,Politician,Congress,andrewlose001@gmail.com,(575) 546-4664,,,,,,,,,,,,,,,,,,,,,,,,,Josh Gottheimer for Congress,,,,,,,,,,,,,,,,,Visa,,,,,,,,,,,,,
,2019-05-09 05:47:51,600.00,4,0,Josh Gottheimer,http://josh.propolitician.com,,,,Simon,Akwin,Abc valley,,New jersey city,New Jersey,07097,United States,Politician,Congress,andrewlose001@gmail.com,(575) 546-4664,,,,,,,,,,,,,,,,,,,,,,,,,Josh Gottheimer for Congress,,,,,,,,,,,,,,,,,Visa,,,,,,,,,,,,,
,2019-05-09 05:49:32,600.00,4,0,Josh Gottheimer,http://josh.propolitician.com,,,,Simon,Akwin,Abc valley,,New jersey city,New Jersey,07097,United States,Politician,Congress,andrewlose001@gmail.com,(575) 546-4664,,,,,,,,,,,,,,,,,,,,,,,,,Josh Gottheimer for Congress,,,,,,,,,,,,,,,,,Visa,,,,,,,,,,,,,
,2019-05-09 05:54:23,600.00,4,0,Josh Gottheimer,http://josh.propolitician.com,,,,Simon,Akwin,Abc valley,,New jersey city,New Jersey,07097,United States,Politician,Congress,andrewlose001@gmail.com,(575) 546-4664,,,,,,,,,,,,,,,,,,,,,,,,,Josh Gottheimer for Congress,,,,,,,,,,,,,,,,,Visa,,,,,,,,,,,,,
,2019-05-09 05:56:36,500.00,0,0,Josh Gottheimer,http://josh.propolitician.com,,,,Simon,Akwin,Abc valley,,New jersey city,New Jersey,07097,United States,Politician,Congress,andrewlose001@gmail.com,(575) 546-4664,,,,,,,,,,,,,,,,,,,,,,,,,Josh Gottheimer for Congress,,,,,,,,,,,,,,,,,Visa,,,,,,,,,,,,,
40030648410,2019-05-09 05:58:21,2800.00,4,0,Josh Gottheimer,http://josh.propolitician.com,,,,Simon,Akwin,Abc valley,,New jersey city,New Jersey,07097,United States,Politician,Congress,andrewlose001@gmail.com,(575) 546-4664,,,,,,,,,,,,,,,,,,,,,,,,,Josh Gottheimer for Congress,,,,,,,,,,,,,,,,,Visa,,,,,,,,,,,,,
,2019-05-09 05:58:21,2800.00,4,0,Josh Gottheimer,http://josh.propolitician.com,,,,Simon,Akwin,Abc valley,,New jersey city,New Jersey,07097,United States,Politician,Congress,andrewlose001@gmail.com,(575) 546-4664,,,,,,,,,,,,,,,,,,,,,,,,,Josh Gottheimer for Congress,,,,,,,,,,,,,,,,,Visa,,,,,,,,,,,,,
,2019-05-09 05:58:21,2800.00,4,0,Josh Gottheimer,http://josh.propolitician.com,,,,Simon,Akwin,Abc valley,,New jersey city,New Jersey,07097,United States,Politician,Congress,andrewlose001@gmail.com,(575) 546-4664,,,,,,,,,,,,,,,,,,,,,,,,,Josh Gottheimer for Congress,,,,,,,,,,,,,,,,,Visa,,,,,,,,,,,,,
,2019-05-09 05:58:21,2800.00,4,0,Josh Gottheimer,http://josh.propolitician.com,,,,Simon,Akwin,Abc valley,,New jersey city,New Jersey,07097,United States,Politician,Congress,andrewlose001@gmail.com,(575) 546-4664,,,,,,,,,,,,,,,,,,,,,,,,,Josh Gottheimer for Congress,,,,,,,,,,,,,,,,,Visa,,,,,,,,,,,,,
,2019-05-09 05:58:21,2800.00,4,0,Josh Gottheimer,http://josh.propolitician.com,,,,Simon,Akwin,Abc valley,,New jersey city,New Jersey,07097,United States,Politician,Congress,andrewlose001@gmail.com,(575) 546-4664,,,,,,,,,,,,,,,,,,,,,,,,,Josh Gottheimer for Congress,,,,,,,,,,,,,,,,,Visa,,,,,,,,,,,,,
,2019-05-09 06:26:08,500.00,0,0,Josh Gottheimer,http://josh.propolitician.com,,,,Simon,Akwin,Abc valley,,New jersey city,New Jersey,07097,United States,Politician,Congress,andrewlose001@gmail.com,(575) 546-4664,,,,,,,,,,,,,,,,,,,,,,,,,Josh Gottheimer for Congress,,,,,,,,,,,,,,,,,Visa,,,,,,,,,,,,,
,2019-05-09 06:44:58,500.00,0,0,Josh Gottheimer,http://josh.propolitician.com,,,,Simon,Akwin,Abc valley,,New jersey city,New Jersey,07097,United States,Politician,Congress,andrewlose001@gmail.com,(575) 546-4664,,,,,,,,,,,,,,,,,,,,,,,,,Josh Gottheimer for Congress,,,,,,,,,,,,,,,,,Visa,,,,,,,,,,,,,
,2019-05-09 06:48:46,500.00,0,0,Josh Gottheimer,http://josh.propolitician.com,,,,Simon,Akwin,Abc valley,,New jersey city,New Jersey,07097,United States,Politician,Congress,andrewlose001@gmail.com,(575) 546-4664,,,,,,,,,,,,,,,,,,,,,,,,,Josh Gottheimer for Congress,,,,,,,,,,,,,,,,,Visa,,,,,,,,,,,,,
,2019-05-09 07:02:09,11200.00,0,0,Josh Gottheimer,http://josh.propolitician.com,,,,Simon,Akwin,Abc valley,,New jersey city,New Jersey,07097,United States,Politician,Congress,andrewlose001@gmail.com,(575) 546-4664,,,,,,,,,,,,,,,,,,,,,,,,,Josh Gottheimer for Congress,,,,,,,,,,,,,,,,,Visa,,,,,,,,,,,,,
,2019-05-09 07:08:47,5600.00,4,0,Josh Gottheimer,http://josh.propolitician.com,,,,Simon,Akwin,Abc valley,,New jersey city,New Jersey,07097,United States,Politician,Congress,andrewlose001@gmail.com,(575) 546-4664,,,,,,,,,,,,,,,,,,,,,,,,,Josh Gottheimer for Congress,,,,,,,,,,,,,,,,,Visa,,,,,,,,,,,,,
40030651392,2019-05-09 07:16:56,1.00,0,0,Josh Gottheimer,http://josh.propolitician.com,,,,Manish,Sharma,544, Nevada,,New york,New Jersey,87556,United States,Rtyuuuu,Rtyjhh,sandeep@gmail.com,(784) 648-9989,,,,,,,,,,,,,,,,,,,,,,,,,Josh Gottheimer for Congress,,,,,,,,,,,,,,,,,Visa,,,,,,,,,,,,,
40030703486,2019-05-09 09:48:19,1451.00,0,0,Josh Gottheimer,http://josh.propolitician.com,,,,Simon,Akwin,Abc valley,,New jersey city,New Jersey,07097,United States,Politician,Congress,andrewlose001@gmail.com,(575) 546-4664,,,,,,,,,,,,,,,,,,,,,,,,,Josh Gottheimer for Congress,,,,,,,,,,,,,,,,,Visa,,,,,,,,,,,,,
,2019-05-09 10:11:34,500.00,0,0,Josh Gottheimer,http://josh.propolitician.com,,,,Simon,Akwin,Abc valley,,New jersey city,New Jersey,07097,United States,Politician,Congress,andrewlose001@gmail.com,(575) 546-4664,,,,,,,,,,,,,,,,,,,,,,,,,Josh Gottheimer for Congress,,,,,,,,,,,,,,,,,Visa,,,,,,,,,,,,,
40030707228,2019-05-09 10:28:23,1000.55,4,0,Josh Gottheimer,http://josh.propolitician.com,,,,Simon,Akwin,Abc valley,,New jersey city,New Jersey,07097,United States,Politician,Congress,andrewlose001@gmail.com,(575) 546-4664,,,,,,,,,,,,,,,,,,,,,,,,,Josh Gottheimer for Congress,,,,,,,,,,,,,,,,,Visa,,,,,,,,,,,,,
,2019-05-09 10:28:23,1000.55,4,0,Josh Gottheimer,http://josh.propolitician.com,,,,Simon,Akwin,Abc valley,,New jersey city,New Jersey,07097,United States,Politician,Congress,andrewlose001@gmail.com,(575) 546-4664,,,,,,,,,,,,,,,,,,,,,,,,,Josh Gottheimer for Congress,,,,,,,,,,,,,,,,,Visa,,,,,,,,,,,,,
,2019-05-09 10:28:23,1000.55,4,0,Josh Gottheimer,http://josh.propolitician.com,,,,Simon,Akwin,Abc valley,,New jersey city,New Jersey,07097,United States,Politician,Congress,andrewlose001@gmail.com,(575) 546-4664,,,,,,,,,,,,,,,,,,,,,,,,,Josh Gottheimer for Congress,,,,,,,,,,,,,,,,,Visa,,,,,,,,,,,,,
,2019-05-09 10:28:23,1000.55,4,0,Josh Gottheimer,http://josh.propolitician.com,,,,Simon,Akwin,Abc valley,,New jersey city,New Jersey,07097,United States,Politician,Congress,andrewlose001@gmail.com,(575) 546-4664,,,,,,,,,,,,,,,,,,,,,,,,,Josh Gottheimer for Congress,,,,,,,,,,,,,,,,,Visa,,,,,,,,,,,,,
,2019-05-09 10:28:23,1000.55,4,0,Josh Gottheimer,http://josh.propolitician.com,,,,Simon,Akwin,Abc valley,,New jersey city,New Jersey,07097,United States,Politician,Congress,andrewlose001@gmail.com,(575) 546-4664,,,,,,,,,,,,,,,,,,,,,,,,,Josh Gottheimer for Congress,,,,,,,,,,,,,,,,,Visa,,,,,,,,,,,,,
40030707443,2019-05-09 10:46:55,5600.00,4,0,Josh Gottheimer,http://josh.propolitician.com,,,,Simon,Akwin,Abc valley,,New jersey city,New Jersey,07097,United States,Politician,Congress,andrewlose001@gmail.com,(575) 546-4664,,,,,,,,,,,,,,,,,,,,,,,,,Josh Gottheimer for Congress,,,,,,,,,,,,,,,,,Visa,,,,,,,,,,,,,
,2019-05-09 10:46:55,5600.00,4,0,Josh Gottheimer,http://josh.propolitician.com,,,,Simon,Akwin,Abc valley,,New jersey city,New Jersey,07097,United States,Politician,Congress,andrewlose001@gmail.com,(575) 546-4664,,,,,,,,,,,,,,,,,,,,,,,,,Josh Gottheimer for Congress,,,,,,,,,,,,,,,,,Visa,,,,,,,,,,,,,
,2019-05-09 10:46:55,5600.00,4,0,Josh Gottheimer,http://josh.propolitician.com,,,,Simon,Akwin,Abc valley,,New jersey city,New Jersey,07097,United States,Politician,Congress,andrewlose001@gmail.com,(575) 546-4664,,,,,,,,,,,,,,,,,,,,,,,,,Josh Gottheimer for Congress,,,,,,,,,,,,,,,,,Visa,,,,,,,,,,,,,
,2019-05-09 10:46:55,5600.00,4,0,Josh Gottheimer,http://josh.propolitician.com,,,,Simon,Akwin,Abc valley,,New jersey city,New Jersey,07097,United States,Politician,Congress,andrewlose001@gmail.com,(575) 546-4664,,,,,,,,,,,,,,,,,,,,,,,,,Josh Gottheimer for Congress,,,,,,,,,,,,,,,,,Visa,,,,,,,,,,,,,
,2019-05-09 10:46:55,5600.00,4,0,Josh Gottheimer,http://josh.propolitician.com,,,,Simon,Akwin,Abc valley,,New jersey city,New Jersey,07097,United States,Politician,Congress,andrewlose001@gmail.com,(575) 546-4664,,,,,,,,,,,,,,,,,,,,,,,,,Josh Gottheimer for Congress,,,,,,,,,,,,,,,,,Visa,,,,,,,,,,,,,
,2019-05-09 10:49:54,600.00,4,0,Josh Gottheimer,http://josh.propolitician.com,,,,Simon,Akwin,Abc valley,,New jersey city,New Jersey,07097,United States,Politician,Congress,andrewlose001@gmail.com,(575) 546-4664,,,,,,,,,,,,,,,,,,,,,,,,,Josh Gottheimer for Congress,,,,,,,,,,,,,,,,,Visa,,,,,,,,,,,,,
40030707727,2019-05-09 11:04:46,500.00,4,0,Josh Gottheimer,http://josh.propolitician.com,,,,Simon,Akwin,Abc valley,,New jersey city,New Jersey,07097,United States,Politician,Congress,andrewlose001@gmail.com,(575) 546-4664,,,,,,,,,,,,,,,,,,,,,,,,,Josh Gottheimer for Congress,,,,,,,,,,,,,,,,,Visa,,,,,,,,,,,,,
,2019-05-09 11:04:46,500.00,4,0,Josh Gottheimer,http://josh.propolitician.com,,,,Simon,Akwin,Abc valley,,New jersey city,New Jersey,07097,United States,Politician,Congress,andrewlose001@gmail.com,(575) 546-4664,,,,,,,,,,,,,,,,,,,,,,,,,Josh Gottheimer for Congress,,,,,,,,,,,,,,,,,Visa,,,,,,,,,,,,,
,2019-05-09 11:04:46,500.00,4,0,Josh Gottheimer,http://josh.propolitician.com,,,,Simon,Akwin,Abc valley,,New jersey city,New Jersey,07097,United States,Politician,Congress,andrewlose001@gmail.com,(575) 546-4664,,,,,,,,,,,,,,,,,,,,,,,,,Josh Gottheimer for Congress,,,,,,,,,,,,,,,,,Visa,,,,,,,,,,,,,
,2019-05-09 11:04:46,500.00,4,0,Josh Gottheimer,http://josh.propolitician.com,,,,Simon,Akwin,Abc valley,,New jersey city,New Jersey,07097,United States,Politician,Congress,andrewlose001@gmail.com,(575) 546-4664,,,,,,,,,,,,,,,,,,,,,,,,,Josh Gottheimer for Congress,,,,,,,,,,,,,,,,,Visa,,,,,,,,,,,,,
,2019-05-09 11:04:46,500.00,4,0,Josh Gottheimer,http://josh.propolitician.com,,,,Simon,Akwin,Abc valley,,New jersey city,New Jersey,07097,United States,Politician,Congress,andrewlose001@gmail.com,(575) 546-4664,,,,,,,,,,,,,,,,,,,,,,,,,Josh Gottheimer for Congress,,,,,,,,,,,,,,,,,Visa,,,,,,,,,,,,,
40030707866,2019-05-09 11:10:55,500.00,4,0,Josh Gottheimer,http://josh.propolitician.com,,,,Simon,Akwin,Abc valley,,New jersey city,New Jersey,07097,United States,Politician,Congress,andrewlose001@gmail.com,(575) 546-4664,,,,,,,,,,,,,,,,,,,,,,,,,Josh Gottheimer for Congress,,,,,,,,,,,,,,,,,Visa,,,,,,,,,,,,,
,2019-05-09 11:10:55,500.00,4,0,Josh Gottheimer,http://josh.propolitician.com,,,,Simon,Akwin,Abc valley,,New jersey city,New Jersey,07097,United States,Politician,Congress,andrewlose001@gmail.com,(575) 546-4664,,,,,,,,,,,,,,,,,,,,,,,,,Josh Gottheimer for Congress,,,,,,,,,,,,,,,,,Visa,,,,,,,,,,,,,
,2019-05-09 11:10:55,500.00,4,0,Josh Gottheimer,http://josh.propolitician.com,,,,Simon,Akwin,Abc valley,,New jersey city,New Jersey,07097,United States,Politician,Congress,andrewlose001@gmail.com,(575) 546-4664,,,,,,,,,,,,,,,,,,,,,,,,,Josh Gottheimer for Congress,,,,,,,,,,,,,,,,,Visa,,,,,,,,,,,,,
,2019-05-09 11:10:55,500.00,4,0,Josh Gottheimer,http://josh.propolitician.com,,,,Simon,Akwin,Abc valley,,New jersey city,New Jersey,07097,United States,Politician,Congress,andrewlose001@gmail.com,(575) 546-4664,,,,,,,,,,,,,,,,,,,,,,,,,Josh Gottheimer for Congress,,,,,,,,,,,,,,,,,Visa,,,,,,,,,,,,,
,2019-05-09 11:10:55,500.00,4,0,Josh Gottheimer,http://josh.propolitician.com,,,,Simon,Akwin,Abc valley,,New jersey city,New Jersey,07097,United States,Politician,Congress,andrewlose001@gmail.com,(575) 546-4664,,,,,,,,,,,,,,,,,,,,,,,,,Josh Gottheimer for Congress,,,,,,,,,,,,,,,,,Visa,,,,,,,,,,,,,
40030707938,2019-05-09 11:13:19,5001.00,4,0,Josh Gottheimer,http://josh.propolitician.com,,,,Manish,Sharma,544, Nevada,,New york,New Jersey,87556,United States,Rtyuuuu,Rtyjhh,sandeep@gmail.com,(784) 648-9989,,,,,,,,,,,,,,,,,,,,,,,,,Josh Gottheimer for Congress,,,,,,,,,,,,,,,,,Visa,,,,,,,,,,,,,
,2019-05-09 11:13:19,5001.00,4,0,Josh Gottheimer,http://josh.propolitician.com,,,,Manish,Sharma,544, Nevada,,New york,New Jersey,87556,United States,Rtyuuuu,Rtyjhh,sandeep@gmail.com,(784) 648-9989,,,,,,,,,,,,,,,,,,,,,,,,,Josh Gottheimer for Congress,,,,,,,,,,,,,,,,,Visa,,,,,,,,,,,,,
,2019-05-09 11:13:19,5001.00,4,0,Josh Gottheimer,http://josh.propolitician.com,,,,Manish,Sharma,544, Nevada,,New york,New Jersey,87556,United States,Rtyuuuu,Rtyjhh,sandeep@gmail.com,(784) 648-9989,,,,,,,,,,,,,,,,,,,,,,,,,Josh Gottheimer for Congress,,,,,,,,,,,,,,,,,Visa,,,,,,,,,,,,,
,2019-05-09 11:13:19,5001.00,4,0,Josh Gottheimer,http://josh.propolitician.com,,,,Manish,Sharma,544, Nevada,,New york,New Jersey,87556,United States,Rtyuuuu,Rtyjhh,sandeep@gmail.com,(784) 648-9989,,,,,,,,,,,,,,,,,,,,,,,,,Josh Gottheimer for Congress,,,,,,,,,,,,,,,,,Visa,,,,,,,,,,,,,
,2019-05-09 11:13:19,5001.00,4,0,Josh Gottheimer,http://josh.propolitician.com,,,,Manish,Sharma,544, Nevada,,New york,New Jersey,87556,United States,Rtyuuuu,Rtyjhh,sandeep@gmail.com,(784) 648-9989,,,,,,,,,,,,,,,,,,,,,,,,,Josh Gottheimer for Congress,,,,,,,,,,,,,,,,,Visa,,,,,,,,,,,,,
40030708179,2019-05-09 11:27:47,500.00,4,0,Josh Gottheimer,http://josh.propolitician.com,,,,Simon,Akwin,Abc valley,,New jersey city,New Jersey,07097,United States,Politician,Congress,andrewlose001@gmail.com,(575) 546-4664,,,,,,,,,,,,,,,,,,,,,,,,,Josh Gottheimer for Congress,,,,,,,,,,,,,,,,,MasterCard,,,,,,,,,,,,,
,2019-05-09 11:27:47,500.00,4,0,Josh Gottheimer,http://josh.propolitician.com,,,,Simon,Akwin,Abc valley,,New jersey city,New Jersey,07097,United States,Politician,Congress,andrewlose001@gmail.com,(575) 546-4664,,,,,,,,,,,,,,,,,,,,,,,,,Josh Gottheimer for Congress,,,,,,,,,,,,,,,,,MasterCard,,,,,,,,,,,,,
,2019-05-09 11:27:47,500.00,4,0,Josh Gottheimer,http://josh.propolitician.com,,,,Simon,Akwin,Abc valley,,New jersey city,New Jersey,07097,United States,Politician,Congress,andrewlose001@gmail.com,(575) 546-4664,,,,,,,,,,,,,,,,,,,,,,,,,Josh Gottheimer for Congress,,,,,,,,,,,,,,,,,MasterCard,,,,,,,,,,,,,
,2019-05-09 11:27:47,500.00,4,0,Josh Gottheimer,http://josh.propolitician.com,,,,Simon,Akwin,Abc valley,,New jersey city,New Jersey,07097,United States,Politician,Congress,andrewlose001@gmail.com,(575) 546-4664,,,,,,,,,,,,,,,,,,,,,,,,,Josh Gottheimer for Congress,,,,,,,,,,,,,,,,,MasterCard,,,,,,,,,,,,,
,2019-05-09 11:27:47,500.00,4,0,Josh Gottheimer,http://josh.propolitician.com,,,,Simon,Akwin,Abc valley,,New jersey city,New Jersey,07097,United States,Politician,Congress,andrewlose001@gmail.com,(575) 546-4664,,,,,,,,,,,,,,,,,,,,,,,,,Josh Gottheimer for Congress,,,,,,,,,,,,,,,,,MasterCard,,,,,,,,,,,,,
40030708776,2019-05-09 12:19:35,500.00,4,0,Josh Gottheimer,http://josh.propolitician.com,,,,Simon,Akwin,Abc valley,,New jersey city,New Jersey,07097,United States,Politician,Congress,andrewlose001@gmail.com,(575) 546-4664,,,,,,,,,,,,,,,,,,,,,,,,,Josh Gottheimer for Congress,,,,,,,,,,,,,,,,,Visa,,,,,,,,,,,,,
,2019-05-09 12:19:35,500.00,4,0,Josh Gottheimer,http://josh.propolitician.com,,,,Simon,Akwin,Abc valley,,New jersey city,New Jersey,07097,United States,Politician,Congress,andrewlose001@gmail.com,(575) 546-4664,,,,,,,,,,,,,,,,,,,,,,,,,Josh Gottheimer for Congress,,,,,,,,,,,,,,,,,Visa,,,,,,,,,,,,,
,2019-05-09 12:19:35,500.00,4,0,Josh Gottheimer,http://josh.propolitician.com,,,,Simon,Akwin,Abc valley,,New jersey city,New Jersey,07097,United States,Politician,Congress,andrewlose001@gmail.com,(575) 546-4664,,,,,,,,,,,,,,,,,,,,,,,,,Josh Gottheimer for Congress,,,,,,,,,,,,,,,,,Visa,,,,,,,,,,,,,
,2019-05-09 12:19:35,500.00,4,0,Josh Gottheimer,http://josh.propolitician.com,,,,Simon,Akwin,Abc valley,,New jersey city,New Jersey,07097,United States,Politician,Congress,andrewlose001@gmail.com,(575) 546-4664,,,,,,,,,,,,,,,,,,,,,,,,,Josh Gottheimer for Congress,,,,,,,,,,,,,,,,,Visa,,,,,,,,,,,,,
,2019-05-09 12:19:35,500.00,4,0,Josh Gottheimer,http://josh.propolitician.com,,,,Simon,Akwin,Abc valley,,New jersey city,New Jersey,07097,United States,Politician,Congress,andrewlose001@gmail.com,(575) 546-4664,,,,,,,,,,,,,,,,,,,,,,,,,Josh Gottheimer for Congress,,,,,,,,,,,,,,,,,Visa,,,,,,,,,,,,,
40030708932,2019-05-09 12:27:05,5600.00,4,0,Josh Gottheimer,http://josh.propolitician.com,,,,Simon,Akwin,Abc valley,,New jersey city,New Jersey,07097,United States,Politician,Congress,andrewlose001@gmail.com,(575) 546-4664,,,,,,,,,,,,,,,,,,,,,,,,,Josh Gottheimer for Congress,,,,,,,,,,,,,,,,,MasterCard,,,,,,,,,,,,,
,2019-05-09 12:27:05,5600.00,4,0,Josh Gottheimer,http://josh.propolitician.com,,,,Simon,Akwin,Abc valley,,New jersey city,New Jersey,07097,United States,Politician,Congress,andrewlose001@gmail.com,(575) 546-4664,,,,,,,,,,,,,,,,,,,,,,,,,Josh Gottheimer for Congress,,,,,,,,,,,,,,,,,MasterCard,,,,,,,,,,,,,
,2019-05-09 12:27:05,5600.00,4,0,Josh Gottheimer,http://josh.propolitician.com,,,,Simon,Akwin,Abc valley,,New jersey city,New Jersey,07097,United States,Politician,Congress,andrewlose001@gmail.com,(575) 546-4664,,,,,,,,,,,,,,,,,,,,,,,,,Josh Gottheimer for Congress,,,,,,,,,,,,,,,,,MasterCard,,,,,,,,,,,,,
,2019-05-09 12:27:05,5600.00,4,0,Josh Gottheimer,http://josh.propolitician.com,,,,Simon,Akwin,Abc valley,,New jersey city,New Jersey,07097,United States,Politician,Congress,andrewlose001@gmail.com,(575) 546-4664,,,,,,,,,,,,,,,,,,,,,,,,,Josh Gottheimer for Congress,,,,,,,,,,,,,,,,,MasterCard,,,,,,,,,,,,,
,2019-05-09 12:27:05,5600.00,4,0,Josh Gottheimer,http://josh.propolitician.com,,,,Simon,Akwin,Abc valley,,New jersey city,New Jersey,07097,United States,Politician,Congress,andrewlose001@gmail.com,(575) 546-4664,,,,,,,,,,,,,,,,,,,,,,,,,Josh Gottheimer for Congress,,,,,,,,,,,,,,,,,MasterCard,,,,,,,,,,,,,
40030709048,2019-05-09 12:37:07,1000.00,0,0,Josh Gottheimer,http://josh.propolitician.com,,,,,,,,,,,,Businesswoman,Google Inc.,,,,,,,,,,,,,,,,,,,,,,,,,,,Josh Gottheimer for Congress,,,,,,,,,,,,,,,,,Visa,,,,,,,,,,,,,
40030709085,2019-05-09 12:40:11,500.00,4,0,Josh Gottheimer,http://josh.propolitician.com,,,,Simon,Akwin,Abc valley,,New jersey city,New Jersey,07097,United States,Politician,Congress,andrewlose001@gmail.com,(575) 546-4664,,,,,,,,,,,,,,,,,,,,,,,,,Josh Gottheimer for Congress,,,,,,,,,,,,,,,,,Visa,,,,,,,,,,,,,
,2019-05-09 12:40:11,500.00,4,0,Josh Gottheimer,http://josh.propolitician.com,,,,Simon,Akwin,Abc valley,,New jersey city,New Jersey,07097,United States,Politician,Congress,andrewlose001@gmail.com,(575) 546-4664,,,,,,,,,,,,,,,,,,,,,,,,,Josh Gottheimer for Congress,,,,,,,,,,,,,,,,,Visa,,,,,,,,,,,,,
,2019-05-09 12:40:11,500.00,4,0,Josh Gottheimer,http://josh.propolitician.com,,,,Simon,Akwin,Abc valley,,New jersey city,New Jersey,07097,United States,Politician,Congress,andrewlose001@gmail.com,(575) 546-4664,,,,,,,,,,,,,,,,,,,,,,,,,Josh Gottheimer for Congress,,,,,,,,,,,,,,,,,Visa,,,,,,,,,,,,,
,2019-05-09 12:40:11,500.00,4,0,Josh Gottheimer,http://josh.propolitician.com,,,,Simon,Akwin,Abc valley,,New jersey city,New Jersey,07097,United States,Politician,Congress,andrewlose001@gmail.com,(575) 546-4664,,,,,,,,,,,,,,,,,,,,,,,,,Josh Gottheimer for Congress,,,,,,,,,,,,,,,,,Visa,,,,,,,,,,,,,
,2019-05-09 12:40:11,500.00,4,0,Josh Gottheimer,http://josh.propolitician.com,,,,Simon,Akwin,Abc valley,,New jersey city,New Jersey,07097,United States,Politician,Congress,andrewlose001@gmail.com,(575) 546-4664,,,,,,,,,,,,,,,,,,,,,,,,,Josh Gottheimer for Congress,,,,,,,,,,,,,,,,,Visa,,,,,,,,,,,,,
40030709152,2019-05-09 12:44:05,500.00,4,0,Josh Gottheimer,http://josh.propolitician.com,,,,Simon,Akwin,Abc valley,,New jersey city,New Jersey,07097,United States,Politician,Congress,andrewlose001@gmail.com,(575) 546-4664,,,,,,,,,,,,,,,,,,,,,,,,,Josh Gottheimer for Congress,,,,,,,,,,,,,,,,,Visa,,,,,,,,,,,,,
,2019-05-09 12:44:05,500.00,4,0,Josh Gottheimer,http://josh.propolitician.com,,,,Simon,Akwin,Abc valley,,New jersey city,New Jersey,07097,United States,Politician,Congress,andrewlose001@gmail.com,(575) 546-4664,,,,,,,,,,,,,,,,,,,,,,,,,Josh Gottheimer for Congress,,,,,,,,,,,,,,,,,Visa,,,,,,,,,,,,,
,2019-05-09 12:44:05,500.00,4,0,Josh Gottheimer,http://josh.propolitician.com,,,,Simon,Akwin,Abc valley,,New jersey city,New Jersey,07097,United States,Politician,Congress,andrewlose001@gmail.com,(575) 546-4664,,,,,,,,,,,,,,,,,,,,,,,,,Josh Gottheimer for Congress,,,,,,,,,,,,,,,,,Visa,,,,,,,,,,,,,
,2019-05-09 12:44:05,500.00,4,0,Josh Gottheimer,http://josh.propolitician.com,,,,Simon,Akwin,Abc valley,,New jersey city,New Jersey,07097,United States,Politician,Congress,andrewlose001@gmail.com,(575) 546-4664,,,,,,,,,,,,,,,,,,,,,,,,,Josh Gottheimer for Congress,,,,,,,,,,,,,,,,,Visa,,,,,,,,,,,,,
,2019-05-09 12:44:05,500.00,4,0,Josh Gottheimer,http://josh.propolitician.com,,,,Simon,Akwin,Abc valley,,New jersey city,New Jersey,07097,United States,Politician,Congress,andrewlose001@gmail.com,(575) 546-4664,,,,,,,,,,,,,,,,,,,,,,,,,Josh Gottheimer for Congress,,,,,,,,,,,,,,,,,Visa,,,,,,,,,,,,,
,2019-05-09 12:54:33,1000.00,0,0,Josh Gottheimer,http://josh.propolitician.com,,,,,,,,,,,,Businesswoman,Google Inc.,,,,,,,,,,,,,,,,,,,,,,,,,,,Josh Gottheimer for Congress,,,,,,,,,,,,,,,,,Visa,,,,,,,,,,,,,
,2019-05-09 01:29:09,500.00,0,0,Josh Gottheimer,http://josh.propolitician.com,,,,,,,,,,,,Businesswoman,Google Inc.,,,,,,,,,,,,,,,,,,,,,,,,,,,Josh Gottheimer for Congress,,,,,,,,,,,,,,,,,Visa,,,,,,,,,,,,,
,2019-05-09 01:29:17,500.00,0,0,Josh Gottheimer,http://josh.propolitician.com,,,,,,,,,,,,Businesswoman,Google Inc.,,,,,,,,,,,,,,,,,,,,,,,,,,,Josh Gottheimer for Congress,,,,,,,,,,,,,,,,,Visa,,,,,,,,,,,,,
,2019-05-09 01:29:50,1000.00,0,0,Josh Gottheimer,http://josh.propolitician.com,,,,,,,,,,,,Businesswoman,Google Inc.,,,,,,,,,,,,,,,,,,,,,,,,,,,Josh Gottheimer for Congress,,,,,,,,,,,,,,,,,Visa,,,,,,,,,,,,,
40030710308,2019-05-09 01:43:01,500.00,0,0,Josh Gottheimer,http://josh.propolitician.com,,,,kiranrty,Dhillonrtyrty,dfg,Hrtuy,Gfdg,California,567567,United States,Jfjfgjryr,Ergerfgj,kirandeep2094@gmail.com,4564564565,,,,,,,,,,,,,,,,,,,,,,,,,Josh Gottheimer for Congress,,,,,,,,,,,,,,,,,Visa,,,,,,,,,,,,,
,2019-05-09 01:57:12,1000.00,0,0,Josh Gottheimer,http://josh.propolitician.com,,,,,,,,,,,,Businesswoman,Google Inc.,,,,,,,,,,,,,,,,,,,,,,,,,,,Josh Gottheimer for Congress,,,,,,,,,,,,,,,,,Visa,,,,,,,,,,,,,
40030718520,2019-05-09 08:07:21,2800.00,0,0,Josh Gottheimer,http://josh.propolitician.com,,,,MJ,Grover,4249 Colden Street,,Flushing,New York,11355,United States,Self Employed,XYZ Solutions LLC,my2asquare@gmail.com,(917) 969-7321,,,,,,,,,,,,,,,,,,,,,,,,,Josh Gottheimer for Congress,,,,,,,,,,,,,,,,,Visa,,,,,,,,,,,,,
40030719017,2019-05-09 08:24:16,11200.00,0,0,Josh Gottheimer,http://josh.propolitician.com,,,,MJ,Grover,4249 Colden Street,,Flushing,New York,11355,United States,Self Employed,XYZ Solutions LLC,my2asquare@gmail.com,(917) 969-7321,,,,,,,,,,,,,,,,,,,,,,,,,Josh Gottheimer for Congress,,,,,,,,,,,,,,,,,Visa,,,,,,,,,,,,,
40030725715,2019-05-10 06:13:02,2800.00,4,0,Josh Gottheimer,http://josh.propolitician.com,,,,Simon,Akwin,Abc valley,,New jersey city,New Jersey,07097,United States,Politician,Congress,andrewlose001@gmail.com,(575) 546-4664,,,,,,,,,,,,,,,,,,,,,,,,,Josh Gottheimer for Congress,,,,,,,,,,,,,,,,,MasterCard,,,,,,,,,,,,,
,2019-05-10 06:13:02,2800.00,4,0,Josh Gottheimer,http://josh.propolitician.com,,,,Simon,Akwin,Abc valley,,New jersey city,New Jersey,07097,United States,Politician,Congress,andrewlose001@gmail.com,(575) 546-4664,,,,,,,,,,,,,,,,,,,,,,,,,Josh Gottheimer for Congress,,,,,,,,,,,,,,,,,MasterCard,,,,,,,,,,,,,
,2019-05-10 06:13:02,2800.00,4,0,Josh Gottheimer,http://josh.propolitician.com,,,,Simon,Akwin,Abc valley,,New jersey city,New Jersey,07097,United States,Politician,Congress,andrewlose001@gmail.com,(575) 546-4664,,,,,,,,,,,,,,,,,,,,,,,,,Josh Gottheimer for Congress,,,,,,,,,,,,,,,,,MasterCard,,,,,,,,,,,,,
,2019-05-10 06:13:02,2800.00,4,0,Josh Gottheimer,http://josh.propolitician.com,,,,Simon,Akwin,Abc valley,,New jersey city,New Jersey,07097,United States,Politician,Congress,andrewlose001@gmail.com,(575) 546-4664,,,,,,,,,,,,,,,,,,,,,,,,,Josh Gottheimer for Congress,,,,,,,,,,,,,,,,,MasterCard,,,,,,,,,,,,,
,2019-05-10 06:13:02,2800.00,4,0,Josh Gottheimer,http://josh.propolitician.com,,,,Simon,Akwin,Abc valley,,New jersey city,New Jersey,07097,United States,Politician,Congress,andrewlose001@gmail.com,(575) 546-4664,,,,,,,,,,,,,,,,,,,,,,,,,Josh Gottheimer for Congress,,,,,,,,,,,,,,,,,MasterCard,,,,,,,,,,,,,
40030725731,2019-05-10 06:16:43,5600.00,4,0,Josh Gottheimer,http://josh.propolitician.com,,,,Simon,Akwin,Abc valley,,New jersey city,New Jersey,07097,United States,Politician,Congress,andrewlose001@gmail.com,(575) 546-4664,,,,,,,,,,,,,,,,,,,,,,,,,Josh Gottheimer for Congress,,,,,,,,,,,,,,,,,MasterCard,,,,,,,,,,,,,
,2019-05-10 06:16:43,5600.00,4,0,Josh Gottheimer,http://josh.propolitician.com,,,,Simon,Akwin,Abc valley,,New jersey city,New Jersey,07097,United States,Politician,Congress,andrewlose001@gmail.com,(575) 546-4664,,,,,,,,,,,,,,,,,,,,,,,,,Josh Gottheimer for Congress,,,,,,,,,,,,,,,,,MasterCard,,,,,,,,,,,,,
,2019-05-10 06:16:43,5600.00,4,0,Josh Gottheimer,http://josh.propolitician.com,,,,Simon,Akwin,Abc valley,,New jersey city,New Jersey,07097,United States,Politician,Congress,andrewlose001@gmail.com,(575) 546-4664,,,,,,,,,,,,,,,,,,,,,,,,,Josh Gottheimer for Congress,,,,,,,,,,,,,,,,,MasterCard,,,,,,,,,,,,,
,2019-05-10 06:16:43,5600.00,4,0,Josh Gottheimer,http://josh.propolitician.com,,,,Simon,Akwin,Abc valley,,New jersey city,New Jersey,07097,United States,Politician,Congress,andrewlose001@gmail.com,(575) 546-4664,,,,,,,,,,,,,,,,,,,,,,,,,Josh Gottheimer for Congress,,,,,,,,,,,,,,,,,MasterCard,,,,,,,,,,,,,
,2019-05-10 06:16:43,5600.00,4,0,Josh Gottheimer,http://josh.propolitician.com,,,,Simon,Akwin,Abc valley,,New jersey city,New Jersey,07097,United States,Politician,Congress,andrewlose001@gmail.com,(575) 546-4664,,,,,,,,,,,,,,,,,,,,,,,,,Josh Gottheimer for Congress,,,,,,,,,,,,,,,,,MasterCard,,,,,,,,,,,,,
40030725788,2019-05-10 06:23:43,500.00,4,0,Josh Gottheimer,http://josh.propolitician.com,,,,Manish,Sharma,544, Nevada,,New york,New Jersey,87556,United States,Rtyuuuu,Rtyjhh,sandeep@gmail.com,(784) 648-9989,,,,,,,,,,,,,,,,,,,,,,,,,Josh Gottheimer for Congress,,,,,,,,,,,,,,,,,Visa,,,,,,,,,,,,,
,2019-05-10 06:23:43,500.00,4,0,Josh Gottheimer,http://josh.propolitician.com,,,,Manish,Sharma,544, Nevada,,New york,New Jersey,87556,United States,Rtyuuuu,Rtyjhh,sandeep@gmail.com,(784) 648-9989,,,,,,,,,,,,,,,,,,,,,,,,,Josh Gottheimer for Congress,,,,,,,,,,,,,,,,,Visa,,,,,,,,,,,,,
,2019-05-10 06:23:43,500.00,4,0,Josh Gottheimer,http://josh.propolitician.com,,,,Manish,Sharma,544, Nevada,,New york,New Jersey,87556,United States,Rtyuuuu,Rtyjhh,sandeep@gmail.com,(784) 648-9989,,,,,,,,,,,,,,,,,,,,,,,,,Josh Gottheimer for Congress,,,,,,,,,,,,,,,,,Visa,,,,,,,,,,,,,
,2019-05-10 06:23:43,500.00,4,0,Josh Gottheimer,http://josh.propolitician.com,,,,Manish,Sharma,544, Nevada,,New york,New Jersey,87556,United States,Rtyuuuu,Rtyjhh,sandeep@gmail.com,(784) 648-9989,,,,,,,,,,,,,,,,,,,,,,,,,Josh Gottheimer for Congress,,,,,,,,,,,,,,,,,Visa,,,,,,,,,,,,,
,2019-05-10 06:23:43,500.00,4,0,Josh Gottheimer,http://josh.propolitician.com,,,,Manish,Sharma,544, Nevada,,New york,New Jersey,87556,United States,Rtyuuuu,Rtyjhh,sandeep@gmail.com,(784) 648-9989,,,,,,,,,,,,,,,,,,,,,,,,,Josh Gottheimer for Congress,,,,,,,,,,,,,,,,,Visa,,,,,,,,,,,,,
40030725791,2019-05-10 06:24:16,11200.00,4,0,Josh Gottheimer,http://josh.propolitician.com,,,,Manish,Sharma,544, Nevada,,New york,New Jersey,87556,United States,Rtyuuuu,Rtyjhh,sandeep@gmail.com,(784) 648-9989,,,,,,,,,,,,,,,,,,,,,,,,,Josh Gottheimer for Congress,,,,,,,,,,,,,,,,,Visa,,,,,,,,,,,,,
,2019-05-10 06:24:16,11200.00,4,0,Josh Gottheimer,http://josh.propolitician.com,,,,Manish,Sharma,544, Nevada,,New york,New Jersey,87556,United States,Rtyuuuu,Rtyjhh,sandeep@gmail.com,(784) 648-9989,,,,,,,,,,,,,,,,,,,,,,,,,Josh Gottheimer for Congress,,,,,,,,,,,,,,,,,Visa,,,,,,,,,,,,,
,2019-05-10 06:24:16,11200.00,4,0,Josh Gottheimer,http://josh.propolitician.com,,,,Manish,Sharma,544, Nevada,,New york,New Jersey,87556,United States,Rtyuuuu,Rtyjhh,sandeep@gmail.com,(784) 648-9989,,,,,,,,,,,,,,,,,,,,,,,,,Josh Gottheimer for Congress,,,,,,,,,,,,,,,,,Visa,,,,,,,,,,,,,
,2019-05-10 06:24:16,11200.00,4,0,Josh Gottheimer,http://josh.propolitician.com,,,,Manish,Sharma,544, Nevada,,New york,New Jersey,87556,United States,Rtyuuuu,Rtyjhh,sandeep@gmail.com,(784) 648-9989,,,,,,,,,,,,,,,,,,,,,,,,,Josh Gottheimer for Congress,,,,,,,,,,,,,,,,,Visa,,,,,,,,,,,,,
,2019-05-10 06:24:16,11200.00,4,0,Josh Gottheimer,http://josh.propolitician.com,,,,Manish,Sharma,544, Nevada,,New york,New Jersey,87556,United States,Rtyuuuu,Rtyjhh,sandeep@gmail.com,(784) 648-9989,,,,,,,,,,,,,,,,,,,,,,,,,Josh Gottheimer for Congress,,,,,,,,,,,,,,,,,Visa,,,,,,,,,,,,,
40030741169,2019-05-10 08:30:44,500.00,4,0,Josh Gottheimer,http://josh.propolitician.com,,,,Manish,Sharma,544, Nevada,,New york,New Jersey,87556,United States,Rtyuuuu,Rtyjhh,sandeep@gmail.com,(784) 648-9989,,,,,,,,,,,,,,,,,,,,,,,,,Josh Gottheimer for Congress,,,,,,,,,,,,,,,,,Visa,,,,,,,,,,,,,
,2019-05-10 08:30:44,500.00,4,0,Josh Gottheimer,http://josh.propolitician.com,,,,Manish,Sharma,544, Nevada,,New york,New Jersey,87556,United States,Rtyuuuu,Rtyjhh,sandeep@gmail.com,(784) 648-9989,,,,,,,,,,,,,,,,,,,,,,,,,Josh Gottheimer for Congress,,,,,,,,,,,,,,,,,Visa,,,,,,,,,,,,,
,2019-05-10 08:30:44,500.00,4,0,Josh Gottheimer,http://josh.propolitician.com,,,,Manish,Sharma,544, Nevada,,New york,New Jersey,87556,United States,Rtyuuuu,Rtyjhh,sandeep@gmail.com,(784) 648-9989,,,,,,,,,,,,,,,,,,,,,,,,,Josh Gottheimer for Congress,,,,,,,,,,,,,,,,,Visa,,,,,,,,,,,,,
,2019-05-10 08:30:44,500.00,4,0,Josh Gottheimer,http://josh.propolitician.com,,,,Manish,Sharma,544, Nevada,,New york,New Jersey,87556,United States,Rtyuuuu,Rtyjhh,sandeep@gmail.com,(784) 648-9989,,,,,,,,,,,,,,,,,,,,,,,,,Josh Gottheimer for Congress,,,,,,,,,,,,,,,,,Visa,,,,,,,,,,,,,
,2019-05-10 08:30:44,500.00,4,0,Josh Gottheimer,http://josh.propolitician.com,,,,Manish,Sharma,544, Nevada,,New york,New Jersey,87556,United States,Rtyuuuu,Rtyjhh,sandeep@gmail.com,(784) 648-9989,,,,,,,,,,,,,,,,,,,,,,,,,Josh Gottheimer for Congress,,,,,,,,,,,,,,,,,Visa,,,,,,,,,,,,,
40030772256,2019-05-10 10:14:50,11200.00,4,0,Josh Gottheimer,http://josh.propolitician.com,,,,Manish,Sharma,544, Nevada,,New york,New Jersey,87556,United States,Tester,2asquare,sandeep@gmail.com,(784) 648-9989,,,,,,,,,,,,,,,,,,,,,,,,,Josh Gottheimer for Congress,,,,,,,,,,,,,,,,,Visa,,,,,,,,,,,,,
,2019-05-10 10:14:50,11200.00,4,0,Josh Gottheimer,http://josh.propolitician.com,,,,Manish,Sharma,544, Nevada,,New york,New Jersey,87556,United States,Tester,2asquare,sandeep@gmail.com,(784) 648-9989,,,,,,,,,,,,,,,,,,,,,,,,,Josh Gottheimer for Congress,,,,,,,,,,,,,,,,,Visa,,,,,,,,,,,,,
,2019-05-10 10:14:50,11200.00,4,0,Josh Gottheimer,http://josh.propolitician.com,,,,Manish,Sharma,544, Nevada,,New york,New Jersey,87556,United States,Tester,2asquare,sandeep@gmail.com,(784) 648-9989,,,,,,,,,,,,,,,,,,,,,,,,,Josh Gottheimer for Congress,,,,,,,,,,,,,,,,,Visa,,,,,,,,,,,,,
,2019-05-10 10:14:50,11200.00,4,0,Josh Gottheimer,http://josh.propolitician.com,,,,Manish,Sharma,544, Nevada,,New york,New Jersey,87556,United States,Tester,2asquare,sandeep@gmail.com,(784) 648-9989,,,,,,,,,,,,,,,,,,,,,,,,,Josh Gottheimer for Congress,,,,,,,,,,,,,,,,,Visa,,,,,,,,,,,,,
,2019-05-10 10:14:50,11200.00,4,0,Josh Gottheimer,http://josh.propolitician.com,,,,Manish,Sharma,544, Nevada,,New york,New Jersey,87556,United States,Tester,2asquare,sandeep@gmail.com,(784) 648-9989,,,,,,,,,,,,,,,,,,,,,,,,,Josh Gottheimer for Congress,,,,,,,,,,,,,,,,,Visa,,,,,,,,,,,,,
40030773848,2019-05-10 11:29:47,5600.00,4,0,Josh Gottheimer,http://josh.propolitician.com,,,,Sonia,,colden,,jersey,New Jersey,12452,United States,manager,ssss,sonia@gmail.com,,,,,,,,,,,,,,,,,,,,,,,,,,Josh Gottheimer for Congress,,,,,,,,,,,,,,,,,Visa,,,,,,,,,,,,,
,2019-05-10 11:29:47,5600.00,4,0,Josh Gottheimer,http://josh.propolitician.com,,,,Sonia,,colden,,jersey,New Jersey,12452,United States,manager,ssss,sonia@gmail.com,,,,,,,,,,,,,,,,,,,,,,,,,,Josh Gottheimer for Congress,,,,,,,,,,,,,,,,,Visa,,,,,,,,,,,,,
,2019-05-10 11:29:47,5600.00,4,0,Josh Gottheimer,http://josh.propolitician.com,,,,Sonia,,colden,,jersey,New Jersey,12452,United States,manager,ssss,sonia@gmail.com,,,,,,,,,,,,,,,,,,,,,,,,,,Josh Gottheimer for Congress,,,,,,,,,,,,,,,,,Visa,,,,,,,,,,,,,
,2019-05-10 11:29:47,5600.00,4,0,Josh Gottheimer,http://josh.propolitician.com,,,,Sonia,,colden,,jersey,New Jersey,12452,United States,manager,ssss,sonia@gmail.com,,,,,,,,,,,,,,,,,,,,,,,,,,Josh Gottheimer for Congress,,,,,,,,,,,,,,,,,Visa,,,,,,,,,,,,,
,2019-05-10 11:29:47,5600.00,4,0,Josh Gottheimer,http://josh.propolitician.com,,,,Sonia,,colden,,jersey,New Jersey,12452,United States,manager,ssss,sonia@gmail.com,,,,,,,,,,,,,,,,,,,,,,,,,,Josh Gottheimer for Congress,,,,,,,,,,,,,,,,,Visa,,,,,,,,,,,,,
40030777786,2019-05-10 03:16:47,500.00,0,0,Josh Gottheimer,http://josh.propolitician.com,,,,Kiran,Dhillonukykjg,4249colden street,,Flushing,New York,11355,United States,ns,Q23$hthgg etrtdgbc,Kiran@gmail.com,3123123123,,,,,,,,,,,,,,,,,,,,,,,,,Josh Gottheimer for Congress,,,,,,,,,,,,,,,,,MasterCard,,,,,,,,,,,,,
40030778124,2019-05-10 03:38:37,500.00,0,0,Josh Gottheimer,http://josh.propolitician.com,,,,Kiran,Dhillonukykjg,4249colden street,,Flushing,New York,11355,United States,ns,Q23$hthgg etrtdgbc,Kiran@gmail.com,3123123123,,,,,,,,,,,,,,,,,,,,,,,,,Josh Gottheimer for Congress,,,,,,,,,,,,,,,,,MasterCard,,,,,,,,,,,,,
40030778670,2019-05-10 04:10:41,500.00,0,0,Josh Gottheimer,http://josh.propolitician.com,,,,Simon,Akwin,Abc valley,,New jersey city,New Jersey,07097,United States,Politician,Congress,andrewlose001@gmail.com,(575) 546-4664,,,,,,,,,,,,,,,,,,,,,,,,,Josh Gottheimer for Congress,,,,,,,,,,,,,,,,,Visa,,,,,,,,,,,,,
40030820921,2019-05-11 09:07:51,5000.00,4,0,Josh Gottheimer,http://josh.propolitician.com,,,,.,.,,,,,,,IT Executive,Google,.,.,,,,,,,,,,,,,,,,,,,,,,,,,Josh Gottheimer for Congress,,,,,,,,,,,,,,,,,Visa,,,,,,,,,,,,,
,2019-05-11 09:07:51,5000.00,4,0,Josh Gottheimer,http://josh.propolitician.com,,,,.,.,,,,,,,IT Executive,Google,.,.,,,,,,,,,,,,,,,,,,,,,,,,,Josh Gottheimer for Congress,,,,,,,,,,,,,,,,,Visa,,,,,,,,,,,,,
,2019-05-11 09:07:51,5000.00,4,0,Josh Gottheimer,http://josh.propolitician.com,,,,.,.,,,,,,,IT Executive,Google,.,.,,,,,,,,,,,,,,,,,,,,,,,,,Josh Gottheimer for Congress,,,,,,,,,,,,,,,,,Visa,,,,,,,,,,,,,
,2019-05-11 09:07:51,5000.00,4,0,Josh Gottheimer,http://josh.propolitician.com,,,,.,.,,,,,,,IT Executive,Google,.,.,,,,,,,,,,,,,,,,,,,,,,,,,Josh Gottheimer for Congress,,,,,,,,,,,,,,,,,Visa,,,,,,,,,,,,,
,2019-05-11 09:07:51,5000.00,4,0,Josh Gottheimer,http://josh.propolitician.com,,,,.,.,,,,,,,IT Executive,Google,.,.,,,,,,,,,,,,,,,,,,,,,,,,,Josh Gottheimer for Congress,,,,,,,,,,,,,,,,,Visa,,,,,,,,,,,,,
40030825878,2019-05-11 09:25:42,6000.00,4,0,Josh Gottheimer,http://josh.propolitician.com,,,,.,.,,,,,,,Quality Analyst,ABC Inc.,.,.,,,,,,,,,,,,,,,,,,,,,,,,,Josh Gottheimer for Congress,,,,,,,,,,,,,,,,,Visa,,,,,,,,,,,,,
,2019-05-11 09:25:42,6000.00,4,0,Josh Gottheimer,http://josh.propolitician.com,,,,.,.,,,,,,,Quality Analyst,ABC Inc.,.,.,,,,,,,,,,,,,,,,,,,,,,,,,Josh Gottheimer for Congress,,,,,,,,,,,,,,,,,Visa,,,,,,,,,,,,,
,2019-05-11 09:25:42,6000.00,4,0,Josh Gottheimer,http://josh.propolitician.com,,,,.,.,,,,,,,Quality Analyst,ABC Inc.,.,.,,,,,,,,,,,,,,,,,,,,,,,,,Josh Gottheimer for Congress,,,,,,,,,,,,,,,,,Visa,,,,,,,,,,,,,
,2019-05-11 09:25:42,6000.00,4,0,Josh Gottheimer,http://josh.propolitician.com,,,,.,.,,,,,,,Quality Analyst,ABC Inc.,.,.,,,,,,,,,,,,,,,,,,,,,,,,,Josh Gottheimer for Congress,,,,,,,,,,,,,,,,,Visa,,,,,,,,,,,,,
,2019-05-11 09:25:42,6000.00,4,0,Josh Gottheimer,http://josh.propolitician.com,,,,.,.,,,,,,,Quality Analyst,ABC Inc.,.,.,,,,,,,,,,,,,,,,,,,,,,,,,Josh Gottheimer for Congress,,,,,,,,,,,,,,,,,Visa,,,,,,,,,,,,,
40030834120,2019-05-11 10:30:48,2000.00,0,0,Josh Gottheimer,http://josh.propolitician.com,,,,Megha,,1234 Street,,Jersey,California,11355,United States,Businessman,ABC LLC,megha@2asquare.com,,,,,,,,,,,,,,,,,,,,,,,,,,Josh Gottheimer for Congress,,,,,,,,,,,,,,,,,Visa,,,,,,,,,,,,,
40030861199,2019-05-11 06:11:59,500.00,4,0,Josh Gottheimer,http://josh.propolitician.com,,,,.,.,,,,,,,occ,emp,.,.,,,,,,,,,,,,,,,,,,,,,,,,,Josh Gottheimer for Congress,,,,,,,,,,,,,,,,,Visa,,,,,,,,,,,,,
,2019-05-11 06:11:59,500.00,4,0,Josh Gottheimer,http://josh.propolitician.com,,,,.,.,,,,,,,occ,emp,.,.,,,,,,,,,,,,,,,,,,,,,,,,,Josh Gottheimer for Congress,,,,,,,,,,,,,,,,,Visa,,,,,,,,,,,,,
,2019-05-11 06:11:59,500.00,4,0,Josh Gottheimer,http://josh.propolitician.com,,,,.,.,,,,,,,occ,emp,.,.,,,,,,,,,,,,,,,,,,,,,,,,,Josh Gottheimer for Congress,,,,,,,,,,,,,,,,,Visa,,,,,,,,,,,,,
,2019-05-11 06:11:59,500.00,4,0,Josh Gottheimer,http://josh.propolitician.com,,,,.,.,,,,,,,occ,emp,.,.,,,,,,,,,,,,,,,,,,,,,,,,,Josh Gottheimer for Congress,,,,,,,,,,,,,,,,,Visa,,,,,,,,,,,,,
,2019-05-11 06:11:59,500.00,4,0,Josh Gottheimer,http://josh.propolitician.com,,,,.,.,,,,,,,occ,emp,.,.,,,,,,,,,,,,,,,,,,,,,,,,,Josh Gottheimer for Congress,,,,,,,,,,,,,,,,,Visa,,,,,,,,,,,,,
40031032041,2019-05-13 05:12:26,600.00,4,0,Josh Gottheimer,http://josh.propolitician.com,,,,Sonia,,colden,,jersey,New Jersey,12452,United States,manager,ssss,sonia@gmail.com,,,,,,,,,,,,,,,,,,,,,,,,,,Josh Gottheimer for Congress,,,,,,,,,,,,,,,,,Visa,,,,,,,,,,,,,
40031044817,2019-05-13 07:54:32,500.00,4,0,Josh Gottheimer,http://josh.propolitician.com,,,,Rahul,Verma,303, sector-777,,Flushing,New York,11374,United States,Service man,Temporary,surander.parkeee@gmail.com,(123) 123-1231,,,,,,,,,,,,,,,,,,,,,,,,,Josh Gottheimer for Congress,,,,,,,,,,,,,,,,,Visa,,,,,,,,,,,,,
,2019-05-13 07:54:32,500.00,4,0,Josh Gottheimer,http://josh.propolitician.com,,,,Rahul,Verma,303, sector-777,,Flushing,New York,11374,United States,Service man,Temporary,surander.parkeee@gmail.com,(123) 123-1231,,,,,,,,,,,,,,,,,,,,,,,,,Josh Gottheimer for Congress,,,,,,,,,,,,,,,,,Visa,,,,,,,,,,,,,
,2019-05-13 07:54:32,500.00,4,0,Josh Gottheimer,http://josh.propolitician.com,,,,Rahul,Verma,303, sector-777,,Flushing,New York,11374,United States,Service man,Temporary,surander.parkeee@gmail.com,(123) 123-1231,,,,,,,,,,,,,,,,,,,,,,,,,Josh Gottheimer for Congress,,,,,,,,,,,,,,,,,Visa,,,,,,,,,,,,,
,2019-05-13 07:54:32,500.00,4,0,Josh Gottheimer,http://josh.propolitician.com,,,,Rahul,Verma,303, sector-777,,Flushing,New York,11374,United States,Service man,Temporary,surander.parkeee@gmail.com,(123) 123-1231,,,,,,,,,,,,,,,,,,,,,,,,,Josh Gottheimer for Congress,,,,,,,,,,,,,,,,,Visa,,,,,,,,,,,,,
,2019-05-13 07:54:32,500.00,4,0,Josh Gottheimer,http://josh.propolitician.com,,,,Rahul,Verma,303, sector-777,,Flushing,New York,11374,United States,Service man,Temporary,surander.parkeee@gmail.com,(123) 123-1231,,,,,,,,,,,,,,,,,,,,,,,,,Josh Gottheimer for Congress,,,,,,,,,,,,,,,,,Visa,,,,,,,,,,,,,
40031046107,2019-05-13 08:05:05,1000.00,4,0,Josh Gottheimer,http://josh.propolitician.com,,,,Rahul,Verma,303, sector-777,,Flushing,New York,11374,United States,Service man,Temporary,surander.parkeee@gmail.com,(123) 123-1231,,,,,,,,,,,,,,,,,,,,,,,,,Josh Gottheimer for Congress,,,,,,,,,,,,,,,,,Visa,,,,,,,,,,,,,
,2019-05-13 08:05:05,1000.00,4,0,Josh Gottheimer,http://josh.propolitician.com,,,,Rahul,Verma,303, sector-777,,Flushing,New York,11374,United States,Service man,Temporary,surander.parkeee@gmail.com,(123) 123-1231,,,,,,,,,,,,,,,,,,,,,,,,,Josh Gottheimer for Congress,,,,,,,,,,,,,,,,,Visa,,,,,,,,,,,,,
,2019-05-13 08:05:05,1000.00,4,0,Josh Gottheimer,http://josh.propolitician.com,,,,Rahul,Verma,303, sector-777,,Flushing,New York,11374,United States,Service man,Temporary,surander.parkeee@gmail.com,(123) 123-1231,,,,,,,,,,,,,,,,,,,,,,,,,Josh Gottheimer for Congress,,,,,,,,,,,,,,,,,Visa,,,,,,,,,,,,,
,2019-05-13 08:05:05,1000.00,4,0,Josh Gottheimer,http://josh.propolitician.com,,,,Rahul,Verma,303, sector-777,,Flushing,New York,11374,United States,Service man,Temporary,surander.parkeee@gmail.com,(123) 123-1231,,,,,,,,,,,,,,,,,,,,,,,,,Josh Gottheimer for Congress,,,,,,,,,,,,,,,,,Visa,,,,,,,,,,,,,
,2019-05-13 08:05:05,1000.00,4,0,Josh Gottheimer,http://josh.propolitician.com,,,,Rahul,Verma,303, sector-777,,Flushing,New York,11374,United States,Service man,Temporary,surander.parkeee@gmail.com,(123) 123-1231,,,,,,,,,,,,,,,,,,,,,,,,,Josh Gottheimer for Congress,,,,,,,,,,,,,,,,,Visa,,,,,,,,,,,,,
40031073988,2019-05-13 09:57:31,500.00,4,0,Josh Gottheimer,http://josh.propolitician.com,,,,Ss,,uvv,,vvj hv,Belfast,60060,United Kingdom,occ,employee,arrs@g.c,(538) 383-8386,,,,,,,,,,,,,,,,,,,,,,,,,Josh Gottheimer for Congress,,,,,,,,,,,,,,,,,Visa,,,,,,,,,,,,,
,2019-05-13 09:57:31,500.00,4,0,Josh Gottheimer,http://josh.propolitician.com,,,,Ss,,uvv,,vvj hv,Belfast,60060,United Kingdom,occ,employee,arrs@g.c,(538) 383-8386,,,,,,,,,,,,,,,,,,,,,,,,,Josh Gottheimer for Congress,,,,,,,,,,,,,,,,,Visa,,,,,,,,,,,,,
,2019-05-13 09:57:31,500.00,4,0,Josh Gottheimer,http://josh.propolitician.com,,,,Ss,,uvv,,vvj hv,Belfast,60060,United Kingdom,occ,employee,arrs@g.c,(538) 383-8386,,,,,,,,,,,,,,,,,,,,,,,,,Josh Gottheimer for Congress,,,,,,,,,,,,,,,,,Visa,,,,,,,,,,,,,
,2019-05-13 09:57:31,500.00,4,0,Josh Gottheimer,http://josh.propolitician.com,,,,Ss,,uvv,,vvj hv,Belfast,60060,United Kingdom,occ,employee,arrs@g.c,(538) 383-8386,,,,,,,,,,,,,,,,,,,,,,,,,Josh Gottheimer for Congress,,,,,,,,,,,,,,,,,Visa,,,,,,,,,,,,,
,2019-05-13 09:57:31,500.00,4,0,Josh Gottheimer,http://josh.propolitician.com,,,,Ss,,uvv,,vvj hv,Belfast,60060,United Kingdom,occ,employee,arrs@g.c,(538) 383-8386,,,,,,,,,,,,,,,,,,,,,,,,,Josh Gottheimer for Congress,,,,,,,,,,,,,,,,,Visa,,,,,,,,,,,,,
40031076011,2019-05-13 10:45:05,500.00,0,0,Josh Gottheimer,http://josh.propolitician.com,,,,Simon,Akwin,Abc valley,,New jersey city,New Jersey,07097,United States,Politician,Congress,andrewlose001@gmail.com,(575) 546-4664,,,,,,,,,,,,,,,,,,,,,,,,,Josh Gottheimer for Congress,,,,,,,,,,,,,,,,,Visa,,,,,,,,,,,,,
40031076229,2019-05-13 11:02:58,5600.00,4,0,Josh Gottheimer,http://josh.propolitician.com,,,,Simon,Akwin,Abc valley,,New jersey city,New Jersey,07097,United States,Politician,Congress,andrewlose001@gmail.com,(575) 546-4664,,,,,,,,,,,,,,,,,,,,,,,,,Josh Gottheimer for Congress,,,,,,,,,,,,,,,,,MasterCard,,,,,,,,,,,,,
40031076742,2019-05-13 11:35:42,2800.00,4,0,Josh Gottheimer,http://josh.propolitician.com,,,,Simon,Akwin,Abc valley,,New jersey city,New Jersey,07097,United States,Politician,Congress,andrewlose001@gmail.com,(575) 546-4664,,,,,,,,,,,,,,,,,,,,,,,,,Josh Gottheimer for Congress,,,,,,,,,,,,,,,,,MasterCard,,,,,,,,,,,,,
40031076823,2019-05-13 11:38:39,5600.00,4,0,Josh Gottheimer,http://josh.propolitician.com,,,,Simon,Akwin,Abc valley,,New jersey city,New Jersey,07097,United States,Politician,Congress,andrewlose001@gmail.com,(575) 546-4664,,,,,,,,,,,,,,,,,,,,,,,,,Josh Gottheimer for Congress,,,,,,,,,,,,,,,,,MasterCard,,,,,,,,,,,,,
40031076891,2019-05-13 11:43:35,250.00,4,0,Josh Gottheimer,http://josh.propolitician.com,,,,Simon,Akwin,Abc valley,,New jersey city,New Jersey,07097,United States,Politician,Congress,andrewlose001@gmail.com,(575) 546-4664,,,,,,,,,,,,,,,,,,,,,,,,,Josh Gottheimer for Congress,,,,,,,,,,,,,,,,,Visa,,,,,,,,,,,,,
40031076956,2019-05-13 11:45:58,250.00,4,0,Josh Gottheimer,http://josh.propolitician.com,,,,Simon,Akwin,Abc valley,,New jersey city,New Jersey,07097,United States,Politician,Congress,andrewlose001@gmail.com,(575) 546-4664,,,,,,,,,,,,,,,,,,,,,,,,,Josh Gottheimer for Congress,,,,,,,,,,,,,,,,,Visa,,,,,,,,,,,,,
40031076989,2019-05-13 11:49:07,11200.00,4,0,Josh Gottheimer,http://josh.propolitician.com,,,,Simon,Akwin,Abc valley,,New jersey city,New Jersey,07097,United States,Politician,Congress,andrewlose001@gmail.com,(575) 546-4664,,,,,,,,,,,,,,,,,,,,,,,,,Josh Gottheimer for Congress,,,,,,,,,,,,,,,,,Visa,,,,,,,,,,,,,
40031077063,2019-05-13 11:56:33,500.00,4,0,Josh Gottheimer,http://josh.propolitician.com,,,,Simon,Akwin,Abc valley,,New jersey city,New Jersey,07097,United States,Politician,Congress,andrewlose001@gmail.com,(575) 546-4664,,,,,,,,,,,,,,,,,,,,,,,,,Josh Gottheimer for Congress,,,,,,,,,,,,,,,,,Visa,,,,,,,,,,,,,
40031077127,2019-05-13 12:02:37,2800.00,4,0,Josh Gottheimer,http://josh.propolitician.com,,,,.,.,,,,,,,manager,sss,.,.,,,,,,,,,,,,,,,,,,,,,,,,,Josh Gottheimer for Congress,,,,,,,,,,,,,,,,,Visa,,,,,,,,,,,,,
,2019-05-13 12:02:37,2800.00,4,0,Josh Gottheimer,http://josh.propolitician.com,,,,.,.,,,,,,,manager,sss,.,.,,,,,,,,,,,,,,,,,,,,,,,,,Josh Gottheimer for Congress,,,,,,,,,,,,,,,,,Visa,,,,,,,,,,,,,
,2019-05-13 12:02:37,2800.00,4,0,Josh Gottheimer,http://josh.propolitician.com,,,,.,.,,,,,,,manager,sss,.,.,,,,,,,,,,,,,,,,,,,,,,,,,Josh Gottheimer for Congress,,,,,,,,,,,,,,,,,Visa,,,,,,,,,,,,,
,2019-05-13 12:02:37,2800.00,4,0,Josh Gottheimer,http://josh.propolitician.com,,,,.,.,,,,,,,manager,sss,.,.,,,,,,,,,,,,,,,,,,,,,,,,,Josh Gottheimer for Congress,,,,,,,,,,,,,,,,,Visa,,,,,,,,,,,,,
,2019-05-13 12:02:37,2800.00,4,0,Josh Gottheimer,http://josh.propolitician.com,,,,.,.,,,,,,,manager,sss,.,.,,,,,,,,,,,,,,,,,,,,,,,,,Josh Gottheimer for Congress,,,,,,,,,,,,,,,,,Visa,,,,,,,,,,,,,
40031077174,2019-05-13 12:07:05,2800.00,0,0,Josh Gottheimer,http://josh.propolitician.com,,,,MJ,Grover,4249 Colden Street,,Flushing,New York,11355,United States,Self Employed,XYZ Solutions LLC,my2asquare@gmail.com,(917) 969-7321,,,,,,,,,,,,,,,,,,,,,,,,,Josh Gottheimer for Congress,,,,,,,,,,,,,,,,,Visa,,,,,,,,,,,,,
40031077259,2019-05-13 12:10:58,5000.00,0,0,Josh Gottheimer,http://josh.propolitician.com,,,,,,,,,,,,Manager,Sss,,,,,,,,,,,,,,,,,,,,,,,,,,,Josh Gottheimer for Congress,,,,,,,,,,,,,,,,,Visa,,,,,,,,,,,,,
40031077700,2019-05-13 12:43:43,2800.00,0,0,Josh Gottheimer,http://josh.propolitician.com,,,,Megha,,1234 Street,,Jersey,California,11355,United States,Businessman,ABC LLC,megha@2asquare.com,,,,,,,,,,,,,,,,,,,,,,,,,,Josh Gottheimer for Congress,,,,,,,,,,,,,,,,,Visa,,,,,,,,,,,,,
40031078231,2019-05-13 01:13:18,500.00,0,0,Josh Gottheimer,http://josh.propolitician.com,,,,Cool,Mann,add1,,city,New Brunswick,60688,Canada,occp,emp,cool@gmail.com,9998887770,,,,,,,,,,,,,,,,,,,,,,,,,Josh Gottheimer for Congress,,,,,,,,,,,,,,,,,Visa,,,,,,,,,,,,,
40031078296,2019-05-13 01:14:32,1000.00,0,0,Josh Gottheimer,http://josh.propolitician.com,,,,Cool,Mann,add1,,city,New Brunswick,60688,Canada,occp,emp,cool@gmail.com,9998887770,,,,,,,,,,,,,,,,,,,,,,,,,Josh Gottheimer for Congress,,,,,,,,,,,,,,,,,Visa,,,,,,,,,,,,,
40031078658,2019-05-13 01:32:35,500.00,4,0,Josh Gottheimer,http://josh.propolitician.com,,,,.,.,,,,,,,occ,emp,.,.,,,,,,,,,,,,,,,,,,,,,,,,,Josh Gottheimer for Congress,,,,,,,,,,,,,,,,,Visa,,,,,,,,,,,,,
,2019-05-13 01:32:35,500.00,4,0,Josh Gottheimer,http://josh.propolitician.com,,,,.,.,,,,,,,occ,emp,.,.,,,,,,,,,,,,,,,,,,,,,,,,,Josh Gottheimer for Congress,,,,,,,,,,,,,,,,,Visa,,,,,,,,,,,,,
,2019-05-13 01:32:35,500.00,4,0,Josh Gottheimer,http://josh.propolitician.com,,,,.,.,,,,,,,occ,emp,.,.,,,,,,,,,,,,,,,,,,,,,,,,,Josh Gottheimer for Congress,,,,,,,,,,,,,,,,,Visa,,,,,,,,,,,,,
,2019-05-13 01:32:35,500.00,4,0,Josh Gottheimer,http://josh.propolitician.com,,,,.,.,,,,,,,occ,emp,.,.,,,,,,,,,,,,,,,,,,,,,,,,,Josh Gottheimer for Congress,,,,,,,,,,,,,,,,,Visa,,,,,,,,,,,,,
,2019-05-13 01:32:35,500.00,4,0,Josh Gottheimer,http://josh.propolitician.com,,,,.,.,,,,,,,occ,emp,.,.,,,,,,,,,,,,,,,,,,,,,,,,,Josh Gottheimer for Congress,,,,,,,,,,,,,,,,,Visa,,,,,,,,,,,,,
40031078695,2019-05-13 01:34:46,2800.00,4,0,Josh Gottheimer,http://josh.propolitician.com,,,,.,.,,,,,,,occ,emp,.,.,,,,,,,,,,,,,,,,,,,,,,,,,Josh Gottheimer for Congress,,,,,,,,,,,,,,,,,Visa,,,,,,,,,,,,,
,2019-05-13 01:34:46,2800.00,4,0,Josh Gottheimer,http://josh.propolitician.com,,,,.,.,,,,,,,occ,emp,.,.,,,,,,,,,,,,,,,,,,,,,,,,,Josh Gottheimer for Congress,,,,,,,,,,,,,,,,,Visa,,,,,,,,,,,,,
,2019-05-13 01:34:46,2800.00,4,0,Josh Gottheimer,http://josh.propolitician.com,,,,.,.,,,,,,,occ,emp,.,.,,,,,,,,,,,,,,,,,,,,,,,,,Josh Gottheimer for Congress,,,,,,,,,,,,,,,,,Visa,,,,,,,,,,,,,
,2019-05-13 01:34:46,2800.00,4,0,Josh Gottheimer,http://josh.propolitician.com,,,,.,.,,,,,,,occ,emp,.,.,,,,,,,,,,,,,,,,,,,,,,,,,Josh Gottheimer for Congress,,,,,,,,,,,,,,,,,Visa,,,,,,,,,,,,,
,2019-05-13 01:34:46,2800.00,4,0,Josh Gottheimer,http://josh.propolitician.com,,,,.,.,,,,,,,occ,emp,.,.,,,,,,,,,,,,,,,,,,,,,,,,,Josh Gottheimer for Congress,,,,,,,,,,,,,,,,,Visa,,,,,,,,,,,,,
40031078699,2019-05-13 01:34:51,11200.00,0,0,Josh Gottheimer,http://josh.propolitician.com,,,,Megha,,1234 Street,,Jersey,California,11355,United States,Businessman,ABC LLC,megha@2asquare.com,,,,,,,,,,,,,,,,,,,,,,,,,,Josh Gottheimer for Congress,,,,,,,,,,,,,,,,,Visa,,,,,,,,,,,,,
40031078733,2019-05-13 01:36:42,500.00,4,0,Josh Gottheimer,http://josh.propolitician.com,,,,.,.,,,,,,,occ,yyfug,.,.,,,,,,,,,,,,,,,,,,,,,,,,,Josh Gottheimer for Congress,,,,,,,,,,,,,,,,,Visa,,,,,,,,,,,,,
,2019-05-13 01:36:42,500.00,4,0,Josh Gottheimer,http://josh.propolitician.com,,,,.,.,,,,,,,occ,yyfug,.,.,,,,,,,,,,,,,,,,,,,,,,,,,Josh Gottheimer for Congress,,,,,,,,,,,,,,,,,Visa,,,,,,,,,,,,,
,2019-05-13 01:36:42,500.00,4,0,Josh Gottheimer,http://josh.propolitician.com,,,,.,.,,,,,,,occ,yyfug,.,.,,,,,,,,,,,,,,,,,,,,,,,,,Josh Gottheimer for Congress,,,,,,,,,,,,,,,,,Visa,,,,,,,,,,,,,
,2019-05-13 01:36:42,500.00,4,0,Josh Gottheimer,http://josh.propolitician.com,,,,.,.,,,,,,,occ,yyfug,.,.,,,,,,,,,,,,,,,,,,,,,,,,,Josh Gottheimer for Congress,,,,,,,,,,,,,,,,,Visa,,,,,,,,,,,,,
,2019-05-13 01:36:42,500.00,4,0,Josh Gottheimer,http://josh.propolitician.com,,,,.,.,,,,,,,occ,yyfug,.,.,,,,,,,,,,,,,,,,,,,,,,,,,Josh Gottheimer for Congress,,,,,,,,,,,,,,,,,Visa,,,,,,,,,,,,,
40031078949,2019-05-13 01:48:31,5600.00,0,0,Josh Gottheimer,http://josh.propolitician.com,,,,Kiran,Dhillonukykjg,4249colden street,,Flushing,New York,11355,United States,ns,Q23$hthgg etrtdgbc,Kiran@gmail.com,3123123123,,,,,,,,,,,,,,,,,,,,,,,,,Josh Gottheimer for Congress,,,,,,,,,,,,,,,,,MasterCard,,,,,,,,,,,,,
40031079233,2019-05-13 01:59:53,1000.00,0,0,Josh Gottheimer,http://josh.propolitician.com,,,,Cool,Mann,add1,,city,New Brunswick,60688,Canada,occp,emp,cool@gmail.com,9998887770,,,,,,,,,,,,,,,,,,,,,,,,,Josh Gottheimer for Congress,,,,,,,,,,,,,,,,,Visa,,,,,,,,,,,,,
40031079248,2019-05-13 02:00:35,2800.00,0,0,Josh Gottheimer,http://josh.propolitician.com,,,,Cool,Mann,add1,,city,New Brunswick,60688,Canada,occp,emp,cool@gmail.com,9998887770,,,,,,,,,,,,,,,,,,,,,,,,,Josh Gottheimer for Congress,,,,,,,,,,,,,,,,,Visa,,,,,,,,,,,,,
40031079281,2019-05-13 02:02:08,500.00,0,0,Josh Gottheimer,http://josh.propolitician.com,,,,.,.,,,,,,,occ,enp,.,.,,,,,,,,,,,,,,,,,,,,,,,,,Josh Gottheimer for Congress,,,,,,,,,,,,,,,,,Visa,,,,,,,,,,,,,
40031079332,2019-05-13 02:06:58,5005.00,0,0,Josh Gottheimer,http://josh.propolitician.com,,,,.,.,,,,,,,occ,fgh,.,.,,,,,,,,,,,,,,,,,,,,,,,,,Josh Gottheimer for Congress,,,,,,,,,,,,,,,,,Visa,,,,,,,,,,,,,
60121130465,2019-05-13 10:14:08,5600.00,0,0,Josh Gottheimer,http://josh.propolitician.com,,,,MJ,Grover,4249 Colden Street,,Flushing,New York,11355,United States,Self Employed,XYZ Solutions LLC,my2asquare@gmail.com,(917) 969-7321,,,,,,,,,,,,,,,,,,,,,,,,,Josh Gottheimer for Congress,,,,,,,,,,,,,,,,,Visa,,,,,,,,,,,,,
60121130713,2019-05-13 10:21:08,11200.00,0,0,Josh Gottheimer,http://josh.propolitician.com,,,,MJ,Grover,4249 Colden Street,,Flushing,New York,11355,United States,Self Employed,XYZ Solutions LLC,my2asquare@gmail.com,(917) 969-7321,,,,,,,,,,,,,,,,,,,,,,,,,Josh Gottheimer for Congress,,,,,,,,,,,,,,,,,Visa,,,,,,,,,,,,,
60121130759,2019-05-13 10:22:26,2800.00,0,0,Josh Gottheimer,http://josh.propolitician.com,,,,MJ,Grover,4249 Colden Street,,Flushing,New York,11355,United States,Self Employed,XYZ Solutions LLC,my2asquare@gmail.com,(917) 969-7321,,,,,,,,,,,,,,,,,,,,,,,,,Josh Gottheimer for Congress,,,,,,,,,,,,,,,,,Visa,,,,,,,,,,,,,
