TransactionId,CreateDate,Amount,Status,Occupation,Employer,DonationType
40030081056,5/1/2019 1:17:43 PM,1000.00,Refunded,Business,ABC Inc.,Champion
40030081082,5/1/2019 1:20:35 PM,500.00,Paid,Jfjfgjryr,Ergerfgj,Sponsor
40030081112,5/1/2019 1:23:35 PM,850.00,Paid,Professor,New York University,Other
40030095946,5/1/2019 2:55:53 PM,500.00,Refunded,Self Employed,XYZ Corp,Sponsor
40030096553,5/1/2019 3:34:52 PM,500.00,Refunded,Self Employed,ABC Solutions LLC,Sponsor
40030096786,5/1/2019 3:43:39 PM,500.00,Paid,Service man,Temporary,Sponsor
40030096937,5/1/2019 3:50:19 PM,500.00,Refunded,Self Employed,ABC Solutions LLC,Sponsor
40030098139,5/1/2019 4:35:07 PM,500.00,Refunded,Self Employed,ABC Solutions LLC,Sponsor
40030098165,5/1/2019 4:36:32 PM,5600.00,Refunded,Self Employed,ABC Solutions LLC,Ironman
40030112071,5/2/2019 5:21:58 AM,500.00,Refunded,Doctor,Gg,Sponsor
40030154415,5/2/2019 9:39:50 AM,500.00,Paid,test,baastardeysmksk,Sponsor
40030163451,5/2/2019 12:17:42 PM,500.00,Refunded,Business,MNO Inc,Sponsor
40030163871,5/2/2019 12:48:06 PM,500.00,Refunded,Business,PQR Corporation,Sponsor
40030174657,5/2/2019 8:40:09 PM,500.00,Refunded,Self Employed,ABC Solutions LLC,Sponsor
40030181298,5/3/2019 5:44:07 AM,500.00,Refunded,Rty,Rty,Sponsor
40030181314,5/3/2019 5:46:55 AM,500.00,Refunded,Gsgsg,Ushsh,Sponsor
40030187916,5/3/2019 7:28:38 AM,11200.00,Refunded,bhh,gyh,Olympian
40030232202,5/3/2019 10:55:42 AM,5600.00,Refunded,Bbzbz,Bzbzb,Ironman
40030239904,5/3/2019 5:10:20 PM,500.00,Refunded,Self Employed,ABC Solutions LLC,Sponsor
40030300410,5/4/2019 12:15:16 PM,5600.00,Paid,Teacher,Knge Corp.,Ironman
40030301401,5/4/2019 4:03:12 PM,500.00,Refunded,Self Employed,ABC Solutions LLC,Sponsor
60120690616,5/6/2019 6:24:17 AM,500.00,Refunded,Rtyuuuu,Rtyjhh,Sponsor
60120692980,5/6/2019 7:10:38 AM,2800.00,Refunded,pm ,square,Half-Ironman
60120693660,5/6/2019 7:13:33 AM,2800.00,Refunded,manager,sq,Half-Ironman
60120699655,5/6/2019 7:32:10 AM,1000.00,Paid,guri,dhfg,Champion
60120701435,5/6/2019 7:48:51 AM,500.00,Paid,Service man,Temporary,Other
60120708546,5/6/2019 8:04:57 AM,5600.00,Refunded,Self Employed,XYZ Solutions LLC,Ironman
60120730612,5/6/2019 10:46:35 AM,11200.00,Paid,Iioo,&9980,Olympian
60120734572,5/6/2019 11:10:35 AM,11200.00,Refunded,manager,sdss,Olympian
60120735473,5/6/2019 11:16:09 AM,2800.00,Refunded,Test,Testing gh,Half-Ironman
60120742111,5/6/2019 11:56:33 AM,500.00,Paid,ns,Q23$hthgg etrtdgbc,Sponsor
40030366568,5/6/2019 11:59:38 AM,5600.00,Refunded,Politician,Congress,Ironman
40030370532,5/6/2019 12:35:34 PM,2800.00,Refunded,Rtyuuuu,Rtyjhh,Half-Ironman
40030370537,5/6/2019 12:36:10 PM,5600.00,Refunded,Rtyuuuu,Rtyjhh,Ironman
40030371170,5/6/2019 1:12:03 PM,1600.00,Refunded,Rtyuuuu,Rtyjhh,Other
40030371966,5/6/2019 1:48:58 PM,2800.00,Refunded,Rtyuuuu,Rtyjhh,Half-Ironman
,5/6/2019 1:48:58 PM,2800.00,Skipped,Rtyuuuu,Rtyjhh,Half-Ironman
,5/6/2019 1:48:58 PM,2800.00,Skipped,Rtyuuuu,Rtyjhh,Half-Ironman
,5/6/2019 1:48:58 PM,2800.00,Skipped,Rtyuuuu,Rtyjhh,Half-Ironman
,5/6/2019 1:48:58 PM,2800.00,Scheduled,Rtyuuuu,Rtyjhh,Half-Ironman
40030471888,5/7/2019 10:35:18 AM,500.00,Refunded,test,test,Sponsor
40030484464,5/7/2019 2:32:12 PM,800.00,Refunded,Businessman,ABC LLC,Other
,5/7/2019 2:32:12 PM,800.00,Scheduled,Businessman,ABC LLC,Other
,5/7/2019 2:32:12 PM,800.00,Scheduled,Businessman,ABC LLC,Other
,5/7/2019 2:32:12 PM,800.00,Scheduled,Businessman,ABC LLC,Other
,5/7/2019 2:32:12 PM,800.00,Scheduled,Businessman,ABC LLC,Other
40030486193,5/7/2019 2:58:58 PM,500.00,Refunded,Self Employed,XYZ Solutions LLC,Sponsor
40030543772,5/8/2019 4:47:41 AM,11200.00,Paid,Rtyuuuu,Rtyjhh,Olympian
40030543781,5/8/2019 4:48:02 AM,11200.00,Refunded,Rtyuuuu,Rtyjhh,Olympian
,5/8/2019 4:48:02 AM,11200.00,Scheduled,Rtyuuuu,Rtyjhh,Olympian
,5/8/2019 4:48:02 AM,11200.00,Scheduled,Rtyuuuu,Rtyjhh,Olympian
,5/8/2019 4:48:02 AM,11200.00,Scheduled,Rtyuuuu,Rtyjhh,Olympian
,5/8/2019 4:48:02 AM,11200.00,Scheduled,Rtyuuuu,Rtyjhh,Olympian
40030553030,5/8/2019 7:23:49 AM,11200.00,Refunded,Rtyuuuu,Rtyjhh,Olympian
,5/8/2019 7:23:49 AM,11200.00,Stopped,Rtyuuuu,Rtyjhh,Olympian
,5/8/2019 7:23:49 AM,11200.00,Stopped,Rtyuuuu,Rtyjhh,Olympian
,5/8/2019 7:23:49 AM,11200.00,Stopped,Rtyuuuu,Rtyjhh,Olympian
,5/8/2019 7:23:49 AM,11200.00,Stopped,Rtyuuuu,Rtyjhh,Olympian
40030647851,5/9/2019 5:22:07 AM,500.00,Paid,Politician,Congress,Sponsor
40030647855,5/9/2019 5:22:23 AM,11200.00,Paid,Politician,Congress,Olympian
40030647914,5/9/2019 5:27:53 AM,5600.00,Paid,Politician,Congress,Ironman
,5/9/2019 5:27:53 AM,5600.00,Stopped,Politician,Congress,Ironman
,5/9/2019 5:27:53 AM,5600.00,Stopped,Politician,Congress,Ironman
,5/9/2019 5:27:53 AM,5600.00,Skipped,Politician,Congress,Ironman
,5/9/2019 5:27:53 AM,5600.00,Stopped,Politician,Congress,Ironman
40030647961,5/9/2019 5:32:26 AM,11200.00,Paid,Politician,Congress,Olympian
,5/9/2019 5:32:26 AM,11200.00,Stopped,Politician,Congress,Olympian
,5/9/2019 5:32:26 AM,11200.00,Stopped,Politician,Congress,Olympian
,5/9/2019 5:32:26 AM,11200.00,Stopped,Politician,Congress,Olympian
,5/9/2019 5:32:26 AM,11200.00,Skipped,Politician,Congress,Olympian
,5/9/2019 5:43:38 AM,11200.00,Refunded,Politician,Congress,Olympian
,5/9/2019 5:46:18 AM,500.00,Refunded,Politician,Congress,Ironman
,5/9/2019 5:46:51 AM,500.00,Refunded,Politician,Congress,Ironman
,5/9/2019 5:47:51 AM,600.00,Refunded,Politician,Congress,Ironman
,5/9/2019 5:49:32 AM,600.00,Refunded,Politician,Congress,Ironman
,5/9/2019 5:54:23 AM,600.00,Refunded,Politician,Congress,Ironman
,5/9/2019 5:56:36 AM,500.00,Refunded,Politician,Congress,Sponsor
40030648410,5/9/2019 5:58:21 AM,2800.00,Paid,Politician,Congress,Half-Ironman
,5/9/2019 5:58:21 AM,2800.00,Stopped,Politician,Congress,Half-Ironman
,5/9/2019 5:58:21 AM,2800.00,Stopped,Politician,Congress,Half-Ironman
,5/9/2019 5:58:21 AM,2800.00,Stopped,Politician,Congress,Half-Ironman
,5/9/2019 5:58:21 AM,2800.00,Stopped,Politician,Congress,Half-Ironman
,5/9/2019 6:26:08 AM,500.00,Refunded,Politician,Congress,Sponsor
,5/9/2019 6:44:58 AM,500.00,1,Politician,Congress,Sponsor
,5/9/2019 6:48:46 AM,500.00,1,Politician,Congress,Sponsor
,5/9/2019 7:02:09 AM,11200.00,Full Refund,Politician,Congress,Olympian
,5/9/2019 7:08:47 AM,5600.00,Full Refund,Politician,Congress,Ironman
40030651392,5/9/2019 7:16:56 AM,1.00,Paid,Rtyuuuu,Rtyjhh,Other
40030703486,5/9/2019 9:48:19 AM,1451.00,Paid,Politician,Congress,Other
,5/9/2019 10:11:34 AM,500.00,Refunded,Politician,Congress,Other
40030707228,5/9/2019 10:28:23 AM,1000.55,Paid,Politician,Congress,Other
,5/9/2019 10:28:23 AM,1000.55,Stopped,Politician,Congress,Other
,5/9/2019 10:28:23 AM,1000.55,Stopped,Politician,Congress,Other
,5/9/2019 10:28:23 AM,1000.55,Stopped,Politician,Congress,Other
,5/9/2019 10:28:23 AM,1000.55,Stopped,Politician,Congress,Other
40030707443,5/9/2019 10:46:55 AM,5600.00,Paid,Politician,Congress,Ironman
,5/9/2019 10:46:55 AM,5600.00,Stopped,Politician,Congress,Ironman
,5/9/2019 10:46:55 AM,5600.00,Stopped,Politician,Congress,Ironman
,5/9/2019 10:46:55 AM,5600.00,Stopped,Politician,Congress,Ironman
,5/9/2019 10:46:55 AM,5600.00,Stopped,Politician,Congress,Ironman
,5/9/2019 10:49:54 AM,600.00,Refunded,Politician,Congress,Ironman
40030707727,5/9/2019 11:04:46 AM,500.00,Paid,Politician,Congress,Sponsor
,5/9/2019 11:04:46 AM,500.00,Stopped,Politician,Congress,Sponsor
,5/9/2019 11:04:46 AM,500.00,Stopped,Politician,Congress,Sponsor
,5/9/2019 11:04:46 AM,500.00,Stopped,Politician,Congress,Sponsor
,5/9/2019 11:04:46 AM,500.00,Stopped,Politician,Congress,Sponsor
40030707866,5/9/2019 11:10:55 AM,500.00,Paid,Politician,Congress,Sponsor
,5/9/2019 11:10:55 AM,500.00,Stopped,Politician,Congress,Sponsor
,5/9/2019 11:10:55 AM,500.00,Stopped,Politician,Congress,Sponsor
,5/9/2019 11:10:55 AM,500.00,Stopped,Politician,Congress,Sponsor
,5/9/2019 11:10:55 AM,500.00,Stopped,Politician,Congress,Sponsor
40030707938,5/9/2019 11:13:19 AM,5001.00,Paid,Rtyuuuu,Rtyjhh,Other
,5/9/2019 11:13:19 AM,5001.00,Stopped,Rtyuuuu,Rtyjhh,Other
,5/9/2019 11:13:19 AM,5001.00,Stopped,Rtyuuuu,Rtyjhh,Other
,5/9/2019 11:13:19 AM,5001.00,Stopped,Rtyuuuu,Rtyjhh,Other
,5/9/2019 11:13:19 AM,5001.00,Stopped,Rtyuuuu,Rtyjhh,Other
40030708179,5/9/2019 11:27:47 AM,500.00,Paid,Politician,Congress,Sponsor
,5/9/2019 11:27:47 AM,500.00,Stopped,Politician,Congress,Sponsor
,5/9/2019 11:27:47 AM,500.00,Stopped,Politician,Congress,Sponsor
,5/9/2019 11:27:47 AM,500.00,Stopped,Politician,Congress,Sponsor
,5/9/2019 11:27:47 AM,500.00,Stopped,Politician,Congress,Sponsor
40030708776,5/9/2019 12:19:35 PM,500.00,Paid,Politician,Congress,Sponsor
,5/9/2019 12:19:35 PM,500.00,Stopped,Politician,Congress,Sponsor
,5/9/2019 12:19:35 PM,500.00,Stopped,Politician,Congress,Sponsor
,5/9/2019 12:19:35 PM,500.00,Stopped,Politician,Congress,Sponsor
,5/9/2019 12:19:35 PM,500.00,Stopped,Politician,Congress,Sponsor
40030708932,5/9/2019 12:27:05 PM,5600.00,Paid,Politician,Congress,Ironman
,5/9/2019 12:27:05 PM,5600.00,Stopped,Politician,Congress,Ironman
,5/9/2019 12:27:05 PM,5600.00,Stopped,Politician,Congress,Ironman
,5/9/2019 12:27:05 PM,5600.00,Stopped,Politician,Congress,Ironman
,5/9/2019 12:27:05 PM,5600.00,Stopped,Politician,Congress,Ironman
40030709048,5/9/2019 12:37:07 PM,1000.00,Paid,Businesswoman,Google Inc.,Champion
40030709085,5/9/2019 12:40:11 PM,500.00,Paid,Politician,Congress,Sponsor
,5/9/2019 12:40:11 PM,500.00,Stopped,Politician,Congress,Sponsor
,5/9/2019 12:40:11 PM,500.00,Stopped,Politician,Congress,Sponsor
,5/9/2019 12:40:11 PM,500.00,Stopped,Politician,Congress,Sponsor
,5/9/2019 12:40:11 PM,500.00,Stopped,Politician,Congress,Sponsor
40030709152,5/9/2019 12:44:05 PM,500.00,Paid,Politician,Congress,Sponsor
,5/9/2019 12:44:05 PM,500.00,Stopped,Politician,Congress,Sponsor
,5/9/2019 12:44:05 PM,500.00,Stopped,Politician,Congress,Sponsor
,5/9/2019 12:44:05 PM,500.00,Stopped,Politician,Congress,Sponsor
,5/9/2019 12:44:05 PM,500.00,Stopped,Politician,Congress,Sponsor
,5/9/2019 12:54:33 PM,1000.00,Refunded,Businesswoman,Google Inc.,Champion
,5/9/2019 1:29:09 PM,500.00,Refunded,Businesswoman,Google Inc.,Champion
,5/9/2019 1:29:17 PM,500.00,Refunded,Businesswoman,Google Inc.,Champion
,5/9/2019 1:29:50 PM,1000.00,Refunded,Businesswoman,Google Inc.,Champion
40030710308,5/9/2019 1:43:01 PM,500.00,Refunded,Jfjfgjryr,Ergerfgj,Sponsor
,5/9/2019 1:57:12 PM,1000.00,Refunded,Businesswoman,Google Inc.,Champion
40030718520,5/9/2019 8:07:21 PM,2800.00,Paid,Self Employed,XYZ Solutions LLC,Half-Ironman
40030719017,5/9/2019 8:24:16 PM,11200.00,Paid,Self Employed,XYZ Solutions LLC,Olympian
40030725715,5/10/2019 6:13:02 AM,2800.00,Paid,Politician,Congress,Half-Ironman
,5/10/2019 6:13:02 AM,2800.00,Stopped,Politician,Congress,Half-Ironman
,5/10/2019 6:13:02 AM,2800.00,Stopped,Politician,Congress,Half-Ironman
,5/10/2019 6:13:02 AM,2800.00,Stopped,Politician,Congress,Half-Ironman
,5/10/2019 6:13:02 AM,2800.00,Stopped,Politician,Congress,Half-Ironman
40030725731,5/10/2019 6:16:43 AM,5600.00,Paid,Politician,Congress,Ironman
,5/10/2019 6:16:43 AM,5600.00,Scheduled,Politician,Congress,Ironman
,5/10/2019 6:16:43 AM,5600.00,Scheduled,Politician,Congress,Ironman
,5/10/2019 6:16:43 AM,5600.00,Scheduled,Politician,Congress,Ironman
,5/10/2019 6:16:43 AM,5600.00,Scheduled,Politician,Congress,Ironman
