Receipt ID,Date,Amount,Recurring Total Months,Recurrence Number,Recipient,Fundraising Page,Fundraising Partner,Reference Code 2,Reference Code,Donor First Name,Donor Last Name,Donor Addr1,Donor Addr2,Donor City,Donor State,Donor ZIP,Donor Country,Donor Occupation,Donor Employer,Donor Email,Donor Phone,New Express Signup,Comments,Check Number,Check Date,Employer Addr1,Employer Addr2,Employer City,Employer State,Employer ZIP,Employer Country,Donor ID,Fundraiser ID,Fundraiser Recipient ID,Fundraiser Contact Email,Fundraiser Contact First Name,Fundraiser Contact Last Name,Partner ID,Partner Contact Email,Partner Contact First Name,Partner Contact Last Name,Reserved,Lineitem ID,AB Test Name,AB Variation,Recipient Committee,Recipient ID,Recipient Gov ID,Recipient Election,Reserved,Payment ID,Payment Date,Disbursement ID,Disbursement Date,Recovery ID,Recovery Date,Refund ID,Refund Date,Fee,Recur Weekly,ActBlue Express Lane,Reserved,Card Type,Reserved,Reserved,Reserved,Reserved,Mobile,Recurring Upsell Shown,Recurring Upsell Succeeded,Double Down,Smart Recurring,Monthly Recurring Amount,Apple Pay,Card Replaced by Account Updater,ActBlue Express Donor
40031518156,2019-05-20 07:50:09,500.00,0,0,Josh Gottheimer,http://josh.propolitician.com,,,,,,,,,,,,Manager,Google,,,,,,,,,,,,,,,,,,,,,,,,,,,Josh Gottheimer for Congress,,,,,,,,,,,,,,,,,Visa,,,,,,,,,,,,,
40031518185,2019-05-20 07:52:48,1000.00,1,0,Josh Gottheimer,http://josh.propolitician.com,,,,,,,,,,,,Ceo,Msd,,,,,,,,,,,,,,,,,,,,,,,,,,,Josh Gottheimer for Congress,,,,,,,,,,,,,,,,,Visa,,,,,,,,,,,,,
40031554512,2019-05-20 10:59:12,5600.00,0,0,Josh Gottheimer,http://josh.propolitician.com,,,,,,,,,,,,occ,jghjkg,,,,,,,,,,,,,,,,,,,,,,,,,,,Josh Gottheimer for Congress,,,,,,,,,,,,,,,,,Visa,,,,,,,,,,,,,
40031555325,2019-05-20 11:02:56,5600.00,0,0,Josh Gottheimer,http://josh.propolitician.com,,,,Lizza,,VV,,Gah,Aberdeen,99999,United Kingdom,business,Apple,Methewanrik@gmail.com,,,,,,,,,,,,,,,,,,,,,,,,,,Josh Gottheimer for Congress,,,,,,,,,,,,,,,,,Visa,,,,,,,,,,,,,
40031556055,2019-05-20 11:06:22,5600.00,0,0,Josh Gottheimer,http://josh.propolitician.com,,,,,,,,,,,,business ,Apple,,,,,,,,,,,,,,,,,,,,,,,,,,,Josh Gottheimer for Congress,,,,,,,,,,,,,,,,,Visa,,,,,,,,,,,,,
40031565793,2019-05-20 11:52:36,5600.00,0,0,Josh Gottheimer,http://josh.propolitician.com,,,,,,,,,,,,occ,emp,,,,,,,,,,,,,,,,,,,,,,,,,,,Josh Gottheimer for Congress,,,,,,,,,,,,,,,,,Visa,,,,,,,,,,,,,
40031569576,2019-05-20 12:06:38,500.00,0,0,Josh Gottheimer,http://josh.propolitician.com,,,,,,,,,,,,occ,emp,,,,,,,,,,,,,,,,,,,,,,,,,,,Josh Gottheimer for Congress,,,,,,,,,,,,,,,,,Visa,,,,,,,,,,,,,
40031574760,2019-05-20 12:26:10,5600.00,0,0,Josh Gottheimer,http://josh.propolitician.com,,,,Lizza,,VV,,Gah,Aberdeen,99999,United Kingdom,Tester,Testing,Methewanrik@gmail.com,,,,,,,,,,,,,,,,,,,,,,,,,,Josh Gottheimer for Congress,,,,,,,,,,,,,,,,,Visa,,,,,,,,,,,,,
40031635001,2019-05-21 05:56:43,5006.00,0,0,Josh Gottheimer,http://josh.propolitician.com,,,,Lizza,,VV,,Gah,Aberdeen,99999,United Kingdom,Doctor,2a hospital,Methewanrik@gmail.com,,,,,,,,,,,,,,,,,,,,,,,,,,Josh Gottheimer for Congress,,,,,,,,,,,,,,,,,Visa,,,,,,,,,,,,,
40031638529,2019-05-21 07:16:39,2800.00,1,0,Josh Gottheimer,http://josh.propolitician.com,,,,,,,,,,,,Manager,Apple,,,,,,,,,,,,,,,,,,,,,,,,,,,Josh Gottheimer for Congress,,,,,,,,,,,,,,,,,Visa,,,,,,,,,,,,,
40031697539,2019-05-21 11:19:42,500.00,0,0,Josh Gottheimer,http://josh.propolitician.com,,,,,,,,,,,,Tester,2asquare,,,,,,,,,,,,,,,,,,,,,,,,,,,Josh Gottheimer for Congress,,,,,,,,,,,,,,,,,Visa,,,,,,,,,,,,,
40031698772,2019-05-21 12:11:20,500.00,0,0,Josh Gottheimer,http://josh.propolitician.com,,,,,,,,,,,,tester,2asquare,,,,,,,,,,,,,,,,,,,,,,,,,,,Josh Gottheimer for Congress,,,,,,,,,,,,,,,,,Visa,,,,,,,,,,,,,
40031701865,2019-05-21 02:00:18,2800.00,1,0,Josh Gottheimer,http://josh.propolitician.com,,,,,,,,,,,,manager,Apple Inc.,,,,,,,,,,,,,,,,,,,,,,,,,,,Josh Gottheimer for Congress,,,,,,,,,,,,,,,,,Visa,,,,,,,,,,,,,
40031753810,2019-05-22 05:31:22,2800.00,0,0,Josh Gottheimer,http://josh.propolitician.com,,,,Tim,,Haha,,Gahah,Alabama,56277,United States,Tester,Vv,1tim@gmail.com,,,,,,,,,,,,,,,,,,,,,,,,,,Josh Gottheimer for Congress,,,,,,,,,,,,,,,,,Visa,,,,,,,,,,,,,
40031755060,2019-05-22 06:07:10,5000.00,0,0,Josh Gottheimer,http://josh.propolitician.com,,,,Andrew,,Abc valley stream,,Newark,Alabama,74901,United States,Tester,2asquare,andrewlose001@gmail.com,,,,,,,,,,,,,,,,,,,,,,,,,,Josh Gottheimer for Congress,,,,,,,,,,,,,,,,,Visa,,,,,,,,,,,,,
40031775951,2019-05-22 10:18:07,11200.00,1,0,Josh Gottheimer,http://josh.propolitician.com,,,,,,,,,,,,,,,,,,,,,,,,,,,,,,,,,,,,,,,,Josh Gottheimer for Congress,,,,,,,,,,,,,,,,,Visa,,,,,,,,,,,,,
40031776058,2019-05-22 10:24:33,11200.00,4,0,Josh Gottheimer,http://josh.propolitician.com,,,,,,,,,,,,,,,,,,,,,,,,,,,,,,,,,,,,,,,,Josh Gottheimer for Congress,,,,,,,,,,,,,,,,,Visa,,,,,,,,,,,,,
40031776494,2019-05-22 10:42:29,2800.00,0,0,Josh Gottheimer,http://josh.propolitician.com,,,,,,,,,,,,gg,gsgsg,,,,,,,,,,,,,,,,,,,,,,,,,,,Josh Gottheimer for Congress,,,,,,,,,,,,,,,,,Visa,,,,,,,,,,,,,
40031779201,2019-05-22 12:49:51,500.00,4,0,Josh Gottheimer,http://josh.propolitician.com,,,,,,,,,,,,,,,,,,,,,,,,,,,,,,,,,,,,,,,,Josh Gottheimer for Congress,,,,,,,,,,,,,,,,,Visa,,,,,,,,,,,,,
40031779507,2019-05-22 01:00:42,500.00,4,0,Josh Gottheimer,http://josh.propolitician.com,,,,,,,,,,,,,,,,,,,,,,,,,,,,,,,,,,,,,,,,Josh Gottheimer for Congress,,,,,,,,,,,,,,,,,Visa,,,,,,,,,,,,,
40031780258,2019-05-22 01:21:09,500.00,4,0,Josh Gottheimer,http://josh.propolitician.com,,,,,,,,,,,,,,,,,,,,,,,,,,,,,,,,,,,,,,,,Josh Gottheimer for Congress,,,,,,,,,,,,,,,,,Visa,,,,,,,,,,,,,
40031821027,2019-05-23 06:53:41,500.00,0,0,Josh Gottheimer,http://josh.propolitician.com,,,,,,,,,,,,Hh,Vbb,,,,,,,,,,,,,,,,,,,,,,,,,,,Josh Gottheimer for Congress,,,,,,,,,,,,,,,,,Visa,,,,,,,,,,,,,
