Receipt ID,Date,Amount,Recurring Total Months,Recurrence Number,Recipient,Fundraising Page,Fundraising Partner,Reference Code 2,Reference Code,Donor First Name,Donor Last Name,Donor Addr1,Donor Addr2,Donor City,Donor State,Donor ZIP,Donor Country,Donor Occupation,Donor Employer,Donor Email,Donor Phone,New Express Signup,Comments,Check Number,Check Date,Employer Addr1,Employer Addr2,Employer City,Employer State,Employer ZIP,Employer Country,Donor ID,Fundraiser ID,Fundraiser Recipient ID,Fundraiser Contact Email,Fundraiser Contact First Name,Fundraiser Contact Last Name,Partner ID,Partner Contact Email,Partner Contact First Name,Partner Contact Last Name,Reserved,Lineitem ID,AB Test Name,AB Variation,Recipient Committee,Recipient ID,Recipient Gov ID,Recipient Election,Reserved,Payment ID,Payment Date,Disbursement ID,Disbursement Date,Recovery ID,Recovery Date,Refund ID,Refund Date,Fee,Recur Weekly,ActBlue Express Lane,Reserved,Card Type,Reserved,Reserved,Reserved,Reserved,Mobile,Recurring Upsell Shown,Recurring Upsell Succeeded,Double Down,Smart Recurring,Monthly Recurring Amount,Apple Pay,Card Replaced by Account Updater,ActBlue Express Donor
40031258720,2019-05-15 03:06:20,5600.00,0,0,Josh Gottheimer,http://josh.propolitician.com,,,,,,,,,,,,Business Analyst,Google Inc.,,,,,,,,,,,,,,,,,,,,,,,,,,,Josh Gottheimer for Congress,,,,,,,,,,,,,,,,,Visa,,,,,,,,,,,,,
40031258878,2019-05-15 03:13:20,5600.00,0,0,Josh Gottheimer,http://josh.propolitician.com,,,,John,Smith,2400 London Rd,,Duluth,Minnesota,55812,United States,Quality Analyst,Facebook,smithj@propolitician.com,8521346790,,,,,,,,,,,,,,,,,,,,,,,,,Josh Gottheimer for Congress,,,,,,,,,,,,,,,,,Visa,,,,,,,,,,,,,
40031258939,2019-05-15 03:16:32,1000.00,0,0,Josh Gottheimer,http://josh.propolitician.com,,,,,,,,,,,,Project Manager,Apple Inc.,,,,,,,,,,,,,,,,,,,,,,,,,,,Josh Gottheimer for Congress,,,,,,,,,,,,,,,,,Visa,,,,,,,,,,,,,
40031259036,2019-05-15 03:23:30,2800.00,4,0,Josh Gottheimer,http://josh.propolitician.com,,,,,,,,,,,,App Developer,Google Inc.,,,,,,,,,,,,,,,,,,,,,,,,,,,Josh Gottheimer for Congress,,,,,,,,,,,,,,,,,Visa,,,,,,,,,,,,,
40031259361,2019-05-15 03:35:32,1000.00,0,0,Josh Gottheimer,http://josh.propolitician.com,,,,Stella,paul,979 drummond street,,Newark,New Jersey,07102,United States,Business analyst,Google inc.,stella@propolitician.com,,,,,,,,,,,,,,,,,,,,,,,,,,Josh Gottheimer for Congress,,,,,,,,,,,,,,,,,Visa,,,,,,,,,,,,,
40031259834,2019-05-15 03:50:06,1000.00,4,0,Josh Gottheimer,http://josh.propolitician.com,,,,Stella,paul,979 drummond street,,Newark,New Jersey,07102,United States,Buisness analyst,Google inc.,stella@propolitician.com,,,,,,,,,,,,,,,,,,,,,,,,,,Josh Gottheimer for Congress,,,,,,,,,,,,,,,,,Visa,,,,,,,,,,,,,
40031260848,2019-05-15 04:36:27,5600.00,0,0,Josh Gottheimer,http://josh.propolitician.com,,,,,,,,,,,,Business owner,Self,,,,,,,,,,,,,,,,,,,,,,,,,,,Josh Gottheimer for Congress,,,,,,,,,,,,,,,,,Visa,,,,,,,,,,,,,
40031550788,2019-05-20 10:44:43,5600.00,4,0,Josh Gottheimer,http://josh.propolitician.com,,,,.,.,,,,,,,Mobile App Developer,Google Inc.,.,.,,,,,,,,,,,,,,,,,,,,,,,,,Josh Gottheimer for Congress,,,,,,,,,,,,,,,,,Visa,,,,,,,,,,,,,
40031552943,2019-05-20 10:52:57,5600.00,4,0,Josh Gottheimer,http://josh.propolitician.com,,,,.,.,,,,,,,Mobile App Tester,Facebook,.,.,,,,,,,,,,,,,,,,,,,,,,,,,Josh Gottheimer for Congress,,,,,,,,,,,,,,,,,Visa,,,,,,,,,,,,,
40031553461,2019-05-20 10:55:10,5600.00,4,0,Josh Gottheimer,http://josh.propolitician.com,,,,.,.,,,,,,,Businesswoman,Apple Inc.,.,.,,,,,,,,,,,,,,,,,,,,,,,,,Josh Gottheimer for Congress,,,,,,,,,,,,,,,,,Visa,,,,,,,,,,,,,
