Receipt ID,Date,Amount,Recurring Total Months,Recurrence Number,Recipient,Fundraising Page,Fundraising Partner,Reference Code 2,Reference Code,Donor First Name,Donor Last Name,Donor Addr1,Donor Addr2,Donor City,Donor State,Donor ZIP,Donor Country,Donor Occupation,Donor Employer,Donor Email,Donor Phone,New Express Signup,Comments,Check Number,Check Date,Employer Addr1,Employer Addr2,Employer City,Employer State,Employer ZIP,Employer Country,Donor ID,Fundraiser ID,Fundraiser Recipient ID,Fundraiser Contact Email,Fundraiser Contact First Name,Fundraiser Contact Last Name,Partner ID,Partner Contact Email,Partner Contact First Name,Partner Contact Last Name,Reserved,Lineitem ID,AB Test Name,AB Variation,Recipient Committee,Recipient ID,Recipient Gov ID,Recipient Election,Reserved,Payment ID,Payment Date,Disbursement ID,Disbursement Date,Recovery ID,Recovery Date,Refund ID,Refund Date,Fee,Recur Weekly,ActBlue Express Lane,Reserved,Card Type,Reserved,Reserved,Reserved,Reserved,Mobile,Recurring Upsell Shown,Recurring Upsell Succeeded,Double Down,Smart Recurring,Monthly Recurring Amount,Apple Pay,Card Replaced by Account Updater,ActBlue Express Donor
40032957705,2019-06-06 02:22:13,500.00,0,0,Josh Gottheimer,http://josh.kepleredge.com,,,,,,87 street,,jersey,New Jersey,,United States,Analyst,Apple Inc,,,,,,,,,,,,,,,,,,,,,,,,,,,Josh Gottheimer for Congress,,,,,,,,,,,,,,,,,Visa,,,,,,,,,,,,,
40032957749,2019-06-06 02:23:42,5600.00,1,0,Josh Gottheimer,http://josh.kepleredge.com,,,,,,34 street,,jersey,New Jersey,,United States,self employee,business,,,,,,,,,,,,,,,,,,,,,,,,,,,Josh Gottheimer for Congress,,,,,,,,,,,,,,,,,Visa,,,,,,,,,,,,,
