Receipt ID,Date,Amount,Recurring Total Months,Recurrence Number,Recipient,Fundraising Page,Fundraising Partner,Reference Code 2,Reference Code,Donor First Name,Donor Last Name,Donor Addr1,Donor Addr2,Donor City,Donor State,Donor ZIP,Donor Country,Donor Occupation,Donor Employer,Donor Email,Donor Phone,New Express Signup,Comments,Check Number,Check Date,Employer Addr1,Employer Addr2,Employer City,Employer State,Employer ZIP,Employer Country,Donor ID,Fundraiser ID,Fundraiser Recipient ID,Fundraiser Contact Email,Fundraiser Contact First Name,Fundraiser Contact Last Name,Partner ID,Partner Contact Email,Partner Contact First Name,Partner Contact Last Name,Reserved,Lineitem ID,AB Test Name,AB Variation,Recipient Committee,Recipient ID,Recipient Gov ID,Recipient Election,Reserved1,Payment ID,Payment Date,Disbursement ID,Disbursement Date,Recovery ID,Recovery Date,Refund ID,Refund Date,Fee,Recur Weekly,ActBlue Express Lane,Reserved2,Card Type,Reserved3,Reserved4,Reserved5,Reserved6,Mobile,Recurring Upsell Shown,Recurring Upsell Succeeded,Double Down,Smart Recurring,Monthly Recurring Amount,Apple Pay,Card Replaced by Account Updater,ActBlue Express Donor
62411406962,2020-06-18 12:08:51,25.00,0,0,Josh Gottheimer,http://josh.kepleredge.com,,,,SashaFrankStempel,,2638 Colston Drive,,ChevyChase,Maryland,20815,United States,Student,Student,sashafstempel@gmail.com,,,,,,,,,,,,540,,,,,,,,,,,,,,Josh Gottheimer for Congress,,,,,90676,6/18/2020 12:08:51 AM,,,,,,,,,,,Visa,,,,,,,,,,0.00,,,
62411446983,2020-06-18 12:48:36,18.00,0,0,Josh Gottheimer,http://josh.kepleredge.com,,,,CHARLES,WOLFE ,59 Winterset Lane,,SIMSBURY,Connecticut,6070,United States,Own Leadership Consulting Firm,Self employed,CJWOLFE@CJWOLFE.COM,,,,,,,,,,,,541,,,,,,,,,,,,,,Josh Gottheimer for Congress,,,,,90677,6/18/2020 12:48:36 AM,,,,,,,,,,,Visa,,,,,,,,,,0.00,,,
62411800618,2020-06-18 02:09:49,2800.00,0,0,Josh Gottheimer,http://josh.kepleredge.com,,,,TerrieFBloom,,11 Albion Rd,,Wellesley,Massachusetts,02481,United States,Business,I-Concepts LLC,Brad1953@gmail.com,,,,,,,,,,,,543,,,,,,,,,,,,,,Josh Gottheimer for Congress,,,,,90678,6/18/2020 2:09:49 PM,,,,,,,,,,,Visa,,,,,,,,,,0.00,,,
62411800677,2020-06-18 02:09:52,2800.00,0,0,Josh Gottheimer,http://josh.kepleredge.com,,,,TerrieFBloom,,11 Albion Rd,,Wellesley,Massachusetts,02481,United States,Business,I-Concepts LLC,Brad1953@gmail.com,,,,,,,,,,,,545,,,,,,,,,,,,,,Josh Gottheimer for Congress,,,,,90679,6/18/2020 2:09:52 PM,,,,,,,,,,,Visa,,,,,,,,,,0.00,,,
62411946838,2020-06-18 03:24:24,2800.00,0,0,Josh Gottheimer,http://josh.kepleredge.com,,,,ThomasMorrison,,345 park ave,,newyork,New York,10023,United States,Investsments,Blackstone,thomas.morrison@blackstone.com,,,,,,,,,,,,546,,,,,,,,,,,,,,Josh Gottheimer for Congress,,,,,90680,6/18/2020 3:24:24 PM,,,,,,,,,,,Visa,,,,,,,,,,0.00,,,
62412495026,2020-06-18 08:12:38,1000.00,0,0,Josh Gottheimer,http://josh.kepleredge.com,,,,David,Fischer ,PO Box 19440,,Avon,Colorado,81620-,United States,VP,Facebook,david.fischer@gmail.com,,,,,,,,,,,,547,,,,,,,,,,,,,,Josh Gottheimer for Congress,,,,,90681,6/18/2020 8:12:38 PM,,,,,,,,,,,Visa,,,,,,,,,,0.00,,,
