Receipt ID,Date,Amount,Recurring Total Months,Recurrence Number,Recipient,Fundraising Page,Fundraising Partner,Reference Code 2,Reference Code,Donor First Name,Donor Last Name,Donor Addr1,Donor Addr2,Donor City,Donor State,Donor ZIP,Donor Country,Donor Occupation,Donor Employer,Donor Email,Donor Phone,New Express Signup,Comments,Check Number,Check Date,Employer Addr1,Employer Addr2,Employer City,Employer State,Employer ZIP,Employer Country,Donor ID,Fundraiser ID,Fundraiser Recipient ID,Fundraiser Contact Email,Fundraiser Contact First Name,Fundraiser Contact Last Name,Partner ID,Partner Contact Email,Partner Contact First Name,Partner Contact Last Name,Reserved,Lineitem ID,AB Test Name,AB Variation,Recipient Committee,Recipient ID,Recipient Gov ID,Recipient Election,Reserved1,Payment ID,Payment Date,Disbursement ID,Disbursement Date,Recovery ID,Recovery Date,Refund ID,Refund Date,Fee,Recur Weekly,ActBlue Express Lane,Reserved2,Card Type,Reserved3,Reserved4,Reserved5,Reserved6,Mobile,Recurring Upsell Shown,Recurring Upsell Succeeded,Double Down,Smart Recurring,Monthly Recurring Amount,Apple Pay,Card Replaced by Account Updater,ActBlue Express Donor
62386792452,2020-06-03 05:38:43,5000.00,0,0,Josh Gottheimer,http://josh.kepleredge.com,,,,MiltonCooper,,6 Red Ground Road,,Old Westbury,New York,11568,United States,Executive,Kimco Realty,mcooper@kimcorealty.com,,,,,,,,,,,,500,,,,,,,,,,,,,,Josh Gottheimer for Congress,,,,,90637,6/3/2020 5:38:43 PM,,,,,,,,,,,Visa,,,,,,,,,,0.00,,,
62386961552,2020-06-03 07:04:26,2800.00,0,0,Josh Gottheimer,http://josh.kepleredge.com,,,,MarkWilf,,820 Morris Turnpike,,ShortHills,New Jersey,07078,United States,Real Estate,Garden Homes,markw@gardenhomes.com,,,,,,,,,,,,501,,,,,,,,,,,,,,Josh Gottheimer for Congress,,,,,90638,6/3/2020 7:04:26 PM,,,,,,,,,,,Visa,,,,,,,,,,0.00,,,
62387429034,2020-06-03 11:52:38,25.00,0,0,Josh Gottheimer,http://josh.kepleredge.com,,,,Mark,mishkin ,949 N 33rd st,,Allentown ,Pennsylvania,18104,United States,Physician ,Self ,Mhmishkin@gmail.com,,,,,,,,,,,,502,,,,,,,,,,,,,,Josh Gottheimer for Congress,,,,,90639,6/3/2020 11:52:38 PM,,,,,,,,,,,Visa,,,,,,,,,,0.00,,,
62390067698,2020-06-05 03:42:48,500.00,0,0,Josh Gottheimer,http://josh.kepleredge.com,,,,Jonathan,Risch ,5321 Pine St,,Bellaire,Texas,77401,United States,CEO,DPIS Builder Services,jonathan_risch@yahoo.com,,,,,,,,,,,,503,,,,,,,,,,,,,,Josh Gottheimer for Congress,,,,,90640,6/5/2020 3:42:48 PM,,,,,,,,,,,Visa,,,,,,,,,,0.00,,,
62392135413,2020-06-06 07:12:13,50.00,0,0,Josh Gottheimer,http://josh.kepleredge.com,,,,Lesley,Heller ,"150 West End Ave,",Apt 9C,New York,New York,10023,United States,violinist,Met Opera,lesleyheller150@yahoo.com,,,,,,,,,,,,504,,,,,,,,,,,,,,Josh Gottheimer for Congress,,,,,90641,6/6/2020 7:12:13 PM,,,,,,,,,,,Visa,,,,,,,,,,0.00,,,
62393165529,2020-06-07 07:56:42,2800.00,0,0,Josh Gottheimer,http://josh.kepleredge.com,,,,Jonathan,Kanter ,5103 Wehawken Rd,,Bethesda,Maryland,20816,United States,Attorney ,"Paul, Weiss LLP",jskanter@hotmail.com,,,,,,,,,,,,505,,,,,,,,,,,,,,Josh Gottheimer for Congress,,,,,90642,6/7/2020 7:56:42 PM,,,,,,,,,,,Visa,,,,,,,,,,0.00,,,
62393478700,2020-06-08 01:39:22,5600.00,0,0,Josh Gottheimer,http://josh.kepleredge.com,,,,PeterLScher,,4012 Oliver Street,,ChevyChase,Maryland,20815,United States,Vice Chairman,JP Morgan Chase & Co,peter.l.scher@jpmchase.com,,,,,,,,,,,,506,,,,,,,,,,,,,,Josh Gottheimer for Congress,,,,,90643,6/8/2020 1:39:22 AM,,,,,,,,,,,Visa,,,,,,,,,,0.00,,,
62393481951,2020-06-08 01:43:18,180.00,0,0,Josh Gottheimer,http://josh.kepleredge.com,,,,SamuelLZimmerman,,3604 North Abingdon Street,,Arlington,Virginia,22207,United States,Urban Transport Planner,World Bank,zimmerman.sam@gmail.com,,,,,,,,,,,,507,,,,,,,,,,,,,,Josh Gottheimer for Congress,,,,,90644,6/8/2020 1:43:18 AM,,,,,,,,,,,Visa,,,,,,,,,,0.00,,,
62395580194,2020-06-09 11:54:23,2800.00,0,0,Josh Gottheimer,http://josh.kepleredge.com,,,,Katherine,M Turner ,1705 ALLISON ST NW,,WASHINGTON,District of Columbia,20011,United States,lawyer,Williams & Connolly LLP,KATHERINE.M.TURNER@GMAIL.COM,,,,,,,,,,,,508,,,,,,,,,,,,,,Josh Gottheimer for Congress,,,,,90645,6/9/2020 11:54:23 AM,,,,,,,,,,,Visa,,,,,,,,,,0.00,,,
62395708347,2020-06-09 01:40:55,5600.00,0,0,Josh Gottheimer,http://josh.kepleredge.com,,,,Eric,Reiter ,403 22nd St,,Santa Monica,California,90402,United States,Self,NA,ereiter01@gmail.com,,,,,,,,,,,,509,,,,,,,,,,,,,,Josh Gottheimer for Congress,,,,,90646,6/9/2020 1:40:55 PM,,,,,,,,,,,Visa,,,,,,,,,,0.00,,,
62396036476,2020-06-09 04:39:56,5600.00,0,0,Josh Gottheimer,http://josh.kepleredge.com,,,,MarjorieSommer,,211 sunset,,Ridgewood,New Jersey,07450,United States,Lcsw,Mags consulting llc,Marjorieasommer@gmail.com,,,,,,,,,,,,510,,,,,,,,,,,,,,Josh Gottheimer for Congress,,,,,90647,6/9/2020 4:39:56 PM,,,,,,,,,,,Visa,,,,,,,,,,0.00,,,
62396561171,2020-06-09 09:14:48,2800.00,0,0,Josh Gottheimer,http://josh.kepleredge.com,,,,HamiltonJames,,834 5th Ave,Apt. 13/14-A,New York,New York,10065,United States,Executive Vice Chairman,Blackstone,james@blackstone.com,,,,,,,,,,,,511,,,,,,,,,,,,,,Josh Gottheimer for Congress,,,,,90648,6/9/2020 9:14:48 PM,,,,,,,,,,,Visa,,,,,,,,,,0.00,,,
62396630036,2020-06-09 09:59:07,25.00,0,0,Josh Gottheimer,http://josh.kepleredge.com,,,,JOSEPH,SCHWAB ,658 Tilden Av.,,Teaneck,New Jersey,07666,United States,copyeditor,ADECCO USA,joeschwab2@aol.com,,,,,,,,,,,,513,,,,,,,,,,,,,,Josh Gottheimer for Congress,,,,,90649,6/9/2020 9:59:07 PM,,,,,,,,,,,Visa,,,,,,,,,,0.00,,,
62397578573,2020-06-10 12:47:18,500.00,0,0,Josh Gottheimer,http://josh.kepleredge.com,,,,EdwardSHyman,,666 Fifth Avenue,11th loor,NewYork,New York,10103,United States,Chairman,Evercore ISI,ed.hyman@evercoreisi.com,,,,,,,,,,,,514,,,,,,,,,,,,,,Josh Gottheimer for Congress,,,,,90650,6/10/2020 12:47:18 PM,,,,,,,,,,,Visa,,,,,,,,,,0.00,,,
62397827883,2020-06-10 03:12:09,300.00,0,0,Josh Gottheimer,http://josh.kepleredge.com,,,,eric,b shuffler ,160 west end ave,apt 23P,ny,New York,10023,United States,consultant,river crossing strategy group ,eric@rivercrossingsg.com,,,,,,,,,,,,515,,,,,,,,,,,,,,Josh Gottheimer for Congress,,,,,90651,6/10/2020 3:12:09 PM,,,,,,,,,,,Visa,,,,,,,,,,0.00,,,
62398801908,2020-06-11 12:31:45,5600.00,0,0,Josh Gottheimer,http://josh.kepleredge.com,,,,JosephMHession,,260 Boulevard ,,MountainLakes,New Jersey,07046,United States,CEO,SNOW Operating ,Hessionj@gmail.com,,,,,,,,,,,,516,,,,,,,,,,,,,,Josh Gottheimer for Congress,,,,,90652,6/11/2020 12:31:45 AM,,,,,,,,,,,Visa,,,,,,,,,,0.00,,,
62398823885,2020-06-11 12:53:29,150.00,0,0,Josh Gottheimer,http://josh.kepleredge.com,,,,Martin,D Chazin ,6 Downing Lane,,Voorhees,New Jersey,08043,United States,Attorney,Campbell Soup Company,Martychazin@yahoo.com,,,,,,,,,,,,517,,,,,,,,,,,,,,Josh Gottheimer for Congress,,,,,90653,6/11/2020 12:53:29 AM,,,,,,,,,,,Visa,,,,,,,,,,0.00,,,
62400953261,2020-06-12 12:23:37,150.00,0,0,Josh Gottheimer,http://josh.kepleredge.com,,,,RebecaGordy,,12 Joshua Dr,,Ramsey,New Jersey,07446,United States,Teacher,Ramapo Indian Hills School Dis,rebgordy@gmail.com,,,,,,,,,,,,518,,,,,,,,,,,,,,Josh Gottheimer for Congress,,,,,90654,6/12/2020 12:23:37 AM,,,,,,,,,,,Visa,,,,,,,,,,0.00,,,
62402172835,2020-06-12 09:07:33,1000.00,0,0,Josh Gottheimer,http://josh.kepleredge.com,,,,MAXINE,CLARK ,155 N. Bemiston Avenue,,SAINT LOUIS,Missouri,63105,United States,Retired,retired,allie@clark-fox.com,,,,,,,,,,,,519,,,,,,,,,,,,,,Josh Gottheimer for Congress,,,,,90655,6/12/2020 9:07:33 PM,,,,,,,,,,,Visa,,,,,,,,,,0.00,,,
62402616910,2020-06-13 04:14:57,1000.00,0,0,Josh Gottheimer,http://josh.kepleredge.com,,,,Taurie,M Zeitzer ,1100 Park Avenue,Apt 10C,NewYork,New York,10128,United States,Attorney,"Paul, Weiss",Tzeitzer@paulweiss.com,,,,,,,,,,,,520,,,,,,,,,,,,,,Josh Gottheimer for Congress,,,,,90656,6/13/2020 4:14:57 AM,,,,,,,,,,,Visa,,,,,,,,,,0.00,,,
62403747681,2020-06-13 06:39:10,500.00,0,0,Josh Gottheimer,http://josh.kepleredge.com,,,,Jeffrey,Nussbaum ,4716 Essex Ave,,Chevy Chase,Maryland,20815,United States,Partner,West Wing Writers,nussbaumjeff@gmail.com,,,,,,,,,,,,521,,,,,,,,,,,,,,Josh Gottheimer for Congress,,,,,90657,6/13/2020 6:39:10 PM,,,,,,,,,,,Visa,,,,,,,,,,0.00,,,
62404155315,2020-06-13 11:48:58,500.00,0,0,Josh Gottheimer,http://josh.kepleredge.com,,,,AliceEaton,,14 Jean Dr,,Englewood Cliffs,New Jersey,07632,United States,Attorney,Paul Weiss,aeaton@paulweiss.com,,,,,,,,,,,,522,,,,,,,,,,,,,,Josh Gottheimer for Congress,,,,,90658,6/13/2020 11:48:58 PM,,,,,,,,,,,Visa,,,,,,,,,,0.00,,,
62404294156,2020-06-14 03:05:19,500.00,0,0,Josh Gottheimer,http://josh.kepleredge.com,,,,Paul,Nathanson ,124 11th Street SE,,Washington,District of Columbia,20003,United States,Attorney ,Davis Polk Wardwell,paulnathanson@yahoo.com,,,,,,,,,,,,523,,,,,,,,,,,,,,Josh Gottheimer for Congress,,,,,90659,6/14/2020 3:05:19 AM,,,,,,,,,,,Visa,,,,,,,,,,0.00,,,
62404605548,2020-06-14 01:11:22,200.00,0,0,Josh Gottheimer,http://josh.kepleredge.com,,,,ReneMathez,,PO Box 351,,Columbia,New Jersey,07832,United States,Retired,None,renemathez@embarqmail.com,,,,,,,,,,,,524,,,,,,,,,,,,,,Josh Gottheimer for Congress,,,,,90660,6/14/2020 1:11:22 PM,,,,,,,,,,,Visa,,,,,,,,,,0.00,,,
62405122082,2020-06-14 08:37:41,250.00,0,0,Josh Gottheimer,http://josh.kepleredge.com,,,,Nicholas,Butterworth ,81 Walker Street,Apartment 3,New York,New York,10013,United States,Technology Executive ,Hana (CBRE),nicholas.butterworth@gmail.com,,,,,,,,,,,,525,,,,,,,,,,,,,,Josh Gottheimer for Congress,,,,,90661,6/14/2020 8:37:41 PM,,,,,,,,,,,Visa,,,,,,,,,,0.00,,,
62406620928,2020-06-15 02:06:23,1000.00,0,0,Josh Gottheimer,http://josh.kepleredge.com,,,,ClaudiaHammerman,,"171 West 71st Street, Apt. 5B",,NewYork,New York,10023,United States,Attorney,Paul Weiss Rifkind Wharton & G,chammerman@paulweiss.com,,,,,,,,,,,,526,,,,,,,,,,,,,,Josh Gottheimer for Congress,,,,,90662,6/15/2020 2:06:23 PM,,,,,,,,,,,Visa,,,,,,,,,,0.00,,,
62407144083,2020-06-15 05:47:52,500.00,0,0,Josh Gottheimer,http://josh.kepleredge.com,,,,CharlesHGooge,,11 broadview road,,Westport,Connecticut,06880,United States,Attorney,"Paul Weiss, et. Al. ",Cgooge@paulweiss.com,,,,,,,,,,,,527,,,,,,,,,,,,,,Josh Gottheimer for Congress,,,,,90663,6/15/2020 5:47:52 PM,,,,,,,,,,,Visa,,,,,,,,,,0.00,,,
62407156642,2020-06-15 05:53:46,50.00,0,0,Josh Gottheimer,http://josh.kepleredge.com,,,,Jeffrey,J De Korte ,3101 Greenscape Ln,,Las Vegas,Nevada,89138,United States,"VP, Marketing ",Caesars Entertainment ,jeffjdekorte@mac.com,,,,,,,,,,,,528,,,,,,,,,,,,,,Josh Gottheimer for Congress,,,,,90664,6/15/2020 5:53:46 PM,,,,,,,,,,,Visa,,,,,,,,,,0.00,,,
62408492268,2020-06-16 01:32:11,500.00,0,0,Josh Gottheimer,http://josh.kepleredge.com,,,,Tom,Krug ,1 Pierce Place ,Suite 1250W,Itasca,Illinois,60143,United States,Risk Management/Insurance,"J. Krug & Associates, Inc. ",tkrug@jkrug.com,,,,,,,,,,,,529,,,,,,,,,,,,,,Josh Gottheimer for Congress,,,,,90665,6/16/2020 1:32:11 PM,,,,,,,,,,,Visa,,,,,,,,,,0.00,,,
62408624048,2020-06-16 02:55:57,500.00,0,0,Josh Gottheimer,http://josh.kepleredge.com,,,,JILL, WEININGER ,10 E Delaware Pl,27E,Chicago,Illinois,60611,United States,Retired,N/A,Jrweininger@hotmail.com,,,,,,,,,,,,530,,,,,,,,,,,,,,Josh Gottheimer for Congress,,,,,90666,6/16/2020 2:55:57 PM,,,,,,,,,,,Visa,,,,,,,,,,0.00,,,
62408744544,2020-06-16 03:55:53,500.00,0,0,Josh Gottheimer,http://josh.kepleredge.com,,,,NancyRMcGrath,,213 East Allendale Ave.,,Allendale,New Jersey,07401,United States,designer of educational materi,self,n.mcgrath213@gmail.com,,,,,,,,,,,,531,,,,,,,,,,,,,,Josh Gottheimer for Congress,,,,,90667,6/16/2020 3:55:53 PM,,,,,,,,,,,Visa,,,,,,,,,,0.00,,,
62409599917,2020-06-16 11:17:44,100.00,0,0,Josh Gottheimer,http://josh.kepleredge.com,,,,JacobLinker,,24 Tamarack Rd,,Alpine,New Jersey,07620,United States,Law Student,GW Law,jlinker613@gmail.com,,,,,,,,,,,,532,,,,,,,,,,,,,,Josh Gottheimer for Congress,,,,,90668,6/16/2020 11:17:44 PM,,,,,,,,,,,Visa,,,,,,,,,,0.00,,,
