Receipt ID,Date,Amount,Recurring Total Months,Recurrence Number,Recipient,Fundraising Page,Fundraising Partner,Reference Code 2,Reference Code,Donor First Name,Donor Last Name,Donor Addr1,Donor Addr2,Donor City,Donor State,Donor ZIP,Donor Country,Donor Occupation,Donor Employer,Donor Email,Donor Phone,New Express Signup,Comments,Check Number,Check Date,Employer Addr1,Employer Addr2,Employer City,Employer State,Employer ZIP,Employer Country,Donor ID,Fundraiser ID,Fundraiser Recipient ID,Fundraiser Contact Email,Fundraiser Contact First Name,Fundraiser Contact Last Name,Partner ID,Partner Contact Email,Partner Contact First Name,Partner Contact Last Name,Reserved,Lineitem ID,AB Test Name,AB Variation,Recipient Committee,Recipient ID,Recipient Gov ID,Recipient Election,Reserved1,Payment ID,Payment Date,Disbursement ID,Disbursement Date,Recovery ID,Recovery Date,Refund ID,Refund Date,Fee,Recur Weekly,ActBlue Express Lane,Reserved2,Card Type,Reserved3,Reserved4,Reserved5,Reserved6,Mobile,Recurring Upsell Shown,Recurring Upsell Succeeded,Double Down,Smart Recurring,Monthly Recurring Amount,Apple Pay,Card Replaced by Account Updater,ActBlue Express Donor,Settlement Date & Time
42089375490,2020-07-01 01:12:33,5600.00,0,0,Josh Gottheimer,http://josh.kepleredge.com,,,,Karina,Fonstad ,PO Box 7420,,MenloPark,California,94026,United States,Unemployed,Unemployed,jf@owlcapital.com,,,,,,,,,,,,600,,,,,,,,,,,,,,Josh Gottheimer for Congress,,,,,90728,7/1/2020 1:12:33 AM,,,,,,,,,,,Visa,,,,,,,,,,0.00,,,,7/2/2020 12:13:05 AM
42089415381,2020-07-01 01:29:55,1000.00,0,0,Josh Gottheimer,http://josh.kepleredge.com,,,,Thomas,M Rosshirt ,4301 Rosemary street,,chevy chase,Maryland,20815,United States,consultant ,"TR Communications, LLC",tomrosshirt@gmail.com,,,,,,,,,,,,601,,,,,,,,,,,,,,Josh Gottheimer for Congress,,,,,90729,7/1/2020 1:29:55 AM,,,,,,,,,,,Visa,,,,,,,,,,0.00,,,,7/2/2020 12:13:05 AM
42089475408,2020-07-01 01:56:09,50.00,0,0,Josh Gottheimer,http://josh.kepleredge.com,,,,Thomas,J Kuhn ,100 Sunset Drive,,Tinton Falls,New Jersey,07724,United States,Retired,Consumer,tomkuhn118@hotmail.com,,,,,,,,,,,,602,,,,,,,,,,,,,,Josh Gottheimer for Congress,,,,,90730,7/1/2020 1:56:09 AM,,,,,,,,,,,Visa,,,,,,,,,,0.00,,,,7/2/2020 12:13:05 AM
42089490163,2020-07-01 02:02:38,250.00,0,0,Josh Gottheimer,http://josh.kepleredge.com,,,,Jonathan,Lesserson ,550 Faletti Way,,River Vale,New Jersey,07675,United States,Physician,"ENT and Allergy Associates,LLP",Jallsl@optonline.net,,,,,,,,,,,,603,,,,,,,,,,,,,,Josh Gottheimer for Congress,,,,,90731,7/1/2020 2:02:38 AM,,,,,,,,,,,Visa,,,,,,,,,,0.00,,,,7/2/2020 12:13:05 AM
42089509287,2020-07-01 02:11:13,500.00,0,0,Josh Gottheimer,http://josh.kepleredge.com,,,,Nicholas,DeFabrizio ,92 FENWICK RD,,AUGUSTA,New Jersey,07822,United States,attorney,CIT,nick.defabrizio@cit.com,,,,,,,,,,,,604,,,,,,,,,,,,,,Josh Gottheimer for Congress,,,,,90732,7/1/2020 2:11:13 AM,,,,,,,,,,,Visa,,,,,,,,,,0.00,,,,7/2/2020 12:13:05 AM
42089573758,2020-07-01 02:43:17,5600.00,0,0,Josh Gottheimer,http://josh.kepleredge.com,,,,Damon,Rahbar-Daniels ,6310 Auden Street,,Houston,Texas,77005,United States,Business Development,Tallgrass Energy,Damon.daniels@gmail.com,,,,,,,,,,,,605,,,,,,,,,,,,,,Josh Gottheimer for Congress,,,,,90733,7/1/2020 2:43:17 AM,,,,,,,,,,,Visa,,,,,,,,,,0.00,,,,7/2/2020 12:13:05 AM
62432361680,2020-07-01 12:47:17,250.00,0,0,Josh Gottheimer,http://josh.kepleredge.com,,,,Gabriel,R Dee ,66 Cherokee Ave.,,Allendale,New Jersey,07401,United States,Business Owner - Logistics,Select Carriers Inc.,gabedee32@gmail.com,,,,,,,,,,,,606,,,,,,,,,,,,,,Josh Gottheimer for Congress,,,,,90734,7/1/2020 12:47:17 PM,,,,,,,,,,,MasterCard,,,,,,,,,,0.00,,,,7/2/2020 12:13:05 AM
62433237469,2020-07-01 06:26:07,5.00,0,0,Josh Gottheimer,http://josh.kepleredge.com,,,,Ezekyel,Weston ,155 Manor Drive,,Red Bank,New Jersey,07701,United States,Assistant Manager,Belmar Bagels,westonzeke@gmail.com,,,,,,,,,,,,608,,,,,,,,,,,,,,Josh Gottheimer for Congress,,,,,90735,7/1/2020 6:26:07 PM,,,,,,,,,,,Visa,,,,,,,,,,0.00,,,,7/2/2020 12:13:05 AM
62433811053,2020-07-01 11:09:11,200.00,0,0,Josh Gottheimer,http://josh.kepleredge.com,,,,Barry,Berger ,160 Lincoln St.,,Englewood,New Jersey,07631,United States,Attorney,J.P. Morgan,barry.s.berger@jpmorgan.com,,,,,,,,,,,,609,,,,,,,,,,,,,,Josh Gottheimer for Congress,,,,,90736,7/1/2020 11:09:11 PM,,,,,,,,,,,MasterCard,,,,,,,,,,0.00,,,,7/3/2020 12:12:56 AM
62435334744,2020-07-02 06:31:22,50.00,0,0,Josh Gottheimer,http://josh.kepleredge.com,,,,Regis,A. Dale ,35 Murray Ave,,Mahwah,New Jersey,07430,United States,None,None,regisdale@gmail.com,,,,,,,,,,,,610,,,,,,,,,,,,,,Josh Gottheimer for Congress,,,,,90737,7/2/2020 6:31:22 PM,,,,,,,,,,,Visa,,,,,,,,,,0.00,,,,7/3/2020 12:12:56 AM
62436604067,2020-07-03 02:18:00,50.00,0,0,Josh Gottheimer,http://josh.kepleredge.com,,,,Ralph,Caruso ,265 Witches Cove Blve,,Four Seasons,Missouri,65049,United States,Retired,none,rhc26@yahoo.com,,,,,,,,,,,,611,,,,,,,,,,,,,,Josh Gottheimer for Congress,,,,,90738,7/3/2020 2:18:00 PM,,,,,,,,,,,MasterCard,,,,,,,,,,0.00,,,,7/4/2020 12:12:50 AM
62437383580,2020-07-03 10:25:10,3.00,0,0,Josh Gottheimer,http://josh.kepleredge.com,,,,Shabadjot,Bharara ,98 East Street,,Morris,Connecticut,06763,United States,Field Organizer,MT AFL-CIO,ishabad98@gmail.com,,,,,,,,,,,,612,,,,,,,,,,,,,,Josh Gottheimer for Congress,,,,,90739,7/3/2020 10:25:10 PM,,,,,,,,,,,Visa,,,,,,,,,,0.00,,,,7/4/2020 12:12:50 AM
62437615270,2020-07-04 02:49:36,100.00,0,0,Josh Gottheimer,http://josh.kepleredge.com,,,,Amy,Feldman ,588 Colonial Road,,RiverVale,New Jersey,07675,United States,Retired,None,iamlucky36@aol.com,,,,,,,,,,,,613,,,,,,,,,,,,,,Josh Gottheimer for Congress,,,,,90740,7/4/2020 2:49:36 AM,,,,,,,,,,,AmericanEx,,,,,,,,,,0.00,,,,7/5/2020 12:12:28 AM
62438125672,2020-07-04 02:11:15,25.00,0,0,Josh Gottheimer,http://josh.kepleredge.com,,,,Barbara,Bye ,5403 Pointe Gate Drive,,Livingston,New Jersey,07039,United States,Retired,Retired,bsbye@verizon.net,,,,,,,,,,,,614,,,,,,,,,,,,,,Josh Gottheimer for Congress,,,,,90741,7/4/2020 2:11:15 PM,,,,,,,,,,,MasterCard,,,,,,,,,,0.00,,,,7/5/2020 12:12:28 AM
62438605560,2020-07-04 10:11:16,18.00,0,0,Josh Gottheimer,http://josh.kepleredge.com,,,,David,Schwartz ,3808 N. Pine Grove Ave.,Apt. 1S,Chicago ,Illinois,60613,United States,Educator,Temple Har Zion,dischwar@gmail.com,,,,,,,,,,,,615,,,,,,,,,,,,,,Josh Gottheimer for Congress,,,,,90742,7/4/2020 10:11:16 PM,,,,,,,,,,,Visa,,,,,,,,,,0.00,,,,7/5/2020 12:12:28 AM
62439266277,2020-07-05 05:36:27,2800.00,0,0,Josh Gottheimer,http://josh.kepleredge.com,,,,Paul,Kaufman ,43 Lexington Ct,,Englewood ,New Jersey,07631,United States,Attorney,"Kaufman, Semeraro & Leibman LL",Pkaufman@northjerseyattorneys.com,,,,,,,,,,,,616,,,,,,,,,,,,,,Josh Gottheimer for Congress,,,,,90743,7/5/2020 5:36:27 PM,,,,,,,,,,,AmericanEx,,,,,,,,,,0.00,,,,7/6/2020 12:12:46 AM
62439536312,2020-07-05 10:06:50,50.00,0,0,Josh Gottheimer,http://josh.kepleredge.com,,,,John,Meier ,42C Chicopee Dr,,Princeton,New Jersey,08540,United States,Professor,Lafayette College,rjmfather@yahoo.com,,,,,,,,,,,,617,,,,,,,,,,,,,,Josh Gottheimer for Congress,,,,,90744,7/5/2020 10:06:50 PM,,,,,,,,,,,AmericanEx,,,,,,,,,,0.00,,,,7/6/2020 12:12:46 AM
62440276440,2020-07-06 01:39:27,100.00,0,0,Josh Gottheimer,http://josh.kepleredge.com,,,,Patricia,Burke ,130 Palm Boulevard,,Parrish,Florida,34219,United States,Business Development,Zoom ,patriciamburke@icloud.com,,,,,,,,,,,,619,,,,,,,,,,,,,,Josh Gottheimer for Congress,,,,,90745,7/6/2020 1:39:27 PM,,,,,,,,,,,MasterCard,,,,,,,,,,0.00,,,,7/7/2020 12:12:50 AM
62440303698,2020-07-06 01:56:15,50.00,0,0,Josh Gottheimer,http://josh.kepleredge.com,,,,Harlan,Kosson ,P.O. Box 309,,Pittsford,New York,14534,United States,retired,1954,harlankosson@aol.com,,,,,,,,,,,,620,,,,,,,,,,,,,,Josh Gottheimer for Congress,,,,,90746,7/6/2020 1:56:15 PM,,,,,,,,,,,AmericanEx,,,,,,,,,,0.00,,,,7/7/2020 12:12:50 AM
62441231594,2020-07-06 08:28:39,5.00,0,0,Josh Gottheimer,http://josh.kepleredge.com,,,,John,N Leonard ,124 Maldon Drive,,Cary,North Carolina,27513,United States,IT Program Manager,John Leonard Agile LLC,johnleonardnc@gmail.com,,,,,,,,,,,,621,,,,,,,,,,,,,,Josh Gottheimer for Congress,,,,,90747,7/6/2020 8:28:39 PM,,,,,,,,,,,Visa,,,,,,,,,,0.00,,,,7/7/2020 12:12:50 AM
