Receipt ID,Date,Amount,Recurring Total Months,Recurrence Number,Recipient,Fundraising Page,Fundraising Partner,Reference Code 2,Reference Code,Donor First Name,Donor Last Name,Donor Addr1,Donor Addr2,Donor City,Donor State,Donor ZIP,Donor Country,Donor Occupation,Donor Employer,Donor Email,Donor Phone,New Express Signup,Comments,Check Number,Check Date,Employer Addr1,Employer Addr2,Employer City,Employer State,Employer ZIP,Employer Country,Donor ID,Fundraiser ID,Fundraiser Recipient ID,Fundraiser Contact Email,Fundraiser Contact First Name,Fundraiser Contact Last Name,Partner ID,Partner Contact Email,Partner Contact First Name,Partner Contact Last Name,Reserved,Lineitem ID,AB Test Name,AB Variation,Recipient Committee,Recipient ID,Recipient Gov ID,Recipient Election,Reserved1,Payment ID,Payment Date,Disbursement ID,Disbursement Date,Recovery ID,Recovery Date,Refund ID,Refund Date,Fee,Recur Weekly,ActBlue Express Lane,Reserved2,Card Type,Reserved3,Reserved4,Reserved5,Reserved6,Mobile,Recurring Upsell Shown,Recurring Upsell Succeeded,Double Down,Smart Recurring,Monthly Recurring Amount,Apple Pay,Card Replaced by Account Updater,ActBlue Express Donor,Settlement Date & Time
42089375490,2020-07-01 01:12:33,5600.00,0,0,Josh Gottheimer,http://josh.kepleredge.com,,,,Karina,Fonstad ,PO Box 7420,,MenloPark,California,94026,United States,Unemployed,Unemployed,jf@owlcapital.com,,,,,,,,,,,,600,,,,,,,,,,,,,,Josh Gottheimer for Congress,,,,,90728,7/1/2020 1:12:33 AM,,,,,,,,,,,Visa,,,,,,,,,,0.00,,,,7/2/2020 12:13:05 AM
42089415381,2020-07-01 01:29:55,1000.00,0,0,Josh Gottheimer,http://josh.kepleredge.com,,,,Thomas,M Rosshirt ,4301 Rosemary street,,chevy chase,Maryland,20815,United States,consultant ,"TR Communications, LLC",tomrosshirt@gmail.com,,,,,,,,,,,,601,,,,,,,,,,,,,,Josh Gottheimer for Congress,,,,,90729,7/1/2020 1:29:55 AM,,,,,,,,,,,Visa,,,,,,,,,,0.00,,,,7/2/2020 12:13:05 AM
42089475408,2020-07-01 01:56:09,50.00,0,0,Josh Gottheimer,http://josh.kepleredge.com,,,,Thomas,J Kuhn ,100 Sunset Drive,,Tinton Falls,New Jersey,07724,United States,Retired,Consumer,tomkuhn118@hotmail.com,,,,,,,,,,,,602,,,,,,,,,,,,,,Josh Gottheimer for Congress,,,,,90730,7/1/2020 1:56:09 AM,,,,,,,,,,,Visa,,,,,,,,,,0.00,,,,7/2/2020 12:13:05 AM
42089490163,2020-07-01 02:02:38,250.00,0,0,Josh Gottheimer,http://josh.kepleredge.com,,,,Jonathan,Lesserson ,550 Faletti Way,,River Vale,New Jersey,07675,United States,Physician,"ENT and Allergy Associates,LLP",Jallsl@optonline.net,,,,,,,,,,,,603,,,,,,,,,,,,,,Josh Gottheimer for Congress,,,,,90731,7/1/2020 2:02:38 AM,,,,,,,,,,,Visa,,,,,,,,,,0.00,,,,7/2/2020 12:13:05 AM
42089509287,2020-07-01 02:11:13,500.00,0,0,Josh Gottheimer,http://josh.kepleredge.com,,,,Nicholas,DeFabrizio ,92 FENWICK RD,,AUGUSTA,New Jersey,07822,United States,attorney,CIT,nick.defabrizio@cit.com,,,,,,,,,,,,604,,,,,,,,,,,,,,Josh Gottheimer for Congress,,,,,90732,7/1/2020 2:11:13 AM,,,,,,,,,,,Visa,,,,,,,,,,0.00,,,,7/2/2020 12:13:05 AM
42089573758,2020-07-01 02:43:17,5600.00,0,0,Josh Gottheimer,http://josh.kepleredge.com,,,,Damon,Rahbar-Daniels ,6310 Auden Street,,Houston,Texas,77005,United States,Business Development,Tallgrass Energy,Damon.daniels@gmail.com,,,,,,,,,,,,605,,,,,,,,,,,,,,Josh Gottheimer for Congress,,,,,90733,7/1/2020 2:43:17 AM,,,,,,,,,,,Visa,,,,,,,,,,0.00,,,,7/2/2020 12:13:05 AM
62432361680,2020-07-01 12:47:17,250.00,0,0,Josh Gottheimer,http://josh.kepleredge.com,,,,Gabriel,R Dee ,66 Cherokee Ave.,,Allendale,New Jersey,07401,United States,Business Owner - Logistics,Select Carriers Inc.,gabedee32@gmail.com,,,,,,,,,,,,606,,,,,,,,,,,,,,Josh Gottheimer for Congress,,,,,90734,7/1/2020 12:47:17 PM,,,,,,,,,,,MasterCard,,,,,,,,,,0.00,,,,7/2/2020 12:13:05 AM
62433237469,2020-07-01 06:26:07,5.00,0,0,Josh Gottheimer,http://josh.kepleredge.com,,,,Ezekyel,Weston ,155 Manor Drive,,Red Bank,New Jersey,07701,United States,Assistant Manager,Belmar Bagels,westonzeke@gmail.com,,,,,,,,,,,,608,,,,,,,,,,,,,,Josh Gottheimer for Congress,,,,,90735,7/1/2020 6:26:07 PM,,,,,,,,,,,Visa,,,,,,,,,,0.00,,,,7/2/2020 12:13:05 AM
62433811053,2020-07-01 11:09:11,200.00,0,0,Josh Gottheimer,http://josh.kepleredge.com,,,,Barry,Berger ,160 Lincoln St.,,Englewood,New Jersey,07631,United States,Attorney,J.P. Morgan,barry.s.berger@jpmorgan.com,,,,,,,,,,,,609,,,,,,,,,,,,,,Josh Gottheimer for Congress,,,,,90736,7/1/2020 11:09:11 PM,,,,,,,,,,,MasterCard,,,,,,,,,,0.00,,,,7/3/2020 12:12:56 AM
62435334744,2020-07-02 06:31:22,50.00,0,0,Josh Gottheimer,http://josh.kepleredge.com,,,,Regis,A. Dale ,35 Murray Ave,,Mahwah,New Jersey,07430,United States,None,None,regisdale@gmail.com,,,,,,,,,,,,610,,,,,,,,,,,,,,Josh Gottheimer for Congress,,,,,90737,7/2/2020 6:31:22 PM,,,,,,,,,,,Visa,,,,,,,,,,0.00,,,,7/3/2020 12:12:56 AM
62436604067,2020-07-03 02:18:00,50.00,0,0,Josh Gottheimer,http://josh.kepleredge.com,,,,Ralph,Caruso ,265 Witches Cove Blve,,Four Seasons,Missouri,65049,United States,Retired,none,rhc26@yahoo.com,,,,,,,,,,,,611,,,,,,,,,,,,,,Josh Gottheimer for Congress,,,,,90738,7/3/2020 2:18:00 PM,,,,,,,,,,,MasterCard,,,,,,,,,,0.00,,,,7/4/2020 12:12:50 AM
62437383580,2020-07-03 10:25:10,3.00,0,0,Josh Gottheimer,http://josh.kepleredge.com,,,,Shabadjot,Bharara ,98 East Street,,Morris,Connecticut,06763,United States,Field Organizer,MT AFL-CIO,ishabad98@gmail.com,,,,,,,,,,,,612,,,,,,,,,,,,,,Josh Gottheimer for Congress,,,,,90739,7/3/2020 10:25:10 PM,,,,,,,,,,,Visa,,,,,,,,,,0.00,,,,7/4/2020 12:12:50 AM
62437615270,2020-07-04 02:49:36,100.00,0,0,Josh Gottheimer,http://josh.kepleredge.com,,,,Amy,Feldman ,588 Colonial Road,,RiverVale,New Jersey,07675,United States,Retired,None,iamlucky36@aol.com,,,,,,,,,,,,613,,,,,,,,,,,,,,Josh Gottheimer for Congress,,,,,90740,7/4/2020 2:49:36 AM,,,,,,,,,,,AmericanEx,,,,,,,,,,0.00,,,,7/5/2020 12:12:28 AM
62438125672,2020-07-04 02:11:15,25.00,0,0,Josh Gottheimer,http://josh.kepleredge.com,,,,Barbara,Bye ,5403 Pointe Gate Drive,,Livingston,New Jersey,07039,United States,Retired,Retired,bsbye@verizon.net,,,,,,,,,,,,614,,,,,,,,,,,,,,Josh Gottheimer for Congress,,,,,90741,7/4/2020 2:11:15 PM,,,,,,,,,,,MasterCard,,,,,,,,,,0.00,,,,7/5/2020 12:12:28 AM
62438605560,2020-07-04 10:11:16,18.00,0,0,Josh Gottheimer,http://josh.kepleredge.com,,,,David,Schwartz ,3808 N. Pine Grove Ave.,Apt. 1S,Chicago ,Illinois,60613,United States,Educator,Temple Har Zion,dischwar@gmail.com,,,,,,,,,,,,615,,,,,,,,,,,,,,Josh Gottheimer for Congress,,,,,90742,7/4/2020 10:11:16 PM,,,,,,,,,,,Visa,,,,,,,,,,0.00,,,,7/5/2020 12:12:28 AM
62439266277,2020-07-05 05:36:27,2800.00,0,0,Josh Gottheimer,http://josh.kepleredge.com,,,,Paul,Kaufman ,43 Lexington Ct,,Englewood ,New Jersey,07631,United States,Attorney,"Kaufman, Semeraro & Leibman LL",Pkaufman@northjerseyattorneys.com,,,,,,,,,,,,616,,,,,,,,,,,,,,Josh Gottheimer for Congress,,,,,90743,7/5/2020 5:36:27 PM,,,,,,,,,,,AmericanEx,,,,,,,,,,0.00,,,,7/6/2020 12:12:46 AM
62439536312,2020-07-05 10:06:50,50.00,0,0,Josh Gottheimer,http://josh.kepleredge.com,,,,John,Meier ,42C Chicopee Dr,,Princeton,New Jersey,08540,United States,Professor,Lafayette College,rjmfather@yahoo.com,,,,,,,,,,,,617,,,,,,,,,,,,,,Josh Gottheimer for Congress,,,,,90744,7/5/2020 10:06:50 PM,,,,,,,,,,,AmericanEx,,,,,,,,,,0.00,,,,7/6/2020 12:12:46 AM
62440276440,2020-07-06 01:39:27,100.00,0,0,Josh Gottheimer,http://josh.kepleredge.com,,,,Patricia,Burke ,130 Palm Boulevard,,Parrish,Florida,34219,United States,Business Development,Zoom ,patriciamburke@icloud.com,,,,,,,,,,,,619,,,,,,,,,,,,,,Josh Gottheimer for Congress,,,,,90745,7/6/2020 1:39:27 PM,,,,,,,,,,,MasterCard,,,,,,,,,,0.00,,,,7/7/2020 12:12:50 AM
62440303698,2020-07-06 01:56:15,50.00,0,0,Josh Gottheimer,http://josh.kepleredge.com,,,,Harlan,Kosson ,P.O. Box 309,,Pittsford,New York,14534,United States,retired,1954,harlankosson@aol.com,,,,,,,,,,,,620,,,,,,,,,,,,,,Josh Gottheimer for Congress,,,,,90746,7/6/2020 1:56:15 PM,,,,,,,,,,,AmericanEx,,,,,,,,,,0.00,,,,7/7/2020 12:12:50 AM
62441231594,2020-07-06 08:28:39,5.00,0,0,Josh Gottheimer,http://josh.kepleredge.com,,,,John,N Leonard ,124 Maldon Drive,,Cary,North Carolina,27513,United States,IT Program Manager,John Leonard Agile LLC,johnleonardnc@gmail.com,,,,,,,,,,,,621,,,,,,,,,,,,,,Josh Gottheimer for Congress,,,,,90747,7/6/2020 8:28:39 PM,,,,,,,,,,,Visa,,,,,,,,,,0.00,,,,7/7/2020 12:12:50 AM
62442132021,2020-07-07 01:07:44,250.00,0,0,Josh Gottheimer,http://josh.kepleredge.com,,,,Christine,W Lai ,58 Close Rd,,Greenwich,Connecticut,06831,United States,Executive Director,Special Education Legal Fund,Cwlai1@yahoo.com,,,,,,,,,,,,622,,,,,,,,,,,,,,Josh Gottheimer for Congress,,,,,90748,7/7/2020 1:07:44 PM,,,,,,,,,,,AmericanEx,,,,,,,,,,0.00,,,,7/8/2020 12:13:11 AM
62442156822,2020-07-07 01:21:28,100.00,0,0,Josh Gottheimer,http://josh.kepleredge.com,,,,Thomas,J. Sugrue ,5010 John Ticer Drive,,ALEXANDRIA,Virginia,22304,United States,Retired,NA,tsugrue11@gmail.com,,,,,,,,,,,,623,,,,,,,,,,,,,,Josh Gottheimer for Congress,,,,,90749,7/7/2020 1:21:28 PM,,,,,,,,,,,Visa,,,,,,,,,,0.00,,,,7/8/2020 12:13:11 AM
62443261096,2020-07-07 11:33:46,500.00,0,0,Josh Gottheimer,http://josh.kepleredge.com,,,,Mark,S Bergman  ,1285 Ave of the americas ,,NewYork,New York,10019,United States,Attorney ,Paul Weiss,Websccessmb@gmail.com,,,,,,,,,,,,624,,,,,,,,,,,,,,Josh Gottheimer for Congress,,,,,90750,7/7/2020 11:33:46 PM,,,,,,,,,,,AmericanEx,,,,,,,,,,0.00,,,,7/9/2020 12:12:45 AM
62444304035,2020-07-08 05:14:36,2800.00,0,0,Josh Gottheimer,http://josh.kepleredge.com,,,,William,Clareman ,30 Main St.,Apt. 8F,Brooklyn,New York,11201,United States,Attorney,"Paul, Weiss",wclareman@paulweiss.com,,,,,,,,,,,,625,,,,,,,,,,,,,,Josh Gottheimer for Congress,,,,,90751,7/8/2020 5:14:36 PM,,,,,,,,,,,MasterCard,,,,,,,,,,0.00,,,,7/9/2020 12:12:45 AM
62444386103,2020-07-08 05:58:12,100.00,0,0,Josh Gottheimer,http://josh.kepleredge.com,,,,John,L. Stroub ,702 Shawnee Drive,,Franklin Lakes,New Jersey,07417,United States,Retired,N/A,johnstroub@gmail.com,,,,,,,,,,,,626,,,,,,,,,,,,,,Josh Gottheimer for Congress,,,,,90752,7/8/2020 5:58:12 PM,,,,,,,,,,,Visa,,,,,,,,,,0.00,,,,7/9/2020 12:12:45 AM
62444433721,2020-07-08 06:22:07,500.00,0,0,Josh Gottheimer,http://josh.kepleredge.com,,,,Matthew,Vahue ,48 W. Church St.,,Fairport,New York,14450,United States,Financial Executive,"Alliance Advisory Group, Inc.",matthew.vahue@allianceadvisorygroup.com,,,,,,,,,,,,627,,,,,,,,,,,,,,Josh Gottheimer for Congress,,,,,90753,7/8/2020 6:22:07 PM,,,,,,,,,,,AmericanEx,,,,,,,,,,0.00,,,,7/9/2020 12:12:45 AM
62444577942,2020-07-08 07:28:17,2000.00,0,0,Josh Gottheimer,http://josh.kepleredge.com,,,,Brad,J. Finkelstein  ,15 west 11 street ,,New York ,New York,10011,United States,Lawyer,Paul weiss,Bfinkelstein@paulweiss.com,,,,,,,,,,,,628,,,,,,,,,,,,,,Josh Gottheimer for Congress,,,,,90754,7/8/2020 7:28:17 PM,,,,,,,,,,,AmericanEx,,,,,,,,,,0.00,,,,7/9/2020 12:12:45 AM
62444817671,2020-07-08 09:44:03,500.00,0,0,Josh Gottheimer,http://josh.kepleredge.com,,,,Norman,Dorf ,28 County Road,,Tenafly,New Jersey,07670,United States,Business Owner ,Honda of Tenafly ,normand@dcautos.com,,,,,,,,,,,,629,,,,,,,,,,,,,,Josh Gottheimer for Congress,,,,,90755,7/8/2020 9:44:03 PM,,,,,,,,,,,AmericanEx,,,,,,,,,,0.00,,,,7/9/2020 12:12:45 AM
62445828563,2020-07-09 03:32:00,1000.00,0,0,Josh Gottheimer,http://josh.kepleredge.com,,,,Leyla,A Lesina ,36 White Road,,Ringwood,New Jersey,07456,United States,Head of Distribution,Guardian Life Insurance Co.,LL7844@aol.com,,,,,,,,,,,,633,,,,,,,,,,,,,,Josh Gottheimer for Congress,,,,,90759,7/9/2020 3:32:00 PM,,,,,,,,,,,AmericanEx,,,,,,,,,,0.00,,,,7/10/2020 12:12:57 AM
62445850193,2020-07-09 03:42:33,500.00,0,0,Josh Gottheimer,http://josh.kepleredge.com,,,,Edward,Ackerman ,870 United Nations Plaza,22A,New York,New York,10017,United States,lawyer,Paul Weiss,eackerman@paulweiss.com,,,,,,,,,,,,634,,,,,,,,,,,,,,Josh Gottheimer for Congress,,,,,90760,7/9/2020 3:42:33 PM,,,,,,,,,,,Visa,,,,,,,,,,0.00,,,,7/10/2020 12:12:57 AM
62446148188,2020-07-09 06:18:41,100.00,0,0,Josh Gottheimer,http://josh.kepleredge.com,,,,Jeff,Jarrard ,723 Summerhill Ridge Drive NW,,Issaquah,Washington,98027,United States,Data Scientist,Microsoft,jarrardenator@gmail.com,,,,,,,,,,,,635,,,,,,,,,,,,,,Josh Gottheimer for Congress,,,,,90761,7/9/2020 6:18:41 PM,,,,,,,,,,,Visa,,,,,,,,,,0.00,,,,7/10/2020 12:12:57 AM
62446595757,2020-07-09 10:12:16,10.00,0,0,Josh Gottheimer,http://josh.kepleredge.com,,,,Ruth,N Ciser ,1448 York Street,,MAHWAH,New Jersey,07438,United States,Executive Assistant,"CB Snyder Realty, LLC",rciser@optonline.net,,,,,,,,,,,,636,,,,,,,,,,,,,,Josh Gottheimer for Congress,,,,,90762,7/9/2020 10:12:16 PM,,,,,,,,,,,Discover,,,,,,,,,,0.00,,,,7/10/2020 12:12:57 AM
62448404512,2020-07-10 08:24:15,500.00,0,0,Josh Gottheimer,http://josh.kepleredge.com,,,,Robert,E Eichler ,80 Windsor Gate Drive,,North Hills,New York,11040,United States,Financial Advisor,CCL Financial Group,reichler@cclfinancialllc.com,,,,,,,,,,,,637,,,,,,,,,,,,,,Josh Gottheimer for Congress,,,,,90763,7/10/2020 8:24:15 PM,,,,,,,,,,,AmericanEx,,,,,,,,,,0.00,,,,7/11/2020 12:12:59 AM
62448824000,2020-07-11 01:37:40,500.00,0,0,Josh Gottheimer,http://josh.kepleredge.com,,,,Barbara,Ostfeld ,310 N Woodland St,,Englewood,New Jersey,07631,United States,Developmental Psychologist,Rutgers RWJMS,barbostfeld@aol.com,,,,,,,,,,,,638,,,,,,,,,,,,,,Josh Gottheimer for Congress,,,,,90764,7/11/2020 1:37:40 AM,,,,,,,,,,,AmericanEx,,,,,,,,,,0.00,,,,7/12/2020 12:12:49 AM
62451069662,2020-07-13 01:24:48,50.00,0,0,Josh Gottheimer,http://josh.kepleredge.com,,,,Gerald,Platt ,5 10 KARL ST,,FAIR LAWN,New Jersey,07410-,United States,real estate,self,jerryp2100@optimum.net,,,,,,,,,,,,639,,,,,,,,,,,,,,Josh Gottheimer for Congress,,,,,90765,7/13/2020 1:24:48 AM,,,,,,,,,,,Visa,,,,,,,,,,0.00,,,,7/14/2020 12:13:04 AM
62451822229,2020-07-13 03:53:54,500.00,0,0,Josh Gottheimer,http://josh.kepleredge.com,,,,Gia,Alvarez ,35 Forest Road,,Tenafly,New Jersey,07670,United States,CEO,JumaFit,gia.a@me.com,,,,,,,,,,,,640,,,,,,,,,,,,,,Josh Gottheimer for Congress,,,,,90766,7/13/2020 3:53:54 PM,,,,,,,,,,,AmericanEx,,,,,,,,,,0.00,,,,7/14/2020 12:13:04 AM
62456466483,2020-07-15 09:05:40,2800.00,0,0,Josh Gottheimer,http://josh.kepleredge.com,,,,David,R. Peeler ,15 Buckingham Street,,Cambridge,Massachusetts,02138,United States,Senior Advisor,Berkshire Partners,rpeeler@berkshirepartners.com,,,,,,,,,,,,641,,,,,,,,,,,,,,Josh Gottheimer for Congress,,,,,90767,7/15/2020 9:05:40 PM,,,,,,,,,,,AmericanEx,,,,,,,,,,0.00,,,,7/16/2020 12:12:48 AM
