Receipt ID,Date,Amount,Recurring Total Months,Recurrence Number,Recipient,Fundraising Page,Fundraising Partner,Reference Code 2,Reference Code,Donor First Name,Donor Last Name,Donor Addr1,Donor Addr2,Donor City,Donor State,Donor ZIP,Donor Country,Donor Occupation,Donor Employer,Donor Email,Donor Phone,New Express Signup,Comments,Check Number,Check Date,Employer Addr1,Employer Addr2,Employer City,Employer State,Employer ZIP,Employer Country,Donor ID,Fundraiser ID,Fundraiser Recipient ID,Fundraiser Contact Email,Fundraiser Contact First Name,Fundraiser Contact Last Name,Partner ID,Partner Contact Email,Partner Contact First Name,Partner Contact Last Name,Reserved,Lineitem ID,AB Test Name,AB Variation,Recipient Committee,Recipient ID,Recipient Gov ID,Recipient Election,Reserved1,Payment ID,Payment Date,Disbursement ID,Disbursement Date,Recovery ID,Recovery Date,Refund ID,Refund Date,Fee,Recur Weekly,ActBlue Express Lane,Reserved2,Card Type,Reserved3,Reserved4,Reserved5,Reserved6,Mobile,Recurring Upsell Shown,Recurring Upsell Succeeded,Double Down,Smart Recurring,Monthly Recurring Amount,Apple Pay,Card Replaced by Account Updater,ActBlue Express Donor,Settlement Date & Time
62474438568,2020-07-27 01:20:43,50.00,0,0,Josh Gottheimer,http://josh.kepleredge.com,,,,Lenore,Gladstone ,9714 Barrister Court,,Bethesda,Maryland,20814,United States,School administration,Ivymount School,Lenniegladstone@gmail.com,,,,,,,,,,,,651,,,,,,,,,,,,,,Josh Gottheimer for Congress,,,,,90777,7/27/2020 1:20:43 AM,,,,,,,,,,,Visa,,,,,,,,,,0.00,,,,7/28/2020 12:12:53 AM
62475087576,2020-07-27 03:01:06,5600.00,0,0,Josh Gottheimer,http://josh.kepleredge.com,,,,K,A Kooper ,791 Albemarle Street,,Wyckoff,New Jersey,07481,United States,Partner/General Counsel,Ares Management,kakooper@hotmail.com,,,,,,,,,,,,652,,,,,,,,,,,,,,Josh Gottheimer for Congress,,,,,90778,7/27/2020 3:01:06 PM,,,,,,,,,,,AmericanEx,,,,,,,,,,0.00,,,,7/28/2020 12:12:53 AM
62475810267,2020-07-27 08:52:02,500.00,0,0,Josh Gottheimer,http://josh.kepleredge.com,,,,Elizabeth,Cantrill ,35 West 71st Street,,New York,New York,10023,United States,Finane,PIMCO,lcantrill@gmail.com,,,,,,,,,,,,654,,,,,,,,,,,,,,Josh Gottheimer for Congress,,,,,90779,7/27/2020 8:52:02 PM,,,,,,,,,,,Visa,,,,,,,,,,0.00,,,,7/28/2020 12:12:53 AM
62478930282,2020-07-29 06:56:42,5.00,0,0,Josh Gottheimer,http://josh.kepleredge.com,,,,Shannon,McPartland ,10 Joanna Way,,Summit,New Jersey,07901,United States,Teacher,Kent Place School,pseudonymanonym@gmail.com,,,,,,,,,,,,656,,,,,,,,,,,,,,Josh Gottheimer for Congress,,,,,90780,7/29/2020 6:56:42 PM,,,,,,,,,,,AmericanEx,,,,,,,,,,0.00,,,,7/30/2020 12:12:45 AM
